<?xml version="1.0" encoding="UTF-8" standalone="no"?>
<!-- Created with Inkscape (http://www.inkscape.org/) -->

<svg
   xmlns:osb="http://www.openswatchbook.org/uri/2009/osb"
   xmlns:dc="http://purl.org/dc/elements/1.1/"
   xmlns:cc="http://creativecommons.org/ns#"
   xmlns:rdf="http://www.w3.org/1999/02/22-rdf-syntax-ns#"
   xmlns:svg="http://www.w3.org/2000/svg"
   xmlns="http://www.w3.org/2000/svg"
   xmlns:xlink="http://www.w3.org/1999/xlink"
   xmlns:sodipodi="http://sodipodi.sourceforge.net/DTD/sodipodi-0.dtd"
   xmlns:inkscape="http://www.inkscape.org/namespaces/inkscape"
   width="1950"
   height="540"
   viewBox="0 0 1950 540"
   id="svg2"
   version="1.1"
   inkscape:version="0.92.2 2405546, 2018-03-11"
   sodipodi:docname="header-bg-fallback.svg"
   inkscape:export-filename="/home/iko/Downloads/header-bg-flbk.png"
   inkscape:export-xdpi="96"
   inkscape:export-ydpi="96">
  <sodipodi:namedview
     id="base"
     pagecolor="#f0f0f0"
     bordercolor="#000000"
     borderopacity="0.06666667"
     inkscape:pageopacity="0"
     inkscape:pageshadow="2"
     inkscape:zoom="0.25"
     inkscape:cx="773.39421"
     inkscape:cy="4.778527"
     inkscape:document-units="px"
     inkscape:current-layer="g1299"
     showgrid="false"
     inkscape:window-width="1366"
     inkscape:window-height="714"
     inkscape:window-x="0"
     inkscape:window-y="25"
     inkscape:window-maximized="1"
     fit-margin-top="0"
     fit-margin-left="0"
     fit-margin-right="0"
     fit-margin-bottom="0"
     inkscape:snap-page="true"
     borderlayer="true"
     inkscape:showpageshadow="true"
     units="px"
     showguides="false"
     inkscape:guide-bbox="true"
     inkscape:snap-bbox="true"
     inkscape:snap-nodes="true"
     inkscape:snap-grids="true"
     showborder="true"
     inkscape:bbox-nodes="true"
     inkscape:snap-global="true"
     inkscape:snap-others="true"
     inkscape:bbox-paths="true"
     inkscape:object-paths="false"
     inkscape:snap-intersection-paths="true"
     inkscape:object-nodes="true"
     inkscape:snap-smooth-nodes="false"
     inkscape:snap-midpoints="false"
     inkscape:snap-bbox-edge-midpoints="true"
     inkscape:snap-tangential="false"
     inkscape:snap-center="true"
     inkscape:lockguides="true"
     inkscape:measure-start="0,0"
     inkscape:measure-end="0,0"
     inkscape:pagecheckerboard="false">
    <inkscape:grid
       enabled="true"
       id="grid4548"
       type="xygrid"
       spacingx="30"
       spacingy="30"
       dotted="false"
       empspacing="5"
       color="#0000ff"
       opacity="0.03921569"
       empcolor="#0000ff"
       empopacity="0.05882353"
       originx="1200"
       originy="6000" />
    <sodipodi:guide
       inkscape:color="rgb(0,0,255)"
       inkscape:label=""
       id="guide16513"
       orientation="0,1"
       position="2100,12399.994"
       inkscape:locked="true" />
    <sodipodi:guide
       position="1169.8579,12114.772"
       orientation="0,1"
       id="guide35840"
       inkscape:locked="true" />
    <inkscape:grid
       type="xygrid"
       id="grid6477"
       dotted="true"
       spacingx="15"
       spacingy="15"
       empspacing="1"
       empcolor="#3f3fff"
       empopacity="0.0627451"
       enabled="true"
       originx="1200"
       originy="6000" />
    <sodipodi:guide
       position="600,3000"
       orientation="0,1"
       id="guide6498"
       inkscape:locked="true" />
    <sodipodi:guide
       position="600,3000"
       orientation="1,0"
       id="guide6500"
       inkscape:locked="true" />
    <sodipodi:guide
       position="630,3000"
       orientation="1,0"
       id="guide6502"
       inkscape:locked="true" />
    <sodipodi:guide
       position="690,3000"
       orientation="1,0"
       id="guide6504"
       inkscape:locked="true" />
    <sodipodi:guide
       position="720,3000"
       orientation="1,0"
       id="guide6506"
       inkscape:locked="true" />
    <sodipodi:guide
       position="780,3000"
       orientation="1,0"
       id="guide6508"
       inkscape:locked="true" />
    <sodipodi:guide
       position="810,3000"
       orientation="1,0"
       id="guide6510"
       inkscape:locked="true" />
    <sodipodi:guide
       position="870,3000"
       orientation="1,0"
       id="guide6512"
       inkscape:locked="true" />
    <sodipodi:guide
       position="900,3000"
       orientation="1,0"
       id="guide6514"
       inkscape:locked="true" />
    <sodipodi:guide
       position="960,3000"
       orientation="1,0"
       id="guide6516"
       inkscape:locked="true" />
    <sodipodi:guide
       position="990,3000"
       orientation="1,0"
       id="guide6518"
       inkscape:locked="true" />
    <sodipodi:guide
       position="1050,3000"
       orientation="1,0"
       id="guide6520"
       inkscape:locked="true" />
    <sodipodi:guide
       position="1080,3000"
       orientation="1,0"
       id="guide6522"
       inkscape:locked="true" />
    <sodipodi:guide
       position="1140,3000"
       orientation="1,0"
       id="guide6524"
       inkscape:locked="true" />
    <sodipodi:guide
       position="1170,3000"
       orientation="1,0"
       id="guide6526"
       inkscape:locked="true" />
    <sodipodi:guide
       position="1230,3000"
       orientation="1,0"
       id="guide6528"
       inkscape:locked="true" />
    <sodipodi:guide
       position="1260,3000"
       orientation="1,0"
       id="guide6530"
       inkscape:locked="true" />
    <sodipodi:guide
       position="1320,3000"
       orientation="1,0"
       id="guide6532"
       inkscape:locked="true" />
    <sodipodi:guide
       position="1350,3000"
       orientation="1,0"
       id="guide6534"
       inkscape:locked="true" />
    <sodipodi:guide
       position="600,2940"
       orientation="0,1"
       id="guide6621"
       inkscape:locked="true" />
  </sodipodi:namedview>
  <defs
     id="defs4">
    <linearGradient
       inkscape:collect="always"
       id="linearGradient10189">
      <stop
         style="stop-color:#c5f1fd;stop-opacity:1;"
         offset="0"
         id="stop10185" />
      <stop
         style="stop-color:#c5f1fd;stop-opacity:0;"
         offset="1"
         id="stop10187" />
    </linearGradient>
    <linearGradient
       inkscape:collect="always"
       id="linearGradient14519">
      <stop
         style="stop-color:#c5f1fd;stop-opacity:1;"
         offset="0"
         id="stop14515" />
      <stop
         style="stop-color:#c5f1fd;stop-opacity:0;"
         offset="1"
         id="stop14517" />
    </linearGradient>
    <linearGradient
       inkscape:collect="always"
       id="linearGradient11891">
      <stop
         style="stop-color:#ffffff;stop-opacity:1;"
         offset="0"
         id="stop11887" />
      <stop
         style="stop-color:#ffffff;stop-opacity:0;"
         offset="1"
         id="stop11889" />
    </linearGradient>
    <linearGradient
       id="linearGradient8983"
       osb:paint="solid">
      <stop
         style="stop-color:#000000;stop-opacity:1;"
         offset="0"
         id="stop8981" />
    </linearGradient>
    <linearGradient
       id="linearGradient8226"
       osb:paint="solid">
      <stop
         style="stop-color:#4ebf7a;stop-opacity:1;"
         offset="0"
         id="stop8224" />
    </linearGradient>
    <linearGradient
       id="linearGradient7909"
       osb:paint="solid">
      <stop
         style="stop-color:#4ebf7a;stop-opacity:1;"
         offset="0"
         id="stop7907" />
    </linearGradient>
    <linearGradient
       id="linearGradient8953"
       osb:paint="solid">
      <stop
         style="stop-color:#09628e;stop-opacity:1;"
         offset="0"
         id="stop8951" />
    </linearGradient>
    <linearGradient
       id="linearGradient13144"
       osb:paint="solid">
      <stop
         style="stop-color:#000000;stop-opacity:1;"
         offset="0"
         id="stop13142" />
    </linearGradient>
    <linearGradient
       id="linearGradient48059"
       osb:paint="solid">
      <stop
         style="stop-color:#000000;stop-opacity:1;"
         offset="0"
         id="stop48057" />
    </linearGradient>
    <linearGradient
       id="linearGradient6775"
       osb:paint="solid">
      <stop
         style="stop-color:#47cfec;stop-opacity:1;"
         offset="0"
         id="stop6773" />
    </linearGradient>
    <linearGradient
       id="linearGradient9396"
       osb:paint="solid">
      <stop
         style="stop-color:#beeffd;stop-opacity:1;"
         offset="0"
         id="stop9393" />
    </linearGradient>
    <linearGradient
       id="linearGradient4933"
       osb:paint="solid">
      <stop
         style="stop-color:#fefefe;stop-opacity:1;"
         offset="0"
         id="stop4931" />
    </linearGradient>
    <linearGradient
       id="linearGradient11654"
       osb:paint="solid"
       gradientTransform="matrix(0.00275876,0,0,0.00275876,-45296.744,312607.05)">
      <stop
         style="stop-color:#09628e;stop-opacity:1;"
         offset="0"
         id="stop11656" />
    </linearGradient>
    <linearGradient
       id="linearGradient26197"
       osb:paint="solid">
      <stop
         style="stop-color:#000000;stop-opacity:1;"
         offset="0"
         id="stop26199" />
    </linearGradient>
    <linearGradient
       id="linearGradient25989"
       osb:paint="solid">
      <stop
         style="stop-color:#000000;stop-opacity:1;"
         offset="0"
         id="stop25991" />
    </linearGradient>
    <linearGradient
       id="linearGradient5456"
       osb:paint="solid">
      <stop
         style="stop-color:#000000;stop-opacity:1;"
         offset="0"
         id="stop5458" />
    </linearGradient>
    <linearGradient
       id="linearGradient5431"
       osb:paint="solid">
      <stop
         style="stop-color:#000000;stop-opacity:1;"
         offset="0"
         id="stop5433" />
    </linearGradient>
    <linearGradient
       id="linearGradient10566"
       osb:paint="solid">
      <stop
         style="stop-color:#000080;stop-opacity:1;"
         offset="0"
         id="stop10564" />
    </linearGradient>
    <linearGradient
       id="linearGradient10558"
       osb:paint="solid">
      <stop
         style="stop-color:#ff0000;stop-opacity:1;"
         offset="0"
         id="stop10556" />
    </linearGradient>
    <linearGradient
       id="linearGradient14557"
       inkscape:collect="always">
      <stop
         id="stop14559"
         offset="0"
         style="stop-color:#c5f1fd;stop-opacity:1" />
      <stop
         id="stop14561"
         offset="1"
         style="stop-color:#ffffff;stop-opacity:0" />
    </linearGradient>
    <linearGradient
       id="linearGradient9456"
       osb:paint="solid"
       gradientTransform="matrix(0.01852198,0,0,0.01852198,-314.70878,-719.319)">
      <stop
         style="stop-color:#4ebf7a;stop-opacity:1;"
         offset="0"
         id="stop9458" />
    </linearGradient>
    <linearGradient
       id="linearGradient20707"
       osb:paint="solid"
       gradientTransform="matrix(3.8867851,0,0,3.8867851,-7107.1337,31047.154)">
      <stop
         style="stop-color:#ffffff;stop-opacity:1;"
         offset="0"
         id="stop20709" />
    </linearGradient>
    <linearGradient
       id="linearGradient7831"
       osb:paint="solid">
      <stop
         style="stop-color:#ffffff;stop-opacity:1;"
         offset="0"
         id="stop7833" />
    </linearGradient>
    <linearGradient
       id="linearGradient11336"
       osb:paint="solid"
       gradientTransform="matrix(3.4306404e-4,0,0,3.4306404e-4,-85.907051,-131.60991)">
      <stop
         style="stop-color:#4ebf7a;stop-opacity:1;"
         offset="0"
         id="stop11338" />
    </linearGradient>
    <linearGradient
       id="linearGradient106965"
       osb:paint="solid">
      <stop
         style="stop-color:#ffffff;stop-opacity:1;"
         offset="0"
         id="stop106967" />
    </linearGradient>
    <linearGradient
       id="linearGradient37084"
       osb:paint="solid"
       gradientTransform="matrix(0.07199096,0,0,0.07199096,-4515.0374,14966.105)">
      <stop
         style="stop-color:#c5f1fd;stop-opacity:1;"
         offset="0"
         id="stop37086" />
    </linearGradient>
    <linearGradient
       id="road"
       osb:paint="solid">
      <stop
         style="stop-color:#d9d9d9;stop-opacity:1;"
         offset="0"
         id="stop18799" />
    </linearGradient>
    <linearGradient
       id="linearGradient18227"
       osb:paint="solid">
      <stop
         style="stop-color:#ffffff;stop-opacity:1;"
         offset="0"
         id="stop18229" />
    </linearGradient>
    <linearGradient
       id="linearGradient17400"
       osb:paint="solid"
       gradientTransform="matrix(0.02973396,0,0,0.01852198,1348.5878,61.008586)">
      <stop
         style="stop-color:#ffffff;stop-opacity:1;"
         offset="0"
         id="stop17402" />
    </linearGradient>
    <linearGradient
       id="Red"
       osb:paint="solid"
       gradientTransform="matrix(0.21194404,0,0,0.00381842,-3094.6368,221.38405)">
      <stop
         style="stop-color:#d66a6a;stop-opacity:1;"
         offset="0"
         id="stop9059" />
    </linearGradient>
    <linearGradient
       id="linearGradient15200"
       inkscape:collect="always">
      <stop
         id="stop15202"
         offset="0"
         style="stop-color:#ffffff;stop-opacity:0" />
      <stop
         id="stop15204"
         offset="1"
         style="stop-color:#ffffff;stop-opacity:1" />
    </linearGradient>
    <linearGradient
       osb:paint="solid"
       id="green2"
       gradientTransform="matrix(9.1033223e-6,0,0,9.1033222e-6,1986.6894,542.44388)">
      <stop
         id="stop13609"
         offset="0"
         style="stop-color:#44a76b;stop-opacity:1;" />
    </linearGradient>
    <linearGradient
       id="button_gradient"
       osb:paint="gradient">
      <stop
         style="stop-color:#64c78b;stop-opacity:1"
         offset="0"
         id="stop9475" />
      <stop
         style="stop-color:#44a76b;stop-opacity:1"
         offset="1"
         id="stop9477" />
    </linearGradient>
    <linearGradient
       gradientTransform="matrix(0,0,0,0,32.194866,2318.9507)"
       osb:paint="solid"
       id="Bright-Blue-text">
      <stop
         id="stop19747"
         offset="0"
         style="stop-color:#47cfec;stop-opacity:1;" />
    </linearGradient>
    <linearGradient
       gradientTransform="matrix(0.02861521,0,0,0.29232534,-2.1595456,-126.73888)"
       id="linearGradient13216">
      <stop
         id="stop13218"
         offset="0"
         style="stop-color:#13628e;stop-opacity:1;" />
    </linearGradient>
    <linearGradient
       id="linearGradient26764">
      <stop
         id="stop26766"
         offset="0"
         style="stop-color:#13628e;stop-opacity:1;" />
    </linearGradient>
    <linearGradient
       id="linearGradient14408">
      <stop
         id="stop14410"
         offset="0"
         style="stop-color:#ffffff;stop-opacity:1;" />
    </linearGradient>
    <linearGradient
       gradientTransform="scale(0.07000434)"
       id="blue_dark_TEXT">
      <stop
         id="stop10388"
         offset="0"
         style="stop-color:#c7232f;stop-opacity:1;" />
    </linearGradient>
    <linearGradient
       gradientTransform="matrix(0,0,0,0,2114.2038,1038.5104)"
       osb:paint="solid"
       id="Gold">
      <stop
         id="stop10252"
         offset="0"
         style="stop-color:#f9ff68;stop-opacity:1;" />
    </linearGradient>
    <linearGradient
       id="linearGradient9395"
       osb:paint="solid">
      <stop
         id="stop9397"
         offset="0"
         style="stop-color:#ffffff;stop-opacity:1;" />
    </linearGradient>
    <linearGradient
       id="linearGradient9389">
      <stop
         id="stop9391"
         offset="0"
         style="stop-color:#13628e;stop-opacity:1;" />
    </linearGradient>
    <linearGradient
       id="linearGradient12931">
      <stop
         id="stop12933"
         offset="0"
         style="stop-color:#13628e;stop-opacity:1;" />
    </linearGradient>
    <linearGradient
       id="linearGradient10526">
      <stop
         id="stop10528"
         offset="0"
         style="stop-color:#ffffff;stop-opacity:1;" />
    </linearGradient>
    <linearGradient
       id="linearGradient10344">
      <stop
         id="stop10346"
         offset="0"
         style="stop-color:#c4e8f5;stop-opacity:1;" />
    </linearGradient>
    <linearGradient
       id="linearGradient6871">
      <stop
         id="stop6873"
         offset="0"
         style="stop-color:#ffffff;stop-opacity:1;" />
    </linearGradient>
    <linearGradient
       gradientTransform="matrix(0.21443258,-0.15499357,0.15499357,0.21443258,-66.192583,-83.765124)"
       id="linearGradient6387">
      <stop
         id="stop6389"
         offset="0"
         style="stop-color:#13628e;stop-opacity:1;" />
    </linearGradient>
    <linearGradient
       id="linearGradient5582">
      <stop
         id="stop5584"
         offset="0"
         style="stop-color:#ffffff;stop-opacity:1;" />
    </linearGradient>
    <linearGradient
       gradientTransform="matrix(0,0,0,0,2672.3551,1722.3249)"
       osb:paint="solid"
       id="White">
      <stop
         id="stop4651"
         offset="0"
         style="stop-color:#ffffff;stop-opacity:1;" />
    </linearGradient>
    <linearGradient
       gradientTransform="matrix(0,0,0,0,3658.52,6639.0899)"
       osb:paint="solid"
       id="Bright-Blue">
      <stop
         id="stop4635"
         offset="0"
         style="stop-color:#c5f1fd;stop-opacity:1;" />
    </linearGradient>
    <linearGradient
       gradientTransform="matrix(0,0,0,0,1350.5373,-16738.75)"
       osb:paint="solid"
       id="Dark-Blue">
      <stop
         id="stop4629"
         offset="0"
         style="stop-color:#09628e;stop-opacity:1;" />
    </linearGradient>
    <linearGradient
       gradientTransform="matrix(0,0,0,0,2275.9728,2326.3727)"
       osb:paint="solid"
       id="Green">
      <stop
         id="stop4623"
         offset="0"
         style="stop-color:#4ebf7a;stop-opacity:1;" />
    </linearGradient>
    <inkscape:path-effect
       end_linecap_type="round"
       miter_limit="4"
       linejoin_type="extrp_arc"
       start_linecap_type="round"
       interpolator_beta="0.2"
       interpolator_type="CubicBezierFit"
       sort_points="true"
       offset_points="0.029014587,0.5620877 | 0.54224423,0.71268456 | 0.9590389,0.71464377"
       is_visible="true"
       id="path-effect9619-5-1-7-4"
       effect="powerstroke" />
    <inkscape:path-effect
       end_linecap_type="round"
       miter_limit="4"
       linejoin_type="extrp_arc"
       start_linecap_type="round"
       interpolator_beta="0.2"
       interpolator_type="CubicBezierFit"
       sort_points="true"
       offset_points="0.052650095,-2.0051321 | 2.1005502,-2.9001529 | 3.9299982,-3.3741704"
       is_visible="true"
       id="path-effect7341-2-6-0"
       effect="powerstroke" />
    <inkscape:path-effect
       nr_y="110"
       nr_x="37"
       is_visible="true"
       id="path-effect9417-9-1-8"
       effect="construct_grid" />
    <linearGradient
       inkscape:collect="always"
       xlink:href="#linearGradient14557"
       id="linearGradient22130"
       gradientUnits="userSpaceOnUse"
       gradientTransform="matrix(0.66776655,0,0,0.10483355,1200,-9637.3725)"
       x1="-132.13097"
       y1="2049.6787"
       x2="-132.13097"
       y2="2267.9485" />
    <linearGradient
       gradientTransform="matrix(4.9688674e-6,0,0,7.2527773e-7,-35.326231,331.78253)"
       osb:paint="solid"
       id="Bright-Blue-text-8">
      <stop
         id="stop19747-0"
         offset="0"
         style="stop-color:#5ecce6;stop-opacity:1;" />
    </linearGradient>
    <inkscape:path-effect
       effect="spiro"
       id="path-effect4741-8"
       is_visible="true" />
    <inkscape:path-effect
       is_visible="true"
       id="path-effect4745-2"
       effect="spiro" />
    <clipPath
       clipPathUnits="userSpaceOnUse"
       id="clipPath9271">
      <path
         sodipodi:nodetypes="ccsssccccsssccc"
         inkscape:connector-curvature="0"
         id="path9273"
         d="m 121.60052,-454.3724 -20.38946,19.81119 c -4.10221,7.44655 -12.42929,-2.05268 12.42043,12.38426 18.44787,10.71765 49.61402,3.57143 77.78751,4.36097 15.26924,0.42791 51.31562,2.35791 54.69174,-6.98717 1.2188,-3.37363 -12.13848,-15.5877 -14.23065,-16.48633 -4.07746,-3.97843 -6.86638,-6.49531 -11.69334,-9.42475 -1.23631,0.99288 -2.99741,1.64386 -4.81057,1.81694 -5.88367,0.47392 -11.9343,-1.78429 -17.80874,-2.27634 -6.62887,0.16845 -11.39296,3.37185 -17.85575,1.43867 -2.12473,-0.63556 -7.65505,-2.5002 -10.94973,-2.2009 -5.35445,0.48642 -8.49601,2.03509 -16.08996,1.85105 -5.77707,-0.14002 -26.32152,2.66306 -31.05185,-0.41238 0.002,-1.90231 0.0203,-3.13192 -0.0196,-3.87521 z"
         style="display:inline;opacity:1;fill:url(#linearGradient9275);fill-opacity:1;fill-rule:evenodd;stroke:none;stroke-width:0.18767993px;stroke-linecap:butt;stroke-linejoin:miter;stroke-opacity:1" />
    </clipPath>
    <linearGradient
       inkscape:collect="always"
       xlink:href="#road"
       id="linearGradient9275"
       gradientUnits="userSpaceOnUse"
       gradientTransform="matrix(0.26458333,0,0,0.26458333,-101.38587,-596.18287)"
       x1="762.03082"
       y1="615.68762"
       x2="1314.6639"
       y2="615.68762" />
    <clipPath
       clipPathUnits="userSpaceOnUse"
       id="clipPath11135">
      <path
         style="color:#000000;clip-rule:nonzero;display:inline;overflow:visible;visibility:visible;opacity:1;isolation:auto;mix-blend-mode:normal;color-interpolation:sRGB;color-interpolation-filters:linearRGB;solid-color:#000000;solid-opacity:1;fill:#000000;fill-opacity:1;fill-rule:nonzero;stroke:none;stroke-width:0.26458332;stroke-linecap:butt;stroke-linejoin:miter;stroke-miterlimit:4;stroke-dasharray:none;stroke-dashoffset:0;stroke-opacity:1;marker:none;color-rendering:auto;image-rendering:auto;shape-rendering:auto;text-rendering:auto;enable-background:accumulate"
         d="m 777.47809,60.861783 v 29.311815 h 2.04837 v 18.392832 h -2.04837 v 11.26752 l 19.13178,8.98395 v -3.26386 h 19.91043 v 3.26386 l 17.31404,-8.98395 v -5.75482 h -1.86281 V 99.094078 h 1.86281 V 60.861783 h -8.13594 l 0.90952,8.241207 -40.66316,0.09317 -0.33073,-8.334375 z"
         id="path11137"
         inkscape:connector-curvature="0"
         sodipodi:nodetypes="ccccccccccccccccccccc" />
    </clipPath>
    <linearGradient
       gradientTransform="matrix(0,0,0,0,-83524.852,143825.32)"
       osb:paint="solid"
       id="Dark-Blue-1">
      <stop
         id="stop4629-8"
         offset="0"
         style="stop-color:#13628e;stop-opacity:1;" />
    </linearGradient>
    <path
       sodipodi:nodetypes="cc"
       inkscape:connector-curvature="0"
       id="path4377-7-1-3-15-2"
       d="m 294.46268,697.41806 c 55.66858,-4.49931 123.82818,-5.7918 176.52742,-1.0624"
       style="fill:none;fill-opacity:1;fill-rule:evenodd;stroke:none;stroke-width:1px;stroke-linecap:butt;stroke-linejoin:miter;stroke-opacity:1" />
    <path
       style="fill:none;fill-opacity:1;fill-rule:evenodd;stroke:none;stroke-width:1px;stroke-linecap:butt;stroke-linejoin:miter;stroke-opacity:1"
       d="m 319.41129,724.30563 c 36.94886,-4.90757 97.84493,-5.41189 135.00145,0.0923"
       id="path4382-3-7-4-1-5"
       inkscape:connector-curvature="0"
       sodipodi:nodetypes="cc" />
    <clipPath
       clipPathUnits="userSpaceOnUse"
       id="clipPath10365">
      <rect
         style="color:#000000;clip-rule:nonzero;display:inline;overflow:visible;visibility:visible;opacity:0.581;isolation:auto;mix-blend-mode:normal;color-interpolation:sRGB;color-interpolation-filters:linearRGB;solid-color:#000000;solid-opacity:1;fill:url(#linearGradient20707);fill-opacity:1;fill-rule:evenodd;stroke:none;stroke-width:0.07690934;stroke-linecap:butt;stroke-linejoin:miter;stroke-miterlimit:4;stroke-dasharray:none;stroke-dashoffset:0;stroke-opacity:1;marker:none;color-rendering:auto;image-rendering:auto;shape-rendering:auto;text-rendering:auto;enable-background:accumulate"
         id="rect10367"
         width="401.50375"
         height="600"
         x="1633.4963"
         y="5083.2188"
         rx="13.533834"
         ry="13.533834"
         transform="scale(-1,1)" />
    </clipPath>
    <clipPath
       clipPathUnits="userSpaceOnUse"
       id="clipPath10353">
      <rect
         ry="13.533834"
         rx="13.533834"
         y="5883.2192"
         x="1998.4962"
         height="600"
         width="401.50375"
         id="rect10355"
         style="color:#000000;clip-rule:nonzero;display:inline;overflow:visible;visibility:visible;opacity:0.581;isolation:auto;mix-blend-mode:normal;color-interpolation:sRGB;color-interpolation-filters:linearRGB;solid-color:#000000;solid-opacity:1;fill:url(#linearGradient20707);fill-opacity:1;fill-rule:evenodd;stroke:none;stroke-width:0.07690934;stroke-linecap:butt;stroke-linejoin:miter;stroke-miterlimit:4;stroke-dasharray:none;stroke-dashoffset:0;stroke-opacity:1;marker:none;color-rendering:auto;image-rendering:auto;shape-rendering:auto;text-rendering:auto;enable-background:accumulate" />
    </clipPath>
    <clipPath
       clipPathUnits="userSpaceOnUse"
       id="clipPath10450">
      <rect
         style="color:#000000;clip-rule:nonzero;display:inline;overflow:visible;visibility:visible;opacity:0.581;isolation:auto;mix-blend-mode:normal;color-interpolation:sRGB;color-interpolation-filters:linearRGB;solid-color:#000000;solid-opacity:1;fill:url(#linearGradient5798);fill-opacity:1;fill-rule:evenodd;stroke:none;stroke-width:1;stroke-linecap:butt;stroke-linejoin:miter;stroke-miterlimit:4;stroke-dasharray:none;stroke-dashoffset:0;stroke-opacity:1;marker:none;color-rendering:auto;image-rendering:auto;shape-rendering:auto;text-rendering:auto;enable-background:accumulate"
         id="rect10452"
         width="642"
         height="1000.0006"
         x="-4800"
         y="5883.2188" />
    </clipPath>
    <clipPath
       clipPathUnits="userSpaceOnUse"
       id="clipPath10444">
      <rect
         style="color:#000000;clip-rule:nonzero;display:inline;overflow:visible;visibility:visible;opacity:0.581;isolation:auto;mix-blend-mode:normal;color-interpolation:sRGB;color-interpolation-filters:linearRGB;solid-color:#000000;solid-opacity:1;fill:url(#linearGradient5798);fill-opacity:1;fill-rule:evenodd;stroke:none;stroke-width:1;stroke-linecap:butt;stroke-linejoin:miter;stroke-miterlimit:4;stroke-dasharray:none;stroke-dashoffset:0;stroke-opacity:1;marker:none;color-rendering:auto;image-rendering:auto;shape-rendering:auto;text-rendering:auto;enable-background:accumulate"
         id="rect10446"
         width="672"
         height="1000"
         x="-4735"
         y="4683.2188" />
    </clipPath>
    <clipPath
       clipPathUnits="userSpaceOnUse"
       id="clipPath10456">
      <rect
         style="color:#000000;clip-rule:nonzero;display:inline;overflow:visible;visibility:visible;opacity:0.581;isolation:auto;mix-blend-mode:normal;color-interpolation:sRGB;color-interpolation-filters:linearRGB;solid-color:#000000;solid-opacity:1;fill:url(#linearGradient5798);fill-opacity:1;fill-rule:evenodd;stroke:none;stroke-width:1;stroke-linecap:butt;stroke-linejoin:miter;stroke-miterlimit:4;stroke-dasharray:none;stroke-dashoffset:0;stroke-opacity:1;marker:none;color-rendering:auto;image-rendering:auto;shape-rendering:auto;text-rendering:auto;enable-background:accumulate"
         id="rect10458"
         width="744"
         height="1000"
         x="-3240"
         y="5883.2188" />
    </clipPath>
    <clipPath
       clipPathUnits="userSpaceOnUse"
       id="clipPath10462-3">
      <rect
         style="color:#000000;clip-rule:nonzero;display:inline;overflow:visible;visibility:visible;opacity:0.581;isolation:auto;mix-blend-mode:normal;color-interpolation:sRGB;color-interpolation-filters:linearRGB;solid-color:#000000;solid-opacity:1;fill:url(#linearGradient5798);fill-opacity:1;fill-rule:evenodd;stroke:none;stroke-width:1;stroke-linecap:butt;stroke-linejoin:miter;stroke-miterlimit:4;stroke-dasharray:none;stroke-dashoffset:0;stroke-opacity:1;marker:none;color-rendering:auto;image-rendering:auto;shape-rendering:auto;text-rendering:auto;enable-background:accumulate"
         id="rect10464-2"
         width="790"
         height="1000"
         x="-3232"
         y="4683.2188" />
    </clipPath>
    <clipPath
       clipPathUnits="userSpaceOnUse"
       id="clipPath10365-4">
      <rect
         style="color:#000000;clip-rule:nonzero;display:inline;overflow:visible;visibility:visible;opacity:0.581;isolation:auto;mix-blend-mode:normal;color-interpolation:sRGB;color-interpolation-filters:linearRGB;solid-color:#000000;solid-opacity:1;fill:url(#linearGradient20707);fill-opacity:1;fill-rule:evenodd;stroke:none;stroke-width:0.07690934;stroke-linecap:butt;stroke-linejoin:miter;stroke-miterlimit:4;stroke-dasharray:none;stroke-dashoffset:0;stroke-opacity:1;marker:none;color-rendering:auto;image-rendering:auto;shape-rendering:auto;text-rendering:auto;enable-background:accumulate"
         id="rect10367-5"
         width="401.50375"
         height="600"
         x="1633.4963"
         y="5083.2188"
         rx="13.533834"
         ry="13.533834"
         transform="scale(-1,1)" />
    </clipPath>
    <linearGradient
       inkscape:collect="always"
       xlink:href="#Dark-Blue"
       id="linearGradient8486"
       gradientUnits="userSpaceOnUse"
       gradientTransform="matrix(1.9997733,0,0,0.50005669,-50.389307,2.38125)"
       x1="31.541912"
       y1="72.099648"
       x2="55.245892"
       y2="72.099648" />
    <linearGradient
       inkscape:collect="always"
       xlink:href="#Dark-Blue"
       id="linearGradient10578"
       x1="7.8892741"
       y1="286.59741"
       x2="181.34898"
       y2="286.59741"
       gradientUnits="userSpaceOnUse" />
    <linearGradient
       gradientUnits="userSpaceOnUse"
       id="linearGradient5785">
      <stop
         id="stop5787"
         offset="0"
         style="stop-color:#c0cdf9;stop-opacity:1" />
      <stop
         id="stop5789"
         offset="1"
         style="stop-color:#07092d;stop-opacity:0.28804347" />
    </linearGradient>
    <clipPath
       clipPathUnits="userSpaceOnUse"
       id="clipPath9086">
      <path
         style="fill:#ffffff;fill-opacity:1;stroke-width:0.07000434"
         inkscape:connector-curvature="0"
         d="m -146.77724,16.489168 -2.88418,2.954183 c -1.09207,1.092068 0.70704,1.001062 1.35808,1.414088 0.30102,0.196012 -0.96606,0.448028 -0.70704,0.707044 0.25201,0.259016 1.51909,0.497031 1.77111,0.749046 0.25201,0.259016 -0.51103,0.532033 -0.25902,0.791049 0.24502,0.259016 0.83305,0.014 0.93806,0.602037 0.077,0.434027 1.07807,0.217014 1.52609,-0.154009 0.28002,-0.238015 -0.48303,-0.238015 -0.23101,-0.497031 0.63004,-0.637039 1.19007,-0.287018 1.42109,-0.875054 0.12601,-0.31502 -0.95206,-0.539034 -0.66504,-0.742046 0.68604,-0.48303 3.2062,-0.728045 2.04412,-1.890117 l -2.98918,-3.05919 c -0.37102,-0.350022 -0.98006,-0.350022 -1.32308,0 z m -0.69305,4.529281 c 0.063,0 2.15614,0.280017 1.35109,0.497031 -0.30802,0.08401 -1.72211,-0.497031 -1.35109,-0.497031 z m 4.00425,1.162072 c 0,0.147009 1.14107,0.231014 1.07807,-0.035 -0.091,-0.448028 -0.95206,-0.413026 -1.07807,0.035 z m -4.8653,0.777048 c 0.25902,0.224014 0.65104,-0.049 0.77705,-0.364023 -0.25202,-0.32902 -1.18308,0.021 -0.77705,0.364023 z m 4.72529,-0.469029 c -0.32202,0.294018 0.056,0.602037 0.37103,0.399025 0.084,-0.056 -0.007,-0.329021 -0.37103,-0.399025 z"
         id="use9088" />
    </clipPath>
    <linearGradient
       gradientUnits="userSpaceOnUse"
       y2="60"
       x2="58"
       y1="35"
       x1="33"
       xlink:href="#linearGradient15200"
       id="shinySpecular-4"
       gradientTransform="matrix(1.009184,0,0,1.009184,-0.3890738,-0.3831933)" />
    <linearGradient
       gradientUnits="userSpaceOnUse"
       y2="50"
       x2="90"
       y1="20"
       x1="60"
       xlink:href="#linearGradient15200"
       id="IcecapTip-6" />
    <linearGradient
       inkscape:collect="always"
       xlink:href="#Dark-Blue"
       id="linearGradient10568"
       x1="804.82245"
       y1="98.067871"
       x2="821.02942"
       y2="98.067871"
       gradientUnits="userSpaceOnUse" />
    <linearGradient
       inkscape:collect="always"
       xlink:href="#Dark-Blue"
       id="linearGradient13257"
       x1="804.82245"
       y1="98.067871"
       x2="821.02942"
       y2="98.067871"
       gradientUnits="userSpaceOnUse" />
    <linearGradient
       inkscape:collect="always"
       xlink:href="#Dark-Blue"
       id="linearGradient13263"
       x1="804.82245"
       y1="98.067871"
       x2="821.02942"
       y2="98.067871"
       gradientUnits="userSpaceOnUse" />
    <linearGradient
       inkscape:collect="always"
       xlink:href="#Dark-Blue"
       id="linearGradient10570"
       x1="801.25183"
       y1="147.07857"
       x2="820.40765"
       y2="147.07857"
       gradientUnits="userSpaceOnUse" />
    <linearGradient
       inkscape:collect="always"
       xlink:href="#Dark-Blue"
       id="linearGradient13274"
       x1="801.25183"
       y1="147.07857"
       x2="820.40765"
       y2="147.07857"
       gradientUnits="userSpaceOnUse" />
    <linearGradient
       inkscape:collect="always"
       xlink:href="#Dark-Blue"
       id="linearGradient13285"
       x1="217.11292"
       y1="103.83799"
       x2="275.3627"
       y2="103.83799"
       gradientUnits="userSpaceOnUse" />
    <linearGradient
       inkscape:collect="always"
       xlink:href="#Dark-Blue"
       id="linearGradient13291"
       x1="217.11292"
       y1="103.83799"
       x2="275.3627"
       y2="103.83799"
       gradientUnits="userSpaceOnUse" />
    <linearGradient
       inkscape:collect="always"
       xlink:href="#Dark-Blue"
       id="linearGradient13297"
       x1="217.11292"
       y1="103.83799"
       x2="275.3627"
       y2="103.83799"
       gradientUnits="userSpaceOnUse" />
    <linearGradient
       inkscape:collect="always"
       xlink:href="#Dark-Blue"
       id="linearGradient13303"
       x1="217.11292"
       y1="103.83799"
       x2="275.3627"
       y2="103.83799"
       gradientUnits="userSpaceOnUse" />
    <linearGradient
       inkscape:collect="always"
       xlink:href="#Dark-Blue"
       id="linearGradient13314"
       x1="237.17947"
       y1="58.851471"
       x2="259.27887"
       y2="58.851471"
       gradientUnits="userSpaceOnUse" />
    <linearGradient
       inkscape:collect="always"
       xlink:href="#Dark-Blue"
       id="linearGradient13320"
       x1="237.17947"
       y1="58.851471"
       x2="259.27887"
       y2="58.851471"
       gradientUnits="userSpaceOnUse" />
    <linearGradient
       inkscape:collect="always"
       xlink:href="#Dark-Blue"
       id="linearGradient13326"
       x1="237.17947"
       y1="58.851471"
       x2="259.27887"
       y2="58.851471"
       gradientUnits="userSpaceOnUse" />
    <linearGradient
       inkscape:collect="always"
       xlink:href="#Dark-Blue"
       id="linearGradient13332"
       x1="237.17947"
       y1="58.851471"
       x2="259.27887"
       y2="58.851471"
       gradientUnits="userSpaceOnUse" />
    <linearGradient
       inkscape:collect="always"
       xlink:href="#Dark-Blue"
       id="linearGradient13338"
       x1="237.17947"
       y1="58.851471"
       x2="259.27887"
       y2="58.851471"
       gradientUnits="userSpaceOnUse" />
    <linearGradient
       inkscape:collect="always"
       xlink:href="#Dark-Blue"
       id="linearGradient13344"
       x1="237.17947"
       y1="58.851471"
       x2="259.27887"
       y2="58.851471"
       gradientUnits="userSpaceOnUse" />
    <linearGradient
       y2="147.07857"
       x2="820.40765"
       y1="147.07857"
       x1="801.25183"
       gradientUnits="userSpaceOnUse"
       id="linearGradient13375"
       xlink:href="#Dark-Blue"
       inkscape:collect="always" />
    <linearGradient
       y2="98.067871"
       x2="821.02942"
       y1="98.067871"
       x1="804.82245"
       gradientUnits="userSpaceOnUse"
       id="linearGradient13379"
       xlink:href="#Dark-Blue"
       inkscape:collect="always" />
    <linearGradient
       inkscape:collect="always"
       xlink:href="#Dark-Blue"
       id="linearGradient13609"
       gradientUnits="userSpaceOnUse"
       x1="11.702473"
       y1="53.353657"
       x2="186.56778"
       y2="53.353657" />
    <pattern
       patternUnits="userSpaceOnUse"
       width="599.62648"
       height="599.62648"
       patternTransform="matrix(0.26458333,0,0,0.26458333,41.833691,37.505005)"
       id="pattern28150">
      <g
         id="g28145"
         transform="matrix(3.7795277,0,0,3.7795277,-158.11159,-141.7512)">
        <rect
           y="37.505005"
           x="41.833691"
           height="158.65117"
           width="158.65117"
           id="rect28139"
           style="color:#000000;clip-rule:nonzero;display:inline;overflow:visible;visibility:visible;opacity:1;isolation:auto;mix-blend-mode:normal;color-interpolation:sRGB;color-interpolation-filters:linearRGB;solid-color:#000000;solid-opacity:1;fill:none;fill-opacity:1;fill-rule:evenodd;stroke:none;stroke-width:0.89999998;stroke-linecap:butt;stroke-linejoin:miter;stroke-miterlimit:4;stroke-dasharray:1.8, 1.8;stroke-dashoffset:0;stroke-opacity:1;marker:none;marker-start:none;marker-mid:none;marker-end:none;paint-order:stroke fill markers;color-rendering:auto;image-rendering:auto;shape-rendering:auto;text-rendering:auto;enable-background:accumulate" />
        <g
           transform="matrix(0.26458333,0,0,0.26458333,12.302001,97.684801)"
           id="g28141"
           inkscape:label="Layer 1">
          <path
             inkscape:connector-curvature="0"
             d="m 455.68944,111.75461 c 16.2356,-18.075203 4.6616,-44.887603 -25.852,-59.888403 1.0912,0.976 6.8852,-3.7076 12.9556,-10.4624 6.0692,-6.7544 10.1056,-13.0212 9.0188,-13.998 -30.5136,-15.0008 -68.4088,-12.5096 -84.6456,5.564 -16.2352,18.0752 -4.6616,44.8868 25.8536,59.8876 -1.0916,-0.976 -6.8868,3.7076 -12.9572,10.462403 -6.0664,6.7544 -10.1056,13.0212 -9.0184,13.998 30.5148,15.0008 68.4096,12.5096 84.6452,-5.5632 z M 314.43454,-13.960593 c -35.5776,39.6092 -10.2144,98.3636 56.6549,131.236003 -2.384,-2.1396 -15.0944,8.1244 -28.392,22.926 -13.2984,14.8016 -22.1468,28.5352 -19.7656,30.6752 66.8676,32.8724 149.91,27.4136 185.492,-12.1912 35.5776,-39.6092 10.2132,-98.364803 -56.6548,-131.237203 2.3812,2.14 15.0916,-8.1244 28.3892,-22.9260003 13.2984,-14.8015997 22.1468,-28.5351997 19.766,-30.6747997 -66.868,-32.8724 -149.9088,-27.4136 -185.4897,12.192 z"
             style="display:inline;opacity:1;fill:#000000;fill-opacity:1;fill-rule:evenodd;stroke:none;stroke-width:0.15216827;stroke-miterlimit:4;stroke-dasharray:none;stroke-opacity:1;marker:none"
             id="path28143" />
        </g>
      </g>
    </pattern>
    <linearGradient
       inkscape:collect="always"
       xlink:href="#Dark-Blue-1"
       id="linearGradient25959"
       gradientUnits="userSpaceOnUse"
       x1="-496.62"
       y1="7900.7256"
       x2="-308.13281"
       y2="7900.7256" />
    <linearGradient
       inkscape:collect="always"
       xlink:href="#Bright-Blue-text-8"
       id="linearGradient25999-3"
       gradientUnits="userSpaceOnUse"
       x1="198.3868"
       y1="2088.8203"
       x2="307.76889"
       y2="2088.8203" />
    <linearGradient
       inkscape:collect="always"
       xlink:href="#Bright-Blue-text-8"
       id="linearGradient26105"
       gradientUnits="userSpaceOnUse"
       x1="198.3868"
       y1="2088.8203"
       x2="307.76889"
       y2="2088.8203" />
    <linearGradient
       inkscape:collect="always"
       xlink:href="#Green"
       id="linearGradient26207"
       gradientUnits="userSpaceOnUse"
       x1="198.3868"
       y1="2088.8203"
       x2="307.76889"
       y2="2088.8203" />
    <linearGradient
       inkscape:collect="always"
       xlink:href="#Dark-Blue-1"
       id="linearGradient26189"
       gradientUnits="userSpaceOnUse"
       x1="198.37424"
       y1="2082.6589"
       x2="307.29218"
       y2="2082.6589" />
    <linearGradient
       inkscape:collect="always"
       xlink:href="#Dark-Blue-1"
       id="linearGradient5549"
       gradientUnits="userSpaceOnUse"
       x1="198.37424"
       y1="2082.6589"
       x2="307.29218"
       y2="2082.6589" />
    <linearGradient
       inkscape:collect="always"
       xlink:href="#Bright-Blue-text-8"
       id="linearGradient10483"
       gradientUnits="userSpaceOnUse"
       x1="198.3868"
       y1="2088.8203"
       x2="307.76889"
       y2="2088.8203" />
    <linearGradient
       inkscape:collect="always"
       xlink:href="#Bright-Blue-text-8"
       id="linearGradient10485"
       gradientUnits="userSpaceOnUse"
       x1="198.3868"
       y1="2088.8203"
       x2="307.76889"
       y2="2088.8203" />
    <linearGradient
       inkscape:collect="always"
       xlink:href="#Dark-Blue-1"
       id="linearGradient12013"
       gradientUnits="userSpaceOnUse"
       x1="198.37424"
       y1="2082.6589"
       x2="307.29218"
       y2="2082.6589" />
    <linearGradient
       inkscape:collect="always"
       xlink:href="#Dark-Blue-1"
       id="linearGradient12015"
       gradientUnits="userSpaceOnUse"
       x1="198.37424"
       y1="2082.6589"
       x2="307.29218"
       y2="2082.6589" />
    <linearGradient
       inkscape:collect="always"
       xlink:href="#Dark-Blue-1"
       id="linearGradient6540"
       gradientUnits="userSpaceOnUse"
       x1="198.37424"
       y1="2082.6589"
       x2="307.29218"
       y2="2082.6589" />
    <linearGradient
       inkscape:collect="always"
       xlink:href="#Dark-Blue-1"
       id="linearGradient6542"
       gradientUnits="userSpaceOnUse"
       x1="198.37424"
       y1="2082.6589"
       x2="307.29218"
       y2="2082.6589" />
    <radialGradient
       inkscape:collect="always"
       xlink:href="#linearGradient4361"
       id="radialGradient4367"
       cx="265.90625"
       cy="2058.541"
       fx="265.90625"
       fy="2058.541"
       r="75.406242"
       gradientTransform="matrix(1,0,0,0.56250001,0,900.61168)"
       gradientUnits="userSpaceOnUse" />
    <linearGradient
       inkscape:collect="always"
       id="linearGradient4361">
      <stop
         style="stop-color:#ffffff;stop-opacity:1"
         offset="0"
         id="stop4363" />
      <stop
         style="stop-color:#edfbfe;stop-opacity:0;"
         offset="1"
         id="stop4365" />
    </linearGradient>
    <linearGradient
       id="linearGradient12021"
       inkscape:collect="always">
      <stop
         id="stop12023"
         offset="0"
         style="stop-color:#ffffff;stop-opacity:1" />
      <stop
         id="stop12025"
         offset="1"
         style="stop-color:#ffffff;stop-opacity:0" />
    </linearGradient>
    <linearGradient
       inkscape:collect="always"
       xlink:href="#Dark-Blue"
       id="linearGradient8404"
       gradientUnits="userSpaceOnUse"
       gradientTransform="translate(16,2)"
       x1="-296.07812"
       y1="7730.6523"
       x2="-158.51662"
       y2="7730.6523" />
    <symbol
       id="symbol24443">
      <title
         id="title24439">Access Alarm</title>
      <path
         d="M 44,11.44 34.81,3.73 32.24,6.79 41.43,14.5 Z M 15.76,6.78 13.19,3.72 4,11.43 6.57,14.49 Z M 25,16 H 22 V 28 L 31.49,33.71 33,31.24 25,26.5 Z M 23.99,8 C 14.04,8 6,16.06 6,26 6,35.94 14.04,44 23.99,44 33.94,44 42,35.94 42,26 42,16.06 33.94,8 23.99,8 Z M 24,40 c -7.73,0 -14,-6.27 -14,-14 0,-7.73 6.27,-14 14,-14 7.73,0 14,6.27 14,14 0,7.73 -6.26,14 -14,14 z"
         style="stroke:none"
         id="path24441"
         inkscape:connector-curvature="0" />
    </symbol>
    <linearGradient
       inkscape:collect="always"
       xlink:href="#Green"
       id="linearGradient10401"
       gradientUnits="userSpaceOnUse"
       x1="185.70459"
       y1="745.47388"
       x2="331.34982"
       y2="745.47388" />
    <linearGradient
       id="button_gradient-5"
       osb:paint="gradient">
      <stop
         style="stop-color:#d66969;stop-opacity:1"
         offset="0"
         id="stop9475-6" />
      <stop
         style="stop-color:#cb4343;stop-opacity:1"
         offset="1"
         id="stop9477-2" />
    </linearGradient>
    <linearGradient
       inkscape:collect="always"
       xlink:href="#Red"
       id="linearGradient7963"
       gradientUnits="userSpaceOnUse"
       gradientTransform="translate(36.946859,-188.78124)"
       x1="151.69183"
       y1="2228.8467"
       x2="168.06573"
       y2="2228.8467" />
    <linearGradient
       inkscape:collect="always"
       xlink:href="#linearGradient8953"
       id="linearGradient8220"
       gradientUnits="userSpaceOnUse"
       gradientTransform="matrix(3.7795276,0,0,3.7795276,-3254.9414,5754.6894)"
       x1="198.02892"
       y1="2055.1921"
       x2="282.38464"
       y2="2055.1921" />
    <linearGradient
       inkscape:collect="always"
       xlink:href="#button_gradient-5"
       id="linearGradient24137-8"
       gradientUnits="userSpaceOnUse"
       gradientTransform="matrix(9.555091,0,0,1.6224628,475.59237,1045.0946)"
       x1="-66.162361"
       y1="-644.81311"
       x2="-66.162361"
       y2="-671.76788" />
    <linearGradient
       inkscape:collect="always"
       xlink:href="#button_gradient-5"
       id="linearGradient9997"
       gradientUnits="userSpaceOnUse"
       gradientTransform="matrix(2.5281178,0,0,0.42927662,333.21314,491.89259)"
       x1="-66.162361"
       y1="-643.96637"
       x2="-66.162361"
       y2="-680.94714" />
    <linearGradient
       inkscape:collect="always"
       xlink:href="#linearGradient20707"
       id="linearGradient10090"
       gradientUnits="userSpaceOnUse"
       gradientTransform="matrix(3.7795276,0,0,3.7795276,-3346.9833,5871.6272)"
       x1="198.02892"
       y1="2055.1921"
       x2="282.38464"
       y2="2055.1921" />
    <linearGradient
       inkscape:collect="always"
       xlink:href="#linearGradient12021"
       id="linearGradient10749-7"
       x1="-1072"
       y1="7808.7529"
       x2="-1072"
       y2="7840.8965"
       gradientUnits="userSpaceOnUse"
       gradientTransform="matrix(3.4988737,0,0,0.38332283,4588.5691,-11561.3)" />
    <linearGradient
       inkscape:collect="always"
       xlink:href="#linearGradient11891"
       id="linearGradient11893"
       x1="844.26337"
       y1="-8570.9795"
       x2="844.26337"
       y2="-8561.7295"
       gradientUnits="userSpaceOnUse"
       gradientTransform="matrix(1,0,0,1.853167,0,7315.5327)" />
    <linearGradient
       inkscape:collect="always"
       xlink:href="#Red"
       id="linearGradient14189"
       gradientUnits="userSpaceOnUse"
       x1="353.72073"
       y1="531.03076"
       x2="681.02148"
       y2="531.03076" />
    <linearGradient
       gradientTransform="translate(1003.4243,-8534.3887)"
       inkscape:collect="always"
       xlink:href="#linearGradient14519"
       id="linearGradient14521-7"
       x1="-881.42432"
       y1="8498.6133"
       x2="-881.42432"
       y2="8572.7637"
       gradientUnits="userSpaceOnUse" />
    <linearGradient
       inkscape:collect="always"
       xlink:href="#Red"
       id="linearGradient5243"
       gradientUnits="userSpaceOnUse"
       gradientTransform="matrix(5.3555037,0,0,5.3555037,-1446.3011,-3161.2172)"
       x1="280.07486"
       y1="2013.7325"
       x2="302.3833"
       y2="2013.7325" />
    <linearGradient
       inkscape:collect="always"
       xlink:href="#Red"
       id="linearGradient9648"
       gradientUnits="userSpaceOnUse"
       x1="353.72073"
       y1="531.03076"
       x2="681.02148"
       y2="531.03076" />
    <linearGradient
       inkscape:collect="always"
       xlink:href="#Red"
       id="linearGradient9652"
       gradientUnits="userSpaceOnUse"
       x1="353.72073"
       y1="531.03076"
       x2="681.02148"
       y2="531.03076" />
    <linearGradient
       inkscape:collect="always"
       xlink:href="#Red"
       id="linearGradient9654"
       gradientUnits="userSpaceOnUse"
       x1="353.72073"
       y1="531.03076"
       x2="681.02148"
       y2="531.03076" />
    <linearGradient
       inkscape:collect="always"
       xlink:href="#Red"
       id="linearGradient9879"
       gradientUnits="userSpaceOnUse"
       x1="353.72073"
       y1="531.03076"
       x2="681.02148"
       y2="531.03076" />
    <linearGradient
       inkscape:collect="always"
       xlink:href="#Red"
       id="linearGradient9893"
       gradientUnits="userSpaceOnUse"
       x1="353.72073"
       y1="531.03076"
       x2="681.02148"
       y2="531.03076" />
    <linearGradient
       inkscape:collect="always"
       xlink:href="#linearGradient8953"
       id="linearGradient10052"
       gradientUnits="userSpaceOnUse"
       gradientTransform="matrix(5.3555037,0,0,5.3555037,-1812.474,-3142.8061)"
       x1="280.07486"
       y1="2013.7325"
       x2="302.3833"
       y2="2013.7325" />
    <linearGradient
       inkscape:collect="always"
       xlink:href="#linearGradient8953"
       id="linearGradient7998"
       gradientUnits="userSpaceOnUse"
       gradientTransform="matrix(1.416977,0,0,1.416977,-141.65534,-584.42529)"
       x1="280.07486"
       y1="2013.7325"
       x2="302.3833"
       y2="2013.7325" />
    <linearGradient
       inkscape:collect="always"
       xlink:href="#linearGradient8953"
       id="linearGradient10233"
       gradientUnits="userSpaceOnUse"
       gradientTransform="matrix(1.416977,0,0,1.416977,-141.76358,-589.35191)"
       x1="280.07486"
       y1="2013.7325"
       x2="302.3833"
       y2="2013.7325" />
    <linearGradient
       inkscape:collect="always"
       xlink:href="#green2"
       id="linearGradient30252-0"
       gradientUnits="userSpaceOnUse"
       x1="708.76221"
       y1="306.45447"
       x2="804.02252"
       y2="306.45447" />
    <linearGradient
       inkscape:collect="always"
       xlink:href="#Red"
       id="linearGradient11436"
       gradientUnits="userSpaceOnUse"
       x1="353.72073"
       y1="531.03076"
       x2="681.02148"
       y2="531.03076" />
    <linearGradient
       inkscape:collect="always"
       xlink:href="#linearGradient20707"
       id="linearGradient5385"
       gradientUnits="userSpaceOnUse"
       gradientTransform="matrix(3.7795276,0,0,3.7795276,-3901.1083,6829.8598)"
       x1="198.02892"
       y1="2055.1921"
       x2="282.38464"
       y2="2055.1921" />
    <linearGradient
       inkscape:collect="always"
       xlink:href="#linearGradient20707"
       id="linearGradient5798"
       gradientUnits="userSpaceOnUse"
       gradientTransform="matrix(3.7795276,0,0,3.7795276,-5123.4063,6945.9431)"
       x1="198.02892"
       y1="2055.1921"
       x2="282.38464"
       y2="2055.1921" />
    <radialGradient
       inkscape:collect="always"
       xlink:href="#linearGradient10189"
       id="radialGradient10193"
       cx="-224.01842"
       cy="8056.3877"
       fx="-224.01843"
       fy="8056.3872"
       r="136"
       gradientTransform="matrix(-0.22107818,0.00728201,-2.5871287e-4,-0.433423,-450.74083,11289.548)"
       gradientUnits="userSpaceOnUse" />
    <linearGradient
       inkscape:collect="always"
       xlink:href="#linearGradient20707"
       id="linearGradient44702"
       gradientUnits="userSpaceOnUse"
       gradientTransform="matrix(3.7795276,0,0,3.7795276,-5041.4063,6953.9431)"
       x1="198.02892"
       y1="2055.1921"
       x2="282.38464"
       y2="2055.1921" />
    <linearGradient
       inkscape:collect="always"
       xlink:href="#linearGradient20707"
       id="linearGradient44710"
       gradientUnits="userSpaceOnUse"
       gradientTransform="matrix(3.7795276,0,0,3.7795276,-5295.7407,6953.9431)"
       x1="198.02892"
       y1="2055.1921"
       x2="282.38464"
       y2="2055.1921" />
    <linearGradient
       inkscape:collect="always"
       xlink:href="#linearGradient8953"
       id="linearGradient44738"
       gradientUnits="userSpaceOnUse"
       gradientTransform="matrix(5.3555037,0,0,5.3555037,-1807.1516,-3435.7406)"
       x1="280.07486"
       y1="2013.7325"
       x2="302.3833"
       y2="2013.7325" />
    <linearGradient
       inkscape:collect="always"
       xlink:href="#linearGradient20707"
       id="linearGradient47554"
       gradientUnits="userSpaceOnUse"
       gradientTransform="matrix(3.7795276,0,0,3.7795276,-3280.7651,5814.8933)"
       x1="198.02892"
       y1="2055.1921"
       x2="282.38464"
       y2="2055.1921" />
    <clipPath
       clipPathUnits="userSpaceOnUse"
       id="clipPath16205-2">
      <g
         id="use16207-2"
         inkscape:label="Clip">
        <rect
           style="display:inline;opacity:1;fill:#000000;fill-opacity:1;fill-rule:evenodd;stroke:none;stroke-width:0.87091112;stroke-linecap:round;stroke-linejoin:miter;stroke-miterlimit:4;stroke-dasharray:none;stroke-dashoffset:0;stroke-opacity:1"
           id="rect1462"
           width="405.17523"
           height="45"
           x="1424.8247"
           y="-7014.4727"
           rx="4.2214184"
           ry="22.499969"
           transform="scale(-1)" />
      </g>
    </clipPath>
    <clipPath
       clipPathUnits="userSpaceOnUse"
       id="clipPath16141-3">
      <g
         style="fill:none"
         id="use16143-6"
         inkscape:label="Clip">
        <rect
           transform="scale(-1)"
           ry="22.499969"
           rx="4.2214184"
           y="-7074.4727"
           x="1424.8247"
           height="45"
           width="405.17523"
           id="rect1466"
           style="display:inline;opacity:1;fill:none;fill-opacity:1;fill-rule:evenodd;stroke:none;stroke-width:0.87091112;stroke-linecap:round;stroke-linejoin:miter;stroke-miterlimit:4;stroke-dasharray:none;stroke-dashoffset:0;stroke-opacity:1" />
      </g>
    </clipPath>
    <linearGradient
       id="linearGradient37084-5"
       gradientTransform="matrix(0.27209179,0,0,0.27209181,-15157.736,65754.136)">
      <stop
         style="stop-color:#c5f1fd;stop-opacity:1;"
         offset="0"
         id="stop37086-6" />
    </linearGradient>
    <linearGradient
       inkscape:collect="always"
       xlink:href="#linearGradient11891"
       id="linearGradient12019-6"
       gradientUnits="userSpaceOnUse"
       gradientTransform="matrix(5.5924774,0,0,2.9073447,-2266.8637,-5500.0293)"
       x1="204.25833"
       y1="2083.8567"
       x2="204.25833"
       y2="1959.5024" />
    <linearGradient
       inkscape:collect="always"
       xlink:href="#linearGradient37084-5"
       id="linearGradient11658"
       x1="124.08958"
       y1="2030.6754"
       x2="249.76665"
       y2="2030.6754"
       gradientUnits="userSpaceOnUse"
       gradientTransform="matrix(16.218717,0,0,5.5992999,-2012.5738,-11110.36)" />
    <linearGradient
       inkscape:collect="always"
       xlink:href="#linearGradient37084-5"
       id="linearGradient1301"
       gradientUnits="userSpaceOnUse"
       gradientTransform="matrix(16.218717,0,0,5.5992999,-2012.5738,-11070.36)"
       x1="124.08958"
       y1="2030.6754"
       x2="249.76665"
       y2="2030.6754" />
    <linearGradient
       inkscape:collect="always"
       xlink:href="#linearGradient11891"
       id="linearGradient1303"
       gradientUnits="userSpaceOnUse"
       gradientTransform="matrix(-5.5924774,0,0,2.9073447,2266.8637,-5460.0293)"
       x1="204.25833"
       y1="2083.8567"
       x2="204.25833"
       y2="1959.5024" />
  </defs>
  <metadata
     id="metadata7">
    <rdf:RDF>
      <cc:Work
         rdf:about="">
        <dc:format>image/svg+xml</dc:format>
        <dc:type
           rdf:resource="http://purl.org/dc/dcmitype/StillImage" />
        <dc:title></dc:title>
        <cc:license
           rdf:resource="http://creativecommons.org/licenses/by-sa/4.0/" />
      </cc:Work>
      <cc:License
         rdf:about="http://creativecommons.org/licenses/by-sa/4.0/">
        <cc:permits
           rdf:resource="http://creativecommons.org/ns#Reproduction" />
        <cc:permits
           rdf:resource="http://creativecommons.org/ns#Distribution" />
        <cc:requires
           rdf:resource="http://creativecommons.org/ns#Notice" />
        <cc:requires
           rdf:resource="http://creativecommons.org/ns#Attribution" />
        <cc:permits
           rdf:resource="http://creativecommons.org/ns#DerivativeWorks" />
        <cc:requires
           rdf:resource="http://creativecommons.org/ns#ShareAlike" />
      </cc:License>
    </rdf:RDF>
  </metadata>
  <g
     inkscape:groupmode="layer"
     id="layer1"
     inkscape:label="gradient"
     transform="translate(0,40)"
     sodipodi:insensitive="true"
     style="display:none">
    <rect
       style="color:#000000;clip-rule:nonzero;display:inline;overflow:visible;visibility:visible;opacity:1;isolation:auto;mix-blend-mode:normal;color-interpolation:sRGB;color-interpolation-filters:linearRGB;solid-color:#000000;solid-opacity:1;fill:url(#linearGradient11658);fill-opacity:1;fill-rule:nonzero;stroke:none;stroke-width:196.08450317;stroke-linecap:butt;stroke-linejoin:miter;stroke-miterlimit:9.19999981;stroke-dasharray:none;stroke-dashoffset:0;stroke-opacity:1;marker:none;marker-start:none;marker-mid:none;marker-end:none;paint-order:stroke fill markers;color-rendering:auto;image-rendering:auto;shape-rendering:auto;text-rendering:auto;enable-background:accumulate"
       id="rect11652"
       width="1950"
       height="540"
       x="0"
       y="-40" />
    <rect
       transform="scale(-1,1)"
       style="color:#000000;clip-rule:nonzero;display:inline;overflow:visible;visibility:visible;opacity:1;isolation:auto;mix-blend-mode:normal;color-interpolation:sRGB;color-interpolation-filters:linearRGB;solid-color:#000000;solid-opacity:1;fill:url(#linearGradient12019-6);fill-opacity:1;fill-rule:nonzero;stroke:none;stroke-width:235.71604919;stroke-linecap:butt;stroke-linejoin:miter;stroke-miterlimit:9.19999981;stroke-dasharray:none;stroke-dashoffset:0;stroke-opacity:1;marker:none;marker-start:none;marker-mid:none;marker-end:none;paint-order:stroke fill markers;color-rendering:auto;image-rendering:auto;shape-rendering:auto;text-rendering:auto;enable-background:accumulate"
       id="rect12017-7"
       width="1950"
       height="497.29297"
       x="-1949.9998"
       y="62.707073" />
  </g>
  <g
     inkscape:groupmode="layer"
     id="layer2"
     inkscape:label="mask"
     style="display:none"
     sodipodi:insensitive="true">
    <rect
       style="fill:#ffffff;fill-opacity:1;stroke-width:0.5254221"
       id="rect1262"
       width="1949.9999"
       height="60"
       x="0"
       y="0" />
    <rect
       style="color:#000000;clip-rule:nonzero;display:inline;overflow:visible;visibility:visible;opacity:1;isolation:auto;mix-blend-mode:normal;color-interpolation:sRGB;color-interpolation-filters:linearRGB;solid-color:#000000;solid-opacity:1;fill:#ffffff;fill-opacity:1;fill-rule:nonzero;stroke:none;stroke-width:0;stroke-miterlimit:4;stroke-dasharray:none;marker:none;marker-start:none;marker-mid:none;marker-end:none;paint-order:stroke fill markers;color-rendering:auto;image-rendering:auto;shape-rendering:auto;text-rendering:auto;enable-background:accumulate"
       id="rect14860"
       width="1952.6935"
       height="332.62158"
       x="-1952.6935"
       y="540"
       transform="matrix(-0.99862061,0.05250603,0,1,0,0)" />
  </g>
  <g
     transform="translate(0,40)"
     inkscape:label="bg"
     id="g1299"
     inkscape:groupmode="layer">
    <path
       style="color:#000000;clip-rule:nonzero;display:inline;overflow:visible;visibility:visible;opacity:1;isolation:auto;mix-blend-mode:normal;color-interpolation:sRGB;color-interpolation-filters:linearRGB;solid-color:#000000;solid-opacity:1;fill:url(#linearGradient1301);fill-opacity:1;fill-rule:nonzero;stroke:none;stroke-width:196.08450317;stroke-linecap:butt;stroke-linejoin:miter;stroke-miterlimit:9.19999981;stroke-dasharray:none;stroke-dashoffset:0;stroke-opacity:1;marker:none;marker-start:none;marker-mid:none;marker-end:none;paint-order:stroke fill markers;color-rendering:auto;image-rendering:auto;shape-rendering:auto;text-rendering:auto;enable-background:accumulate"
       d="M 0 0 L 0 540 L 1950 437.47266 L 1950 0 L 0 0 z "
       transform="translate(0,-40)"
       id="rect1295" />
    <path
       style="color:#000000;clip-rule:nonzero;display:inline;overflow:visible;visibility:visible;opacity:1;isolation:auto;mix-blend-mode:normal;color-interpolation:sRGB;color-interpolation-filters:linearRGB;solid-color:#000000;solid-opacity:1;fill:url(#linearGradient1303);fill-opacity:1;fill-rule:nonzero;stroke:none;stroke-width:235.71604919;stroke-linecap:butt;stroke-linejoin:miter;stroke-miterlimit:9.19999981;stroke-dasharray:none;stroke-dashoffset:0;stroke-opacity:1;marker:none;marker-start:none;marker-mid:none;marker-end:none;paint-order:stroke fill markers;color-rendering:auto;image-rendering:auto;shape-rendering:auto;text-rendering:auto;enable-background:accumulate"
       d="M 0 102.70703 L 0 540 L 1950 437.47266 L 1950 102.70703 L 0 102.70703 z "
       transform="translate(0,-40)"
       id="rect1297" />
  </g>
  <style
     type="text/css"
     id="style26" />
  <g
     transform="translate(1360.0729,-9653.4074)"
     id="g12498-5"
     style="display:inline;opacity:1" />
  <rect
     y="-9651.8203"
     x="1319.0625"
     height="0"
     width="0"
     id="rect14812"
     style="opacity:0.1;fill:url(#Dark-Blue);fill-opacity:1;fill-rule:nonzero;stroke:none;stroke-width:21.98500061;stroke-linecap:butt;stroke-linejoin:miter;stroke-miterlimit:4;stroke-dasharray:none;stroke-dashoffset:0;stroke-opacity:1;marker:none" />
  <style
     id="style26-0"
     type="text/css" />
  <rect
     style="color:#000000;clip-rule:nonzero;display:inline;overflow:visible;visibility:visible;opacity:1;isolation:auto;mix-blend-mode:normal;color-interpolation:sRGB;color-interpolation-filters:linearRGB;solid-color:#000000;solid-opacity:1;fill:url(#linearGradient22130);fill-opacity:1;fill-rule:evenodd;stroke:none;stroke-width:0.67327529;stroke-linecap:round;stroke-linejoin:miter;stroke-miterlimit:4;stroke-dasharray:none;stroke-dashoffset:0;stroke-opacity:1;marker:none;color-rendering:auto;image-rendering:auto;shape-rendering:auto;text-rendering:auto;enable-background:accumulate"
     id="rect17229"
     width="0"
     height="0"
     x="1200"
     y="-9639.4727" />
  <g
     style="display:inline"
     transform="matrix(0.26458333,0,0,0.26458333,1054.4792,-9652.7018)"
     id="g4723" />
  <text
     xml:space="preserve"
     style="color:#000000;font-size:3.17499995px;line-height:125%;letter-spacing:0px;word-spacing:0px;clip-rule:nonzero;display:inline;overflow:visible;visibility:visible;opacity:1;isolation:auto;mix-blend-mode:normal;color-interpolation:sRGB;color-interpolation-filters:linearRGB;solid-color:#000000;solid-opacity:1;fill:#000000;fill-opacity:1;fill-rule:nonzero;stroke:none;stroke-width:1px;stroke-linecap:butt;stroke-linejoin:miter;stroke-miterlimit:4;stroke-dasharray:none;stroke-dashoffset:0;stroke-opacity:1;color-rendering:auto;image-rendering:auto;shape-rendering:auto;text-rendering:auto;enable-background:accumulate"
     x="1354.5166"
     y="-7556.6729"
     id="text5419"><tspan
       sodipodi:role="line"
       id="tspan5421"
       x="1354.5166"
       y="-7553.8638" /></text>
</svg>
