<?xml version="1.0" encoding="UTF-8" standalone="no"?>
<!-- Created with Inkscape (http://www.inkscape.org/) -->

<svg
   xmlns:osb="http://www.openswatchbook.org/uri/2009/osb"
   xmlns:dc="http://purl.org/dc/elements/1.1/"
   xmlns:cc="http://creativecommons.org/ns#"
   xmlns:rdf="http://www.w3.org/1999/02/22-rdf-syntax-ns#"
   xmlns:svg="http://www.w3.org/2000/svg"
   xmlns="http://www.w3.org/2000/svg"
   xmlns:sodipodi="http://sodipodi.sourceforge.net/DTD/sodipodi-0.dtd"
   xmlns:inkscape="http://www.inkscape.org/namespaces/inkscape"
   width="270"
   height="120"
   viewBox="0 0 71.4375 31.750002"
   version="1.1"
   id="svg5866"
   inkscape:version="0.92.2 2405546, 2018-03-11"
   sodipodi:docname="partners.svg"
   inkscape:export-filename="/home/iko/Downloads/sprites-partners.png"
   inkscape:export-xdpi="96"
   inkscape:export-ydpi="96"
   enable-background="new">
  <defs
     id="defs5860">
    <linearGradient
       id="linearGradient11654"
       osb:paint="solid"
       gradientTransform="matrix(0.02813758,0,0,0.02813758,1.2669947,2032.8383)">
      <stop
         style="stop-color:#09628e;stop-opacity:1;"
         offset="0"
         id="stop11656" />
    </linearGradient>
    <filter
       inkscape:collect="always"
       style="color-interpolation-filters:sRGB"
       id="filter1038">
      <feBlend
         inkscape:collect="always"
         mode="overlay"
         in2="BackgroundImage"
         id="feBlend1040" />
    </filter>
  </defs>
  <sodipodi:namedview
     id="base"
     pagecolor="#c5f1fd"
     bordercolor="#666666"
     borderopacity="1.0"
     inkscape:pageopacity="0"
     inkscape:pageshadow="2"
     inkscape:zoom="1.4333333"
     inkscape:cx="54.509558"
     inkscape:cy="125.53271"
     inkscape:document-units="px"
     inkscape:current-layer="g3551"
     showgrid="true"
     units="px"
     inkscape:showpageshadow="false"
     borderlayer="true"
     inkscape:snap-bbox="true"
     inkscape:bbox-nodes="true"
     inkscape:window-width="1366"
     inkscape:window-height="714"
     inkscape:window-x="0"
     inkscape:window-y="25"
     inkscape:window-maximized="1"
     inkscape:snap-page="true"
     inkscape:snap-nodes="false"
     showguides="false"
     inkscape:guide-bbox="true"
     inkscape:snap-bbox-edge-midpoints="false"
     inkscape:object-nodes="true"
     inkscape:snap-bbox-midpoints="false"
     fit-margin-left="30"
     inkscape:pagecheckerboard="false"
     showborder="true"
     inkscape:snap-global="true">
    <inkscape:grid
       type="xygrid"
       id="grid6418"
       empspacing="30"
       spacingx="0.26458334"
       spacingy="0.26458334"
       dotted="false"
       empcolor="#3f3fff"
       empopacity="0.47058824"
       color="#3f3fff"
       opacity="0"
       originx="0"
       originy="0" />
    <sodipodi:guide
       position="15.875,-2.6458334"
       orientation="1,0"
       id="guide864"
       inkscape:locked="false" />
    <sodipodi:guide
       position="7.9375002,-2.6458334"
       orientation="1,0"
       id="guide866"
       inkscape:locked="false" />
    <sodipodi:guide
       position="23.812501,-2.6458334"
       orientation="1,0"
       id="guide868"
       inkscape:locked="false" />
    <sodipodi:guide
       position="-2.6458334,15.875001"
       orientation="0,1"
       id="guide870"
       inkscape:locked="false" />
    <sodipodi:guide
       position="-2.6458334,23.812501"
       orientation="0,1"
       id="guide872"
       inkscape:locked="false" />
    <sodipodi:guide
       position="-2.6458334,7.9375003"
       orientation="0,1"
       id="guide908"
       inkscape:locked="false" />
  </sodipodi:namedview>
  <metadata
     id="metadata5863">
    <rdf:RDF>
      <cc:Work
         rdf:about="">
        <dc:format>image/svg+xml</dc:format>
        <dc:type
           rdf:resource="http://purl.org/dc/dcmitype/StillImage" />
        <dc:title />
      </cc:Work>
    </rdf:RDF>
  </metadata>
  <g
     inkscape:label="partners-full-color"
     inkscape:groupmode="layer"
     id="layer1"
     transform="translate(0,-265.24999)"
     style="display:none"
     sodipodi:insensitive="true">
    <g
       transform="matrix(0.08082493,0,0,0.08064262,53.76724,263.58691)"
       id="layer1-6"
       inkscape:label="Layer 1"
       inkscape:export-filename="/home/iko/Downloads/layer1-6.png"
       inkscape:export-xdpi="384"
       inkscape:export-ydpi="384">
      <g
         transform="translate(-235.40616,-535.2894)"
         id="g3801">
        <ellipse
           style="fill:none;stroke:#000000;stroke-width:21.15956879;stroke-linecap:round;stroke-linejoin:round;stroke-miterlimit:4;stroke-dasharray:none;stroke-dashoffset:0;stroke-opacity:1"
           id="path3776"
           transform="matrix(0.94871777,0,0,0.94169297,13.692463,235.99434)"
           cx="360.62445"
           cy="444.25034"
           rx="92.934036"
           ry="93.944183" />
        <g
           style="font-style:normal;font-weight:bold;font-size:144px;line-height:125%;font-family:Sans;-inkscape-font-specification:'Sans Bold';letter-spacing:0px;word-spacing:0px;fill:#000000;fill-opacity:1;stroke:#000000;stroke-width:10;stroke-miterlimit:4;stroke-opacity:1"
           id="text3778"
           transform="translate(-4.0406102,208.09142)">
          <path
             d="m 330.2631,496.27323 v -94.74659 l 63.47927,-0.50508 0.50507,10.39741 -46.80594,0.25254 v 29.14172 l 43.0717,0.25254 v 10.39741 l -43.0717,-0.50507 -0.50508,45.31512 z"
             style="-inkscape-font-specification:'Sans Bold';fill:#000000;fill-opacity:1;stroke:#000000;stroke-opacity:1"
             id="path3783"
             inkscape:connector-curvature="0"
             sodipodi:nodetypes="ccccccccccc" />
        </g>
      </g>
    </g>
    <g
       id="g964"
       transform="matrix(1.0111107,0,0,1.0111107,-0.12383823,-2.9471129)">
      <path
         inkscape:export-ydpi="48.18"
         inkscape:export-xdpi="48.18"
         inkscape:export-filename="/home/rafael/workspace/logo-osi/3/png/logo396x412.png"
         id="path3773"
         d="m 7.1294948,271.12447 m 0.7020414,1.82875 a 1.9588211,1.9588211 0 1 0 -1.4040827,0 l -1.3194619,3.43812 a 5.6414046,5.6414046 0 1 1 4.0430065,0 z"
         inkscape:connector-curvature="0"
         style="text-anchor:middle;fill:#3fa652;stroke:#21552a;stroke-width:0.47011706;stroke-linejoin:round" />
      <text
         inkscape:export-filename="/home/rafael/workspace/logo-osi/3/png/logo396x412.png"
         inkscape:export-ydpi="48.18"
         inkscape:export-xdpi="48.18"
         id="text7890-3-1"
         y="276.02701"
         x="-8.5143751e-07"
         style="font-style:normal;font-weight:normal;font-size:0.76504332px;line-height:0%;font-family:sans-serif;-inkscape-font-specification:Sans;letter-spacing:0px;word-spacing:0px;display:inline;fill:#20552a;fill-opacity:1;stroke:none;stroke-width:0.06375361"
         xml:space="preserve"
         transform="scale(0.99041198,1.0096808)"><tspan
           id="tspan7894-2-9"
           style="font-style:normal;font-variant:normal;font-weight:normal;font-stretch:normal;font-size:2.24127245px;line-height:1.25;font-family:OpenSymbol;-inkscape-font-specification:Sans;fill:#000000;fill-opacity:1;stroke-width:0.06375361"
           y="276.02701"
           x="-8.5143751e-07"
           sodipodi:role="line">open</tspan></text>
      <text
         inkscape:export-filename="/home/rafael/workspace/logo-osi/3/png/logo396x412.png"
         inkscape:export-ydpi="48.18"
         inkscape:export-xdpi="48.18"
         id="text7890-3-1-1"
         y="275.98697"
         x="6.5554709"
         style="font-style:normal;font-weight:normal;font-size:0.76504332px;line-height:0%;font-family:sans-serif;-inkscape-font-specification:Sans;letter-spacing:0px;word-spacing:0px;display:inline;fill:#20552a;fill-opacity:1;stroke:none;stroke-width:0.06375361"
         xml:space="preserve"
         transform="scale(0.99041198,1.0096808)"><tspan
           id="tspan7894-2-9-4"
           style="font-style:normal;font-variant:normal;font-weight:normal;font-stretch:normal;font-size:2.24127245px;line-height:1.25;font-family:OpenSymbol;-inkscape-font-specification:Sans;fill:#000000;fill-opacity:1;stroke-width:0.06375361"
           y="275.98697"
           x="6.5554709"
           sodipodi:role="line">source</tspan></text>
      <text
         inkscape:export-filename="/home/rafael/workspace/logo-osi/3/png/logo396x412.png"
         inkscape:export-ydpi="48.18"
         inkscape:export-xdpi="48.18"
         id="text7890-3-1-1-4"
         y="278.22507"
         x="2.1847355"
         style="font-style:normal;font-weight:normal;font-size:0.76504332px;line-height:0%;font-family:sans-serif;-inkscape-font-specification:Sans;letter-spacing:0px;word-spacing:0px;display:inline;fill:#20552a;fill-opacity:1;stroke:none;stroke-width:0.06375361"
         xml:space="preserve"
         transform="scale(0.99041198,1.0096808)"><tspan
           id="tspan7894-2-9-4-5"
           style="font-style:normal;font-variant:normal;font-weight:normal;font-stretch:normal;font-size:2.24127245px;line-height:1.25;font-family:OpenSymbol;-inkscape-font-specification:Sans;fill:#000000;fill-opacity:1;stroke-width:0.06375361"
           y="278.22507"
           x="2.1847355"
           sodipodi:role="line">initiative</tspan></text>
      <g
         id="g3797"
         transform="matrix(0.06375361,0,0,0.06375361,24.076869,320.08335)"
         inkscape:export-filename="/home/rafael/workspace/logo-osi/3/png/logo396x412.png"
         inkscape:export-xdpi="48.18"
         inkscape:export-ydpi="48.18">
        <ellipse
           ry="23.571411"
           rx="23.571428"
           cy="646.64789"
           cx="645.71429"
           transform="matrix(0.33912491,0,0,0.33852655,-402.53969,-908.3754)"
           id="path3015"
           style="fill:none;stroke:#000000;stroke-width:6.66513872;stroke-miterlimit:4;stroke-dasharray:none;stroke-opacity:1" />
        <text
           id="text3793"
           y="-685.33014"
           x="-188.29698"
           style="font-style:normal;font-variant:normal;font-weight:bold;font-stretch:normal;line-height:0%;font-family:OpenSymbol;-inkscape-font-specification:'OpenSymbol Bold';letter-spacing:0px;word-spacing:0px;fill:#000000;fill-opacity:1;stroke:none"
           xml:space="preserve"><tspan
             y="-685.33014"
             x="-188.29698"
             id="tspan3795"
             sodipodi:role="line"
             style="font-size:12.65519524px;line-height:1.25">R</tspan></text>
      </g>
    </g>
    <g
       id="g1009"
       transform="matrix(0.30953139,0,0,0.30953139,14.741433,214.32149)">
      <path
         sodipodi:nodetypes="ccccsccccccsscccccscscccccccccccccccccscsccccsccccscccccccccccccsccccccscscccscscccsscccscssscccsssccsccccccccccccssccccccccccccccscccccccccsccccscscscccccsscccccscccccccccsccccscsccscccccsccccccccsccccccssccccsccccsccccscccsccscccccscccscccccsccccccccccccccccsccscccccccccscccccccccccc"
         style="fill:#6e6d72;fill-opacity:1;stroke-width:0.08466668"
         d="m -40.251477,249.78012 0.02192,-4.46616 0.330049,-0.027 c 0.385398,-0.0316 0.471141,0.0616 0.472988,0.51386 7.11e-4,0.17463 0.02162,0.3175 0.04645,0.3175 0.02484,0 0.178248,-0.13309 0.340915,-0.29576 0.488982,-0.48898 0.915515,-0.66107 1.742415,-0.70298 0.938387,-0.0476 1.436478,0.10902 2.022345,0.63576 0.787836,0.70834 1.149461,1.74191 1.074936,3.07231 -0.07038,1.25635 -0.485887,2.14867 -1.262506,2.71125 -1.040691,0.75387 -2.82563,0.62785 -3.565766,-0.25175 -0.119475,-0.14199 -0.257789,-0.25816 -0.307362,-0.25816 -0.06057,0 -0.09013,0.52763 -0.09013,1.60866 v 1.60867 h -0.424082 -0.424082 z m 3.941122,1.34126 c 0.862552,-0.44368 1.374433,-1.62318 1.256255,-2.89473 -0.169674,-1.82563 -1.300824,-2.7598 -2.811821,-2.32216 -0.9205,0.2666 -1.421932,1.01651 -1.529983,2.28813 -0.116354,1.36934 0.433594,2.56469 1.367676,2.97275 0.39439,0.17229 1.34471,0.14795 1.717873,-0.044 z m -9.168541,0.81 c -0.562584,-0.18599 -0.833326,-0.35967 -1.242441,-0.79705 -0.708737,-0.7577 -0.958442,-1.544 -0.893864,-2.81471 0.06622,-1.30308 0.529654,-2.22801 1.389862,-2.77394 0.532867,-0.33818 0.941614,-0.44234 1.738101,-0.44292 1.418111,-10e-4 2.39001,0.7197 2.863179,2.12322 0.155638,0.46165 0.178595,0.68965 0.152745,1.51698 -0.02754,0.88125 -0.05564,1.02711 -0.296142,1.5368 -0.532884,1.12935 -1.396417,1.69526 -2.653106,1.7387 -0.436766,0.0151 -0.852797,-0.0191 -1.058334,-0.0871 z m 1.905,-0.84768 c 0.462089,-0.23587 0.854354,-0.72928 1.101498,-1.38551 0.239885,-0.63695 0.2079,-1.87906 -0.06407,-2.48795 -0.492697,-1.10306 -1.514673,-1.62505 -2.574415,-1.31491 -0.623257,0.1824 -1.027096,0.54472 -1.359028,1.21933 -0.262523,0.53354 -0.278873,0.61955 -0.277046,1.45748 0.0021,0.96327 0.123876,1.37155 0.592232,1.9856 0.528463,0.69285 1.761573,0.94416 2.580826,0.52596 z m 12.319002,0.84759 c -1.156699,-0.3821 -1.799728,-1.23704 -2.008677,-2.67064 -0.246111,-1.68857 0.396765,-3.28118 1.563043,-3.87218 0.747032,-0.37855 1.978904,-0.39708 2.669582,-0.0402 0.411123,0.21246 0.969741,0.80047 1.202498,1.26578 0.365149,0.72997 0.545408,2.06488 0.291963,2.16213 -0.07366,0.0283 -1.197609,0.0514 -2.497667,0.0514 h -2.363742 l -4.24e-4,0.3175 c -10e-4,0.79556 0.620173,1.75084 1.309863,2.01423 0.266104,0.10163 0.547338,0.13348 0.968464,0.10968 0.785467,-0.0444 1.205693,-0.32478 1.600263,-1.06778 l 0.279841,-0.52696 h 0.386913 0.386913 l -0.05463,0.27314 c -0.151225,0.75612 -0.704552,1.48249 -1.381693,1.81378 -0.398829,0.19513 -0.610507,0.23901 -1.247105,0.25849 -0.471072,0.0144 -0.897338,-0.0197 -1.105408,-0.0884 z m 2.921,-4.10458 c 0,-0.37502 -0.234395,-0.96872 -0.518552,-1.31345 -0.732908,-0.88915 -2.085966,-0.92913 -2.883941,-0.0852 -0.285674,0.30211 -0.659587,1.09714 -0.66068,1.40475 l -8.27e-4,0.23283 h 2.032 2.032 z m 27.60338793,4.08252 c -1.26499133,-0.33993 -2.09114333,-1.32217 -2.31195743,-2.74875 -0.2445292,-1.57979 0.4757894,-3.09384 1.7765812,-3.73421 0.47871733,-0.23568 0.66970583,-0.27978 1.33797733,-0.30901 0.93864187,-0.0411 1.55542257,0.11184 2.08711137,0.51737 0.8049574,0.61396 1.2443529,1.50068 1.320006,2.66383 l 0.045431,0.6985 H 1.1914317 c -1.79119547,0 -2.3414579,0.0246 -2.368707,0.10583 -0.057746,0.17218 0.082658,0.66912 0.25382823,0.89838 0.2953301,0.39557 0.5875529,0.54939 1.11637,0.58764 0.59835458,0.0433 1.16716727,-0.18541 1.45035957,-0.58312 0.1703671,-0.23926 0.1973987,-0.24673 0.8922487,-0.24673 0.5357885,0 0.7280233,0.0299 0.7620043,0.11843 0.055527,0.1447 -0.2979666,0.86055 -0.605327,1.22583 -0.6634598,0.78847 -2.16880534,1.14296 -3.42271457,0.80601 z m 2.28394787,-4.27531 c 0,-0.51626 -0.4750367,-1.01962 -1.06706507,-1.13068 -0.7532574,-0.14131 -1.64226863,0.47301 -1.64226863,1.13485 0,0.1677 0.045504,0.17353 1.35466693,0.17353 1.31949377,0 1.35466677,-0.005 1.35466677,-0.1777 z m 19.7485592,4.28022 c -1.006269,-0.27097 -1.647383,-0.80013 -2.082751,-1.71904 -0.255461,-0.5392 -0.266734,-0.60814 -0.265115,-1.62148 0.0014,-0.90228 0.0302,-1.12951 0.195051,-1.54107 0.2705,-0.67532 0.834096,-1.27176 1.521496,-1.61017 0.546553,-0.26907 0.597363,-0.27776 1.624315,-0.27776 0.970982,0 1.100513,0.0189 1.54061,0.22525 0.672731,0.31537 1.204127,0.83562 1.530344,1.49826 0.269311,0.54705 0.275161,0.58327 0.275161,1.70371 0,1.07473 -0.0141,1.17347 -0.230461,1.61361 -0.32824,0.66773 -0.740237,1.11231 -1.308271,1.41174 -0.843865,0.44484 -1.88699,0.5629 -2.800379,0.31695 z m 1.615283,-1.424 c 0.630026,-0.26325 0.930003,-0.92174 0.919012,-2.01738 -0.01375,-1.37084 -0.698012,-2.12345 -1.784818,-1.9631 -0.489614,0.0722 -0.965717,0.49824 -1.145051,1.02456 -0.150765,0.44247 -0.175696,1.43497 -0.04763,1.89603 0.266978,0.96114 1.175386,1.42887 2.058482,1.05989 z m -9.494908,1.37967 c -0.501419,-0.0987 -0.902751,-0.36507 -1.064919,-0.70682 -0.113419,-0.23901 -0.136013,-0.63159 -0.136013,-2.36328 0,-2.38226 0.01152,-2.34275 -0.683382,-2.34275 h -0.417286 v -0.59267 -0.59267 l 0.402167,-0.001 c 0.627851,-0.002 0.650392,-0.0367 0.698501,-1.07486 l 0.04233,-0.91351 h 0.846667 0.846666 l 0.04233,0.9035 c 0.02328,0.49693 0.07399,0.93508 0.112683,0.97367 0.03869,0.0386 0.324444,0.0892 0.635001,0.11249 l 0.564649,0.0423 0.02576,0.49917 c 0.01417,0.27455 -0.0072,0.53217 -0.04757,0.5725 -0.04033,0.0403 -0.309118,0.0856 -0.597309,0.1006 -0.288189,0.015 -0.552533,0.0557 -0.587432,0.0905 -0.08209,0.0818 -0.135215,2.58703 -0.0666,3.14064 0.07632,0.61575 0.132713,0.67047 0.740864,0.71889 l 0.532284,0.0424 0.02474,0.65691 c 0.02409,0.63971 0.01896,0.6591 -0.196012,0.74083 -0.260485,0.099 -1.199924,0.0955 -1.718131,-0.007 z m -39.748508,-0.0466 c -0.03324,-0.0332 -0.06043,-1.52301 -0.06043,-3.31062 v -3.25019 l 0.402166,0.0258 0.402167,0.0258 0.02603,0.35983 c 0.01432,0.19791 0.05482,0.35983 0.08999,0.35983 0.03518,0 0.175861,-0.11912 0.312632,-0.2647 0.432327,-0.46021 0.991227,-0.66498 1.815007,-0.66498 1.194191,0 1.885965,0.44361 2.159597,1.38487 0.105061,0.3614 0.124871,0.89945 0.106561,2.89421 l -0.02249,2.45027 -0.357033,0.0259 c -0.31372,0.0228 -0.36241,0.002 -0.401363,-0.16933 -0.02438,-0.10738 -0.05422,-1.22394 -0.0663,-2.48124 -0.02046,-2.12919 -0.03409,-2.30923 -0.198669,-2.62466 -0.479801,-0.91961 -1.810712,-1.06316 -2.689023,-0.29004 -0.644988,0.56774 -0.681531,0.73241 -0.731343,3.2957 l -0.0436,2.24367 -0.341738,0.0251 c -0.187956,0.0138 -0.368931,-0.002 -0.402167,-0.0353 z m 6.772126,-10e-4 c -0.03257,-0.0326 -0.05922,-1.49932 -0.05922,-3.25946 0,-2.96545 0.01087,-3.20524 0.148166,-3.26838 0.08149,-0.0375 0.501036,-0.0552 0.932323,-0.0393 l 0.784154,0.0289 -0.02215,3.2748 -0.02216,3.2748 -0.850947,0.0239 c -0.468021,0.0132 -0.877596,-0.003 -0.910166,-0.0353 z m 3.028548,-0.0495 c -0.02303,-0.06 -0.03187,-1.53773 -0.01965,-3.28382 l 0.02222,-3.17469 h 0.846667 0.846667 l 0.02628,0.3175 c 0.01445,0.17462 0.04752,0.3175 0.07349,0.3175 0.02597,0 0.183655,-0.1198 0.350421,-0.26622 0.484274,-0.4252 0.948714,-0.58986 1.6638,-0.58986 0.345932,0 0.781184,0.0456 0.967226,0.10135 0.443881,0.13299 0.899745,0.51646 1.13341,0.95342 0.182857,0.34194 0.188043,0.42519 0.188043,3.01864 v 2.667 h -0.846667 -0.846667 l -0.0464,-2.20133 c -0.04939,-2.34306 -0.07525,-2.49072 -0.504152,-2.87887 -0.141767,-0.1283 -0.305899,-0.16913 -0.679793,-0.16913 -0.585551,0 -0.884201,0.17882 -1.14032,0.68279 -0.151896,0.29889 -0.173692,0.55118 -0.211666,2.44987 l -0.04233,2.11667 -0.869347,0.0241 c -0.649234,0.018 -0.879949,-0.003 -0.911218,-0.085 z m 8.9610625,-0.003 c -0.1344295,-0.2077 -2.2165854,-6.36266 -2.1751184,-6.42975 0.02325,-0.0376 0.457664,-0.0684 0.9653548,-0.0684 h 0.9230729 l 0.08767,0.3175 c 0.3260861,1.18094 1.1809469,3.7862 1.249902,3.80919 0.046063,0.0153 0.2002417,-0.3449 0.3426189,-0.80055 0.142378,-0.45566 0.4350132,-1.39044 0.650301,-2.0773 l 0.3914319,-1.24884 h 0.885969 c 0.709682,0 0.8859682,0.024 0.8859682,0.12046 0,0.12494 -2.065955,6.24833 -2.1587894,6.39854 -0.08023,0.12981 -1.9632746,0.11067 -2.0483807,-0.0208 z m 11.9710576,0.0522 c -0.032571,-0.0326 -0.05922,-1.52105 -0.05922,-3.30773 v -3.24852 l 0.8678335,0.0241 0.8678334,0.0241 0.026278,0.3175 c 0.014453,0.17462 0.054949,0.3175 0.089992,0.3175 0.035044,0 0.1705729,-0.11154 0.3011771,-0.24786 0.1306035,-0.13632 0.4308357,-0.33104 0.6671836,-0.43272 0.3654383,-0.1572 0.5444347,-0.17947 1.1965459,-0.14881 0.8807484,0.0414 1.3491262,0.23113 1.6797214,0.68044 0.427477,0.58098 0.44177,0.69263 0.44177,3.45095 v 2.58233 l -0.839671,0.0244 c -0.6147072,0.0179 -0.8582094,-0.005 -0.9088697,-0.0847 -0.038061,-0.06 -0.069785,-1.05327 -0.070498,-2.20729 -0.00138,-2.23177 -0.037065,-2.46958 -0.4220617,-2.81245 -0.2538179,-0.22605 -1.1242473,-0.23396 -1.455774,-0.0132 -0.4829438,0.32153 -0.5324899,0.57271 -0.5787941,2.93424 l -0.042333,2.159 -0.8509467,0.0239 c -0.4680213,0.0132 -0.8775963,-0.003 -0.9101668,-0.0353 z m 11.6645499,-0.0495 c -0.02303,-0.06 -0.03187,-1.53773 -0.01965,-3.28381 l 0.02222,-3.1747 0.762,-0.0498 c 0.4191,-0.0274 0.829127,-0.0163 0.91117,0.0247 0.139137,0.0694 0.147679,0.29198 0.127,3.30942 l -0.02217,3.23498 -0.869347,0.0241 c -0.649234,0.018 -0.879949,-0.003 -0.911218,-0.085 z m 10.687539,0.0496 c -0.03262,-0.0326 -0.05931,-1.5198 -0.05931,-3.30486 v -3.24556 h 0.835846 0.835845 l 0.05386,0.33684 0.05386,0.33683 0.430403,-0.32576 c 0.529989,-0.40114 0.954331,-0.53421 1.677556,-0.52608 1.062148,0.0119 1.635098,0.32096 2.009788,1.08402 l 0.241173,0.49115 v 2.58234 2.58233 h -0.889 -0.889 l -0.04233,-2.24367 c -0.03647,-1.93276 -0.06306,-2.28159 -0.191934,-2.5174 -0.208304,-0.38115 -0.586413,-0.55871 -1.087275,-0.51058 -0.535841,0.0515 -0.816484,0.24971 -1.026848,0.72527 -0.153845,0.34779 -0.179381,0.62816 -0.224913,2.46936 l -0.05136,2.07702 -0.808528,0.024 c -0.44469,0.0132 -0.835215,-0.003 -0.867833,-0.0353 z m -46.336278,-7.68026 c -0.02401,-0.0626 -0.03234,-0.39594 -0.01851,-0.74084 l 0.02514,-0.62707 h 0.889 0.889 l 0.02446,0.74083 0.02446,0.74083 h -0.894953 c -0.671105,0 -0.905873,-0.0284 -0.938607,-0.11375 z m 35.645814,0.003 c -0.02464,-0.0642 -0.03348,-0.39892 -0.01965,-0.74382 l 0.02514,-0.62707 h 0.889 0.889 v 0.71966 0.71967 l -0.869347,0.0241 c -0.677484,0.0188 -0.879234,-0.002 -0.914143,-0.0926 z"
         id="path970"
         inkscape:connector-curvature="0" />
      <path
         sodipodi:nodetypes="cccccssccsccccccsccsccccccccccccccccsscccccccscccccccccscccccccccsccccccsccscsccscccccccccccccsccccscscccsccscsccccccccsccscsccccccccssscccscscccccccccccsccsccccscscscccssccs"
         style="display:inline;fill:#f68121;fill-opacity:1;stroke-width:0.08466668"
         d="m 38.041676,251.67731 c -0.278384,-0.29632 -0.236051,-0.73778 0.236008,-2.46126 0.72103,-2.63248 0.781796,-2.93523 0.634281,-3.16036 -0.154525,-0.23584 -0.368462,-0.24489 -0.782582,-0.0331 -0.765464,0.39146 -1.861109,1.67011 -2.471727,2.88457 -0.317611,0.63169 -0.932739,2.33541 -0.932739,2.58341 0,0.18741 -0.281773,0.29804 -0.759089,0.29804 -0.292574,0 -0.446262,-0.0383 -0.477213,-0.11898 -0.02511,-0.0654 0.299934,-1.29811 0.722323,-2.73928 0.422389,-1.44116 0.767979,-2.69741 0.767979,-2.79165 0,-0.22887 -0.195831,-0.37862 -0.575937,-0.44041 -0.359939,-0.0585 -0.379002,-0.193 -0.03829,-0.27016 0.718663,-0.16276 1.976884,-0.34842 2.026306,-0.29899 0.03163,0.0316 -0.08627,0.56708 -0.262004,1.18989 -0.393917,1.39604 -0.381429,1.60756 0.05945,1.00696 0.497012,-0.67706 1.609119,-1.67484 2.19066,-1.96544 0.378521,-0.18914 0.640345,-0.2606 0.954831,-0.2606 0.536276,0 0.784834,0.16263 0.859872,0.56261 0.06918,0.36878 -0.0095,0.74052 -0.651195,3.07748 -0.274828,1.00086 -0.499694,1.9044 -0.499694,2.00785 0,0.10345 0.0786,0.23016 0.174651,0.28157 0.151331,0.081 0.222528,0.0447 0.533247,-0.27219 0.197231,-0.20111 0.439936,-0.47996 0.539342,-0.61966 0.141851,-0.19936 0.203073,-0.23197 0.284591,-0.15158 0.122994,0.12128 -0.15113,0.57841 -0.711224,1.18605 -0.63655,0.69058 -1.43874,0.91304 -1.821849,0.50524 z m 4.514181,0.0432 c -1.666095,-0.78231 -1.473528,-3.49231 0.380611,-5.35635 0.864158,-0.86878 1.522129,-1.19646 2.506125,-1.24811 0.793547,-0.0417 1.128038,0.0515 1.392532,0.38773 0.365352,0.46446 0.114053,1.46098 -0.497309,1.97205 -0.491185,0.41061 -1.594511,0.90281 -2.468896,1.10139 -0.442386,0.10046 -0.861486,0.21058 -0.931336,0.2447 -0.17055,0.0833 -0.290531,0.73456 -0.220884,1.19898 0.11816,0.78798 0.597762,1.21002 1.366943,1.20289 0.510921,-0.005 1.019064,-0.21874 1.645666,-0.6931 0.254863,-0.19294 0.512038,-0.35079 0.5715,-0.35079 0.441145,0 -0.475599,0.87208 -1.39994,1.33173 -0.529243,0.26318 -0.719605,0.31222 -1.312333,0.33804 -0.547801,0.0239 -0.764506,-0.003 -1.032679,-0.12916 z m 1.06486,-3.45506 c 1.150589,-0.34137 1.925508,-0.97279 2.1526,-1.75396 0.149913,-0.51568 0.103862,-0.86503 -0.130572,-0.99049 -0.664871,-0.35583 -1.726488,0.48292 -2.410036,1.90409 -0.308941,0.6423 -0.371772,0.97681 -0.183492,0.97681 0.0614,0 0.318577,-0.0614 0.5715,-0.13645 z m 4.483685,3.4406 c -0.339344,-0.33935 -0.319606,-0.51385 0.364078,-3.21949 0.358894,-1.42028 0.651906,-2.62796 0.651152,-2.68374 -7.93e-4,-0.0622 -0.170838,-0.11131 -0.439224,-0.127 -0.575276,-0.0336 -0.607729,-0.1857 -0.07722,-0.36191 0.530217,-0.17611 1.144034,-0.62581 1.531062,-1.12169 0.162983,-0.20883 0.360307,-0.4615 0.438488,-0.5615 0.265872,-0.34005 0.332148,-0.0688 0.152376,0.62349 -0.265464,1.02235 -0.407476,0.93035 1.43614,0.93035 0.882018,0 1.621798,0.0293 1.643958,0.0652 0.0605,0.0979 0.21526,1.93902 0.27416,3.26207 0.0363,0.81483 0.0811,1.15856 0.14816,1.13621 0.0529,-0.0176 0.71231,-1.03865 1.46538,-2.26893 1.47881,-2.4159 1.65745,-2.61205 1.7523,-1.92391 0.0276,0.20041 0.15102,1.31687 0.27419,2.48104 0.12318,1.16417 0.2535,2.14875 0.28959,2.18796 0.12762,0.13861 1.62726,-1.74962 2.11229,-2.65964 0.32244,-0.60493 0.32307,-0.81969 0.004,-1.22165 -0.44459,-0.55945 -0.27024,-1.143 0.34152,-1.143 0.46453,0 0.63323,0.27161 0.62895,1.01262 -0.004,0.68348 -0.29156,1.29966 -1.15354,2.47133 -0.78543,1.06763 -2.53972,3.18575 -2.68858,3.2462 -0.066,0.0268 -0.15621,0.0125 -0.20047,-0.0317 -0.0587,-0.0587 -0.55331,-3.92734 -0.56684,-4.43358 -0.008,-0.28518 -0.41456,0.25314 -1.68138,2.2243 -0.80741,1.25631 -1.52106,2.2842 -1.58589,2.2842 -0.17184,0 -0.18478,-0.13142 -0.29073,-2.9527 -0.0531,-1.41444 -0.12953,-2.65837 -0.1698,-2.76429 -0.1461,-0.38426 -0.38796,-0.46368 -1.412105,-0.46368 -0.829048,0 -0.962345,0.0196 -1.033203,0.15202 -0.130709,0.24422 -1.194604,4.53595 -1.194604,4.81899 0,0.3041 0.179612,0.48268 0.411461,0.4091 0.09108,-0.0289 0.322284,-0.22256 0.513808,-0.43033 0.365339,-0.39635 0.514064,-0.46708 0.514064,-0.24449 0,0.20464 -0.908457,1.11053 -1.307288,1.30361 -0.457919,0.22167 -0.92693,0.22355 -1.145897,0.005 z m 14.39064,0.0929 c -1.24907,-0.40832 -1.82376,-1.5702 -1.48744,-3.00732 0.20287,-0.86692 0.59148,-1.52482 1.36062,-2.30348 0.9341,-0.94567 1.68749,-1.32163 2.75026,-1.37244 1.23098,-0.0589 1.96767,0.30412 2.40714,1.18602 0.40667,0.8161 0.23402,2.00097 -0.45901,3.15001 -0.44234,0.73341 -1.4553,1.6596 -2.23831,2.04659 -0.58402,0.28864 -0.73352,0.32599 -1.38779,0.34674 -0.4033,0.0128 -0.82875,-0.008 -0.94547,-0.0461 z m 1.78262,-0.47815 c 0.79842,-0.41288 1.6961,-1.86854 2.03499,-3.29989 0.39456,-1.66654 -0.0136,-2.58251 -1.15006,-2.58123 -1.12249,10e-4 -2.22168,1.29861 -2.75612,3.25296 -0.36366,1.32983 -0.19798,2.37511 0.42778,2.69896 0.35371,0.18305 1.01527,0.1506 1.44341,-0.0708 z m 12.99456,0.36194 c -0.13303,-0.11582 -0.47628,-0.76899 -0.87555,-1.66611 -0.3612,-0.81158 -0.69778,-1.48929 -0.74795,-1.50601 -0.0502,-0.0167 -0.27813,0.11734 -0.50657,0.29791 -0.41225,0.32587 -0.41778,0.33679 -0.74,1.46368 -0.41853,1.46369 -0.45244,1.51636 -0.97615,1.51636 -0.22896,0 -0.44706,-0.0469 -0.4924,-0.10583 -0.0553,-0.0719 0.25288,-1.30093 0.96059,-3.83117 1.39523,-4.98827 1.48717,-5.35673 1.38452,-5.54854 -0.0487,-0.091 -0.23444,-0.18642 -0.4433,-0.22772 -0.19773,-0.0391 -0.35949,-0.10608 -0.35949,-0.14884 0,-0.0428 0.3048,-0.12206 0.67733,-0.17621 0.37254,-0.0542 0.82974,-0.14158 1.016,-0.19427 0.47597,-0.13465 0.63543,-0.12168 0.63246,0.0514 -10e-4,0.0815 -0.41829,1.59596 -0.92641,3.3655 -0.50814,1.76953 -0.8951,3.24642 -0.85993,3.28197 0.0703,0.0711 2.11371,-1.45831 2.703689,-2.02361 0.42585,-0.40803 0.44019,-0.62371 0.0499,-0.75036 -0.563189,-0.18277 -0.27744,-0.25417 1.10945,-0.27722 1.15473,-0.0192 1.39717,-0.003 1.39717,0.0958 0,0.0714 -0.16068,0.15902 -0.40216,0.21919 -0.22119,0.0551 -0.53552,0.17723 -0.6985,0.27137 -0.57645,0.33299 -2.455339,1.79598 -2.455339,1.91185 0,0.12 0.815239,2.0771 1.120409,2.68968 0.20567,0.41288 0.47692,0.71967 0.63631,0.71967 0.0652,0 0.34523,-0.21624 0.62231,-0.48053 0.37296,-0.35574 0.5285,-0.45581 0.59896,-0.38535 0.12246,0.12247 -0.0656,0.4169 -0.62114,0.97243 -0.66466,0.66466 -1.36694,0.84564 -1.804219,0.46495 z m -8.98714,-0.0172 c -0.0259,-0.0676 0.24463,-1.18206 0.60128,-2.4765 0.76833,-2.78852 0.81504,-3.06405 0.56243,-3.31666 -0.10344,-0.10345 -0.28779,-0.17988 -0.43387,-0.17988 -0.16933,0 -0.254,-0.0423 -0.254,-0.127 0,-0.0699 0.0333,-0.127 0.0741,-0.127 0.0407,0 0.53952,-0.079 1.10843,-0.17568 0.5689,-0.0966 1.0571,-0.15295 1.08488,-0.12518 0.0514,0.0514 -0.10248,0.7307 -0.39894,1.76136 -0.0904,0.31433 -0.13053,0.5715 -0.0892,0.5715 0.0414,0 0.25159,-0.27266 0.46718,-0.60592 0.80055,-1.23752 1.37564,-1.76474 1.92497,-1.76474 0.2198,0 0.33546,0.0476 0.39761,0.16376 0.12733,0.23791 0.10738,0.73783 -0.0409,1.02455 -0.20633,0.399 -0.57667,0.42088 -1.07487,0.0635 -0.12219,-0.0876 -0.18708,-0.0643 -0.41106,0.14755 -0.71377,0.67527 -1.50639,2.17366 -2.08134,3.93463 -0.22046,0.67521 -0.44111,1.25566 -0.49034,1.28987 -0.16935,0.11768 -0.89601,0.073 -0.94635,-0.0582 z m 10.472529,-7.476 c -0.59858,-0.30522 -0.84319,-1.04295 -0.53981,-1.62802 0.62802,-1.21113 2.50545,-0.68458 2.36805,0.66416 -0.065,0.63856 -0.5936,1.11189 -1.2416,1.11189 -0.16298,0 -0.42697,-0.0666 -0.58664,-0.14803 z m 1.27394,-0.34974 c 0.27781,-0.27781 0.3287,-0.38394 0.3287,-0.68544 0,-0.84898 -0.82741,-1.37354 -1.52063,-0.96405 -0.91734,0.5419 -0.53051,1.9686 0.53576,1.97594 0.26903,0.002 0.38611,-0.0564 0.65617,-0.32645 z m -0.46964,-0.29092 c -0.29461,-0.38625 -0.47166,-0.40526 -0.47166,-0.0506 0,0.46339 -0.20934,0.23173 -0.23783,-0.26319 -0.0429,-0.74532 0.009,-0.84454 0.44507,-0.84454 0.54696,0 0.84843,0.39848 0.51243,0.67734 -0.14988,0.12438 -0.16526,0.3512 -0.0328,0.48366 0.0518,0.0518 0.0781,0.14254 0.0584,0.20164 -0.0214,0.0643 -0.13122,-0.0176 -0.27357,-0.20426 z m 0.0787,-0.77738 c 0,-0.1317 -0.0565,-0.16933 -0.254,-0.16933 -0.20121,0 -0.25979,0.0408 -0.28182,0.19636 -0.0249,0.17586 0.002,0.19354 0.254,0.16933 0.21636,-0.0207 0.28182,-0.0663 0.28182,-0.19636 z"
         id="path972-3"
         inkscape:connector-curvature="0" />
    </g>
    <g
       id="g1175">
      <path
         d="m 24.94525,265.8844 c -0.85111,-0.41789 -1.87465,-0.63441 -3.0713,-0.63441 -1.15359,0 -2.19212,0.21652 -3.11489,0.64888 -0.92277,0.4613 -1.62953,1.08194 -2.11976,1.87483 -0.50506,0.79305 -0.7643,1.71651 -0.7643,2.76796 0,1.3565 0.50505,2.59691 1.52859,3.69348 0.28818,0.31695 0.72106,0.60427 1.29794,0.89297 0,0 0.35984,-0.50436 0.35984,-0.50436 -0.2446,-0.15916 -0.43184,-0.2887 -0.5333,-0.40376 -0.89383,-0.83648 -1.32602,-2.06258 -1.32602,-3.67833 0,-1.67208 0.51901,-2.94108 1.55701,-3.82061 0.822,-0.70694 1.81712,-1.05248 3.01377,-1.05248 0.88005,0 1.67225,0.17243 2.39366,0.51917 0.70796,0.36002 1.24023,0.8649 1.60059,1.51378 0.46147,0.80718 0.67937,1.71635 0.67937,2.71077 0,1.05265 -0.2179,1.96147 -0.63597,2.72628 -0.41857,0.76447 -0.98081,1.32602 -1.6731,1.68603 -0.61978,0.30351 -1.29743,0.5774 -2.00419,0.79409 0,0 -0.27406,0.072 -0.27406,0.072 0,0 -0.3023,0.14366 -0.3023,0.14366 -0.33177,0.17363 -0.54829,0.41892 -0.69212,0.70727 -0.13023,0.28767 -0.14435,0.54812 -0.0145,0.80823 0.12953,0.26044 0.35984,0.43166 0.69212,0.48885 0.36035,0.0727 0.70624,0.0152 1.06711,-0.14331 0.36002,-0.17364 0.63424,-0.41824 0.79306,-0.7221 0.17261,-0.31625 0.18725,-0.60427 0.0574,-0.86471 -0.0286,-0.11542 -0.11559,-0.20085 -0.23065,-0.28801 0.66335,-0.23048 1.22507,-0.43271 1.65812,-0.6339 0.89383,-0.43305 1.58802,-1.06729 2.09204,-1.86139 0.51969,-0.83526 0.76429,-1.77405 0.76429,-2.81188 0,-1.03767 -0.23082,-1.9613 -0.73536,-2.76848 -0.50419,-0.83647 -1.19786,-1.44177 -2.06309,-1.86053 z"
         style="display:inline;fill:#000000;fill-opacity:1;fill-rule:nonzero;stroke:none;stroke-width:0.35277778"
         id="path1088-6"
         inkscape:connector-curvature="0" />
      <path
         d="m 23.44508,268.79792 c 0.10181,0.24478 0.15882,0.37414 0.20292,0.41772 0.10094,0.1006 0.1726,0.15882 0.2446,0.18759 0.0724,0.058 0.15865,0.0725 0.26097,0.0725 0.15778,0 0.30075,-0.0579 0.43132,-0.1738 0.11524,-0.11524 0.17415,-0.28835 0.17415,-0.50402 0,-0.40411 -0.26062,-0.80822 -0.80891,-1.19734 -0.53278,-0.40394 -1.21112,-0.60513 -2.01831,-0.60513 -0.70676,0 -1.3267,0.1583 -1.87464,0.46112 -0.54829,0.28836 -0.98099,0.70625 -1.28347,1.25436 -0.31747,0.53313 -0.46182,1.15359 -0.46182,1.84589 0,1.02336 0.31764,1.86121 0.99494,2.55367 0.66336,0.69161 1.4714,1.02302 2.43741,1.02302 1.22525,0 2.29392,-0.59152 3.17241,-1.75975 0,0 -0.44751,-0.36053 -0.44751,-0.36053 -0.43098,0.44752 -0.73501,0.73639 -0.894,0.85163 -0.27406,0.18603 -0.53313,0.31643 -0.79272,0.40359 -0.27441,0.10128 -0.54795,0.12954 -0.8363,0.12954 -0.59169,0 -1.11001,-0.2167 -1.5434,-0.6923 -0.49007,-0.54828 -0.75,-1.29776 -0.75,-2.22105 0,-0.59187 0.10146,-1.11018 0.31747,-1.54271 0.20188,-0.43323 0.46198,-0.76482 0.80804,-0.98048 0.34555,-0.21652 0.70642,-0.33159 1.10967,-0.33159 0.27423,0 0.50505,0.0426 0.72157,0.15848 0.2167,0.12953 0.40325,0.27354 0.54794,0.44682 0.0581,0.10077 0.15814,0.28888 0.28767,0.56276 z"
         style="display:inline;fill:#000000;fill-opacity:1;fill-rule:nonzero;stroke:none;stroke-width:0.35277778"
         id="path1090-7"
         inkscape:connector-curvature="0" />
      <path
         d="m 21.7153,278.63315 c -0.36087,0.1726 -0.63459,0.4172 -0.79289,0.71968 -0.17346,0.31867 -0.20205,0.59291 -0.0722,0.86679 0.12953,0.25804 0.35984,0.4327 0.72071,0.50367 0.33176,0.0593 0.67765,0.0141 1.05282,-0.14263 0.36036,-0.1726 0.61994,-0.41857 0.79358,-0.72071 0.17243,-0.31936 0.18655,-0.60702 0.0715,-0.86679 -0.12954,-0.27285 -0.36036,-0.43166 -0.69213,-0.51986 -0.36052,-0.0579 -0.72088,0 -1.08141,0.15985 z"
         style="display:inline;fill:#000000;fill-opacity:1;fill-rule:nonzero;stroke:none;stroke-width:0.35277778"
         id="path1092-5"
         inkscape:connector-curvature="0" />
      <g
         id="text998"
         style="font-style:normal;font-weight:normal;font-size:6.38844204px;line-height:1.25;font-family:sans-serif;letter-spacing:0px;word-spacing:0px;fill:#000000;fill-opacity:1;stroke:none;stroke-width:0.15971106"
         aria-label="Question">
        <path
           id="path1103"
           style="font-style:normal;font-variant:normal;font-weight:normal;font-stretch:normal;font-family:'Franklin Gothic Medium Cond';-inkscape-font-specification:'Franklin Gothic Medium Cond';stroke-width:0.15971106"
           d="m 31.930304,269.95711 v 0.53653 q -0.19652,0.0749 -0.414874,0.0749 -0.870301,0 -0.87654,-0.91085 -0.711213,0 -1.122968,-0.53029 -0.411755,-0.53029 -0.411755,-1.67197 0,-1.08554 0.393039,-1.6439 0.393039,-0.56149 1.141684,-0.56149 0.745527,0 1.135446,0.56149 0.38992,0.55836 0.38992,1.6439 0,1.71252 -0.97324,2.09932 0,0.23396 0.07798,0.34625 0.0811,0.1123 0.34001,0.1123 0.152849,0 0.321294,-0.0562 z m -0.511575,-2.50172 q 0,-0.54901 -0.08734,-0.92333 -0.08734,-0.37433 -0.258906,-0.53965 -0.168445,-0.16533 -0.439829,-0.16533 -0.433591,0 -0.611394,0.42735 -0.174684,0.42736 -0.174684,1.20096 0,0.7736 0.174684,1.20095 0.177803,0.42735 0.611394,0.42735 0.439829,0 0.611394,-0.43047 0.174683,-0.43359 0.174683,-1.19783 z"
           inkscape:connector-curvature="0" />
        <path
           id="path1105"
           style="font-style:normal;font-variant:normal;font-weight:normal;font-stretch:normal;font-family:'Franklin Gothic Medium Cond';-inkscape-font-specification:'Franklin Gothic Medium Cond';stroke-width:0.15971106"
           d="m 32.794366,266.43536 h 0.651945 v 2.00262 q 0,0.418 0.06863,0.56149 0.06863,0.14037 0.302578,0.14037 0.2901,0 0.405516,-0.25267 0.115416,-0.25267 0.115416,-0.93581 v -1.516 h 0.648826 v 3.15055 H 34.39148 v -0.47415 q -0.252668,0.55213 -0.801674,0.55213 -0.280742,0 -0.461665,-0.11853 -0.177803,-0.11854 -0.255787,-0.3369 -0.07798,-0.21835 -0.07798,-0.758 z"
           inkscape:connector-curvature="0" />
        <path
           id="path1107"
           style="font-style:normal;font-variant:normal;font-weight:normal;font-stretch:normal;font-family:'Franklin Gothic Medium Cond';-inkscape-font-specification:'Franklin Gothic Medium Cond';stroke-width:0.15971106"
           d="m 38.050481,268.10733 h -1.781152 q 0,0.63947 0.171565,0.85471 0.174683,0.21211 0.436709,0.21211 0.43671,0 0.552127,-0.58956 l 0.592677,0.078 q -0.233951,1.00131 -1.166639,1.00131 -0.570842,0 -0.910852,-0.40863 -0.34001,-0.40864 -0.34001,-1.19784 0,-0.81103 0.343129,-1.25398 0.343129,-0.44295 0.917091,-0.44295 0.402397,0 0.6769,0.22148 0.274504,0.22147 0.386801,0.58332 0.112296,0.35872 0.121654,0.94204 z m -0.664422,-0.43983 q 0,-0.83287 -0.542768,-0.83287 -0.508456,0 -0.558365,0.83287 z"
           inkscape:connector-curvature="0" />
        <path
           id="path1109"
           style="font-style:normal;font-variant:normal;font-weight:normal;font-stretch:normal;font-family:'Franklin Gothic Medium Cond';-inkscape-font-specification:'Franklin Gothic Medium Cond';stroke-width:0.15971106"
           d="m 40.489819,267.17153 -0.508456,0.13725 q -0.140371,-0.47415 -0.53341,-0.47415 -0.180922,0 -0.293219,0.1123 -0.109177,0.1123 -0.109177,0.27762 0,0.18717 0.112296,0.27451 0.112297,0.0873 0.514694,0.21835 0.495978,0.16533 0.714333,0.37433 0.218355,0.20587 0.218355,0.57708 0,0.41799 -0.311936,0.70809 -0.311936,0.28698 -0.842226,0.28698 -1.001314,0 -1.135446,-0.91709 l 0.552126,-0.10294 q 0.106058,0.54277 0.602036,0.54277 0.252668,0 0.374323,-0.12477 0.124774,-0.12478 0.124774,-0.29634 0,-0.11854 -0.08422,-0.23396 -0.08422,-0.11853 -0.471022,-0.24331 -0.371204,-0.11853 -0.561485,-0.22147 -0.187161,-0.10294 -0.308816,-0.29634 -0.121655,-0.19652 -0.121655,-0.44295 0,-0.40239 0.29322,-0.68314 0.293219,-0.28386 0.758003,-0.28386 0.789198,0 1.016911,0.81104 z"
           inkscape:connector-curvature="0" />
        <path
           id="path1111"
           style="font-style:normal;font-variant:normal;font-weight:normal;font-stretch:normal;font-family:'Franklin Gothic Medium Cond';-inkscape-font-specification:'Franklin Gothic Medium Cond';stroke-width:0.15971106"
           d="m 41.285255,265.61497 0.586439,-0.0562 v 0.87654 h 0.602035 v 0.52405 h -0.602035 v 1.39123 q 0,0.36809 0.01872,0.48974 0.01872,0.11854 0.112297,0.19652 0.09358,0.0749 0.311935,0.0749 0.115416,0 0.262026,-0.0218 v 0.51781 q -0.262026,0.0562 -0.486619,0.0562 -0.364965,0 -0.558365,-0.14037 -0.1934,-0.14349 -0.246429,-0.3868 -0.05303,-0.24331 -0.05303,-0.74241 v -1.4349 H 40.82359 v -0.52405 h 0.427352 z"
           inkscape:connector-curvature="0" />
        <path
           id="path1113"
           style="font-style:normal;font-variant:normal;font-weight:normal;font-stretch:normal;font-family:'Franklin Gothic Medium Cond';-inkscape-font-specification:'Franklin Gothic Medium Cond';stroke-width:0.15971106"
           d="m 43.58734,266.01112 h -0.68002 v -0.68937 h 0.68002 z m -0.664423,0.42424 h 0.648826 v 3.15055 h -0.648826 z"
           inkscape:connector-curvature="0" />
        <path
           id="path1115"
           style="font-style:normal;font-variant:normal;font-weight:normal;font-stretch:normal;font-family:'Franklin Gothic Medium Cond';-inkscape-font-specification:'Franklin Gothic Medium Cond';stroke-width:0.15971106"
           d="m 46.669264,267.97944 q 0,1.68445 -1.247743,1.68445 -0.573961,0 -0.904613,-0.40552 -0.327533,-0.40863 -0.327533,-1.24774 0,-1.65014 1.247743,-1.65014 0.567723,0 0.898375,0.4024 0.333771,0.4024 0.333771,1.21655 z m -0.689378,0.0312 q 0,-0.66442 -0.149729,-0.91085 -0.14661,-0.24955 -0.399278,-0.24955 -0.549007,0 -0.549007,1.1604 0,0.59268 0.127894,0.87654 0.127894,0.28386 0.421113,0.28386 0.2901,0 0.417994,-0.28698 0.131013,-0.2901 0.131013,-0.87342 z"
           inkscape:connector-curvature="0" />
        <path
           id="path1117"
           style="font-style:normal;font-variant:normal;font-weight:normal;font-stretch:normal;font-family:'Franklin Gothic Medium Cond';-inkscape-font-specification:'Franklin Gothic Medium Cond';stroke-width:0.15971106"
           d="m 47.290015,266.43536 h 0.602036 v 0.48662 q 0.218355,-0.56149 0.779839,-0.56149 0.318174,0 0.511574,0.15285 0.19652,0.15285 0.246429,0.36808 0.05303,0.21212 0.05303,0.67379 v 2.0307 h -0.648826 v -1.99639 q 0,-0.41176 -0.07174,-0.55837 -0.07174,-0.14973 -0.305697,-0.14973 -0.24331,0 -0.380561,0.19029 -0.134133,0.18716 -0.134133,0.74864 v 1.76556 h -0.651945 z"
           inkscape:connector-curvature="0" />
      </g>
      <g
         id="text998-9"
         style="font-style:normal;font-weight:normal;font-size:6.38844204px;line-height:1.25;font-family:sans-serif;letter-spacing:0px;word-spacing:0px;display:inline;fill:#000000;fill-opacity:1;stroke:none;stroke-width:0.15971106"
         aria-label="Copyright">
        <path
           id="path1129"
           style="font-style:normal;font-variant:normal;font-weight:normal;font-stretch:normal;font-family:'Franklin Gothic Medium Cond';-inkscape-font-specification:'Franklin Gothic Medium Cond';stroke-width:0.15971106"
           d="m 31.387536,273.70274 0.648826,0.0905 q -0.199639,1.41931 -1.394352,1.41931 -0.77672,0 -1.157282,-0.5958 -0.380561,-0.5958 -0.380561,-1.59399 0,-1.07618 0.402397,-1.65014 0.402397,-0.57396 1.160401,-0.57396 1.172878,0 1.375636,1.45362 l -0.655065,0.0967 q -0.106058,-0.967 -0.717452,-0.967 -0.817271,0 -0.817271,1.68133 0,1.56592 0.817271,1.56592 0.327532,0 0.48662,-0.23708 0.162206,-0.24019 0.230832,-0.68937 z"
           inkscape:connector-curvature="0" />
        <path
           id="path1131"
           style="font-style:normal;font-variant:normal;font-weight:normal;font-stretch:normal;font-family:'Franklin Gothic Medium Cond';-inkscape-font-specification:'Franklin Gothic Medium Cond';stroke-width:0.15971106"
           d="m 34.915528,273.52805 q 0,1.68446 -1.247742,1.68446 -0.573962,0 -0.904614,-0.40552 -0.327532,-0.40864 -0.327532,-1.24774 0,-1.65014 1.247742,-1.65014 0.567723,0 0.898375,0.40239 0.333771,0.4024 0.333771,1.21655 z m -0.689378,0.0312 q 0,-0.66443 -0.149729,-0.91086 -0.146609,-0.24954 -0.399277,-0.24954 -0.549007,0 -0.549007,1.1604 0,0.59267 0.127894,0.87654 0.127893,0.28386 0.421113,0.28386 0.2901,0 0.417993,-0.28698 0.131013,-0.2901 0.131013,-0.87342 z"
           inkscape:connector-curvature="0" />
        <path
           id="path1133"
           style="font-style:normal;font-variant:normal;font-weight:normal;font-stretch:normal;font-family:'Franklin Gothic Medium Cond';-inkscape-font-specification:'Franklin Gothic Medium Cond';stroke-width:0.15971106"
           d="m 35.533161,271.98397 h 0.598916 v 0.51781 q 0.246429,-0.57084 0.779839,-0.57084 0.477262,0 0.770481,0.418 0.29322,0.41487 0.29322,1.18535 0,0.68938 -0.268265,1.17288 -0.265145,0.4835 -0.826629,0.4835 -0.449188,0 -0.701855,-0.38368 v 1.39435 h -0.645707 z m 0.645707,1.83418 q 0,0.30258 0.04367,0.47415 0.04679,0.16844 0.187161,0.2901 0.140371,0.11853 0.318174,0.11853 0.555246,0 0.555246,-1.16664 0,-1.12921 -0.542768,-1.12921 -0.240191,0 -0.402397,0.23084 -0.159087,0.23083 -0.159087,0.65818 z"
           inkscape:connector-curvature="0" />
        <path
           id="path1135"
           style="font-style:normal;font-variant:normal;font-weight:normal;font-stretch:normal;font-family:'Franklin Gothic Medium Cond';-inkscape-font-specification:'Franklin Gothic Medium Cond';stroke-width:0.15971106"
           d="m 38.162778,271.98397 h 0.651946 l 0.549006,2.16483 0.564604,-2.16483 h 0.586439 l -1.023149,3.35019 q -0.112297,0.36497 -0.205878,0.53965 -0.09358,0.17468 -0.265145,0.28074 -0.171565,0.10918 -0.442949,0.10918 -0.162206,0 -0.333771,-0.0437 v -0.51782 q 0.124775,0.0218 0.227713,0.0218 0.252668,0 0.358726,-0.12477 0.106058,-0.12166 0.227713,-0.57085 z"
           inkscape:connector-curvature="0" />
        <path
           id="path1137"
           style="font-style:normal;font-variant:normal;font-weight:normal;font-stretch:normal;font-family:'Franklin Gothic Medium Cond';-inkscape-font-specification:'Franklin Gothic Medium Cond';stroke-width:0.15971106"
           d="m 40.839186,271.98397 h 0.573962 v 0.70498 q 0.262026,-0.77049 0.786078,-0.77049 0.04991,0 0.118535,0.009 v 0.6769 q -0.0811,-0.009 -0.131013,-0.009 -0.695616,0 -0.695616,0.9358 v 1.60335 h -0.651946 z"
           inkscape:connector-curvature="0" />
        <path
           id="path1139"
           style="font-style:normal;font-variant:normal;font-weight:normal;font-stretch:normal;font-family:'Franklin Gothic Medium Cond';-inkscape-font-specification:'Franklin Gothic Medium Cond';stroke-width:0.15971106"
           d="m 43.250449,271.55974 h -0.68002 v -0.68938 h 0.68002 z m -0.664423,0.42423 h 0.648826 v 3.15055 h -0.648826 z"
           inkscape:connector-curvature="0" />
        <path
           id="path1141"
           style="font-style:normal;font-variant:normal;font-weight:normal;font-stretch:normal;font-family:'Franklin Gothic Medium Cond';-inkscape-font-specification:'Franklin Gothic Medium Cond';stroke-width:0.15971106"
           d="m 46.457147,271.48176 v 0.47726 q -0.09046,-0.0187 -0.149729,-0.0187 -0.286981,0 -0.34001,0.34625 0.237071,0.29946 0.237071,0.6769 0,0.42735 -0.296339,0.72057 -0.296339,0.29322 -0.798555,0.29322 -0.190281,0 -0.399278,-0.0562 -0.237071,0.0905 -0.237071,0.27451 0,0.15908 0.124774,0.20587 0.127894,0.0468 0.670662,0.0749 0.467903,0.0249 0.704975,0.0873 0.237071,0.0624 0.377442,0.25579 0.14349,0.19028 0.14349,0.50221 0,0.48038 -0.371203,0.72681 -0.371204,0.24955 -1.057462,0.24955 -0.661304,0 -0.967001,-0.21835 -0.302577,-0.21524 -0.302577,-0.57397 0,-0.45542 0.458545,-0.60827 -0.343129,-0.19028 -0.343129,-0.51469 0,-0.41176 0.464784,-0.63323 -0.405516,-0.26827 -0.405516,-0.80792 0,-0.46166 0.308816,-0.74552 0.308816,-0.28698 0.795436,-0.28698 0.318174,0 0.595797,0.13725 0.04991,-0.32753 0.187161,-0.45231 0.140371,-0.12789 0.405517,-0.12789 0.07798,0 0.1934,0.0156 z m -0.92333,1.47233 q 0,-0.61763 -0.427352,-0.61763 -0.464784,0 -0.464784,0.62387 0,0.60516 0.449188,0.60516 0.442948,0 0.442948,-0.6114 z m -0.876539,2.04942 q -0.271384,0.13413 -0.271384,0.4024 0,0.22459 0.174684,0.33065 0.174684,0.10606 0.5802,0.10606 0.748646,0 0.748646,-0.4336 0,-0.21211 -0.14349,-0.2901 -0.140372,-0.0811 -0.558365,-0.0936 -0.352488,-0.0125 -0.530291,-0.0218 z"
           inkscape:connector-curvature="0" />
        <path
           id="path1143"
           style="font-style:normal;font-variant:normal;font-weight:normal;font-stretch:normal;font-family:'Franklin Gothic Medium Cond';-inkscape-font-specification:'Franklin Gothic Medium Cond';stroke-width:0.15971106"
           d="m 46.837709,270.8766 h 0.651946 v 1.52537 q 0.221474,-0.49286 0.751764,-0.49286 0.271385,0 0.455427,0.12477 0.187161,0.12478 0.258906,0.33377 0.07487,0.20588 0.07487,0.78296 v 1.98391 h -0.648826 v -1.98391 q 0,-0.49286 -0.112297,-0.60515 -0.112297,-0.11542 -0.277623,-0.11542 -0.502216,0 -0.502216,0.90149 v 1.80299 h -0.651946 z"
           inkscape:connector-curvature="0" />
        <path
           id="path1145"
           style="font-style:normal;font-variant:normal;font-weight:normal;font-stretch:normal;font-family:'Franklin Gothic Medium Cond';-inkscape-font-specification:'Franklin Gothic Medium Cond';stroke-width:0.15971106"
           d="m 49.900916,271.16358 0.586439,-0.0562 v 0.87654 h 0.602036 v 0.52405 h -0.602036 v 1.39124 q 0,0.36808 0.01872,0.48974 0.01872,0.11853 0.112297,0.19651 0.09358,0.0749 0.311936,0.0749 0.115416,0 0.262026,-0.0218 v 0.51782 q -0.262026,0.0562 -0.48662,0.0562 -0.364964,0 -0.558365,-0.14038 -0.1934,-0.14349 -0.246429,-0.3868 -0.05303,-0.24331 -0.05303,-0.7424 v -1.43491 h -0.408635 v -0.52405 h 0.427351 z"
           inkscape:connector-curvature="0" />
      </g>
      <g
         id="text998-9-5"
         style="font-style:normal;font-weight:normal;font-size:6.38844204px;line-height:1.25;font-family:sans-serif;letter-spacing:0px;word-spacing:0px;display:inline;fill:#000000;fill-opacity:1;stroke:none;stroke-width:0.15971106"
         aria-label=".org">
        <path
           id="path1120"
           style="font-style:normal;font-variant:normal;font-weight:normal;font-stretch:normal;font-family:'Franklin Gothic Medium Cond';-inkscape-font-specification:'Franklin Gothic Medium Cond';stroke-width:0.15971106"
           d="m 29.104167,279.15669 h 0.711213 v 0.8048 h -0.711213 z"
           inkscape:connector-curvature="0" />
        <path
           id="path1122"
           style="font-style:normal;font-variant:normal;font-weight:normal;font-stretch:normal;font-family:'Franklin Gothic Medium Cond';-inkscape-font-specification:'Franklin Gothic Medium Cond';stroke-width:0.15971106"
           d="m 32.928498,278.35502 q 0,1.68445 -1.247743,1.68445 -0.573961,0 -0.904613,-0.40552 -0.327533,-0.40863 -0.327533,-1.24774 0,-1.65014 1.247743,-1.65014 0.567723,0 0.898375,0.4024 0.333771,0.4024 0.333771,1.21655 z m -0.689378,0.0312 q 0,-0.66442 -0.149729,-0.91085 -0.14661,-0.24955 -0.399278,-0.24955 -0.549006,0 -0.549006,1.1604 0,0.59268 0.127893,0.87654 0.127894,0.28386 0.421113,0.28386 0.2901,0 0.417994,-0.28698 0.131013,-0.2901 0.131013,-0.87342 z"
           inkscape:connector-curvature="0" />
        <path
           id="path1124"
           style="font-style:normal;font-variant:normal;font-weight:normal;font-stretch:normal;font-family:'Franklin Gothic Medium Cond';-inkscape-font-specification:'Franklin Gothic Medium Cond';stroke-width:0.15971106"
           d="m 33.54925,276.81094 h 0.573961 v 0.70497 q 0.262026,-0.77048 0.786078,-0.77048 0.04991,0 0.118536,0.009 v 0.6769 q -0.0811,-0.009 -0.131013,-0.009 -0.695617,0 -0.695617,0.93581 v 1.60335 H 33.54925 Z"
           inkscape:connector-curvature="0" />
        <path
           id="path1126"
           style="font-style:normal;font-variant:normal;font-weight:normal;font-stretch:normal;font-family:'Franklin Gothic Medium Cond';-inkscape-font-specification:'Franklin Gothic Medium Cond';stroke-width:0.15971106"
           d="m 37.838365,276.30872 v 0.47726 q -0.09046,-0.0187 -0.149729,-0.0187 -0.286981,0 -0.34001,0.34624 0.237071,0.29946 0.237071,0.6769 0,0.42736 -0.296339,0.72058 -0.296339,0.29322 -0.798555,0.29322 -0.190281,0 -0.399278,-0.0562 -0.237071,0.0905 -0.237071,0.2745 0,0.15909 0.124774,0.20588 0.127894,0.0468 0.670662,0.0749 0.467903,0.025 0.704974,0.0873 0.237072,0.0624 0.377443,0.25579 0.14349,0.19028 0.14349,0.50222 0,0.48038 -0.371203,0.72681 -0.371204,0.24955 -1.057462,0.24955 -0.661304,0 -0.967001,-0.21836 -0.302577,-0.21523 -0.302577,-0.57396 0,-0.45543 0.458545,-0.60827 -0.343129,-0.19029 -0.343129,-0.5147 0,-0.41175 0.464784,-0.63323 -0.405516,-0.26826 -0.405516,-0.80791 0,-0.46167 0.308816,-0.74553 0.308816,-0.28698 0.795436,-0.28698 0.318174,0 0.595797,0.13725 0.04991,-0.32753 0.187161,-0.4523 0.140371,-0.1279 0.405517,-0.1279 0.07798,0 0.1934,0.0156 z m -0.92333,1.47234 q 0,-0.61764 -0.427352,-0.61764 -0.464784,0 -0.464784,0.62388 0,0.60515 0.449188,0.60515 0.442948,0 0.442948,-0.61139 z m -0.876539,2.04941 q -0.271384,0.13414 -0.271384,0.4024 0,0.22459 0.174684,0.33065 0.174684,0.10606 0.5802,0.10606 0.748646,0 0.748646,-0.43359 0,-0.21212 -0.143491,-0.2901 -0.140371,-0.0811 -0.558364,-0.0936 -0.352488,-0.0125 -0.530291,-0.0218 z"
           inkscape:connector-curvature="0" />
      </g>
    </g>
  </g>
  <g
     style="display:inline;filter:url(#filter1038);opacity:1"
     transform="translate(0,-265.24999)"
     id="g3551"
     inkscape:groupmode="layer"
     inkscape:label="partners-blue">
    <g
       inkscape:export-ydpi="384"
       inkscape:export-xdpi="384"
       inkscape:export-filename="/home/iko/Downloads/layer1-6.png"
       inkscape:label="Layer 1"
       id="g3463"
       transform="matrix(0.08082493,0,0,0.08064262,53.76724,263.58691)"
       style="">
      <g
         id="g3461"
         transform="translate(-235.40616,-535.2894)"
         style="">
        <ellipse
           ry="93.944183"
           rx="92.934036"
           cy="444.25034"
           cx="360.62445"
           transform="matrix(0.94871777,0,0,0.94169297,13.692463,235.99434)"
           id="ellipse3455"
           style="fill:none;stroke:#09628e;stroke-width:21.15956879;stroke-linecap:round;stroke-linejoin:round;stroke-miterlimit:4;stroke-dasharray:none;stroke-dashoffset:0;stroke-opacity:1" />
        <g
           transform="translate(-4.0406102,208.09142)"
           id="g3459"
           style="font-style:normal;font-weight:bold;font-size:144px;line-height:125%;font-family:Sans;-inkscape-font-specification:'Sans Bold';letter-spacing:0px;word-spacing:0px;fill:#000000;fill-opacity:1;stroke:#000000;stroke-width:10;stroke-miterlimit:4;stroke-opacity:1">
          <path
             sodipodi:nodetypes="ccccccccccc"
             inkscape:connector-curvature="0"
             id="path3457"
             style="-inkscape-font-specification:'Sans Bold';fill:#09628e;fill-opacity:1;stroke:#09628e;stroke-opacity:1"
             d="m 330.2631,496.27323 v -94.74659 l 63.47927,-0.50508 0.50507,10.39741 -46.80594,0.25254 v 29.14172 l 43.0717,0.25254 v 10.39741 l -43.0717,-0.50507 -0.50508,45.31512 z" />
        </g>
      </g>
    </g>
    <g
       transform="matrix(1.0111107,0,0,1.0111107,-0.12383823,-2.9471129)"
       id="g3487"
       style=""
       inkscape:export-filename="/home/iko/Downloads/g3487.png"
       inkscape:export-xdpi="384"
       inkscape:export-ydpi="384">
      <path
         style="text-anchor:middle;fill:#0e93d5;stroke:#09628e;stroke-width:0.47011706;stroke-linejoin:round;stroke-opacity:1;fill-opacity:1"
         inkscape:connector-curvature="0"
         d="m 7.1294948,271.12447 m 0.7020414,1.82875 a 1.9588211,1.9588211 0 1 0 -1.4040827,0 l -1.3194619,3.43812 a 5.6414046,5.6414046 0 1 1 4.0430065,0 z"
         id="path3465"
         inkscape:export-filename="/home/rafael/workspace/logo-osi/3/png/logo396x412.png"
         inkscape:export-xdpi="48.18"
         inkscape:export-ydpi="48.18" />
      <text
         transform="scale(0.99041198,1.0096808)"
         xml:space="preserve"
         style="font-style:normal;font-weight:normal;font-size:0.76504332px;line-height:0%;font-family:sans-serif;-inkscape-font-specification:Sans;letter-spacing:0px;word-spacing:0px;display:inline;fill:#09628e;fill-opacity:1;stroke:none;stroke-width:0.06375361"
         x="-8.5143751e-07"
         y="276.02701"
         id="text3469"
         inkscape:export-xdpi="48.18"
         inkscape:export-ydpi="48.18"
         inkscape:export-filename="/home/rafael/workspace/logo-osi/3/png/logo396x412.png"><tspan
           sodipodi:role="line"
           x="-8.5143751e-07"
           y="276.02701"
           style="font-style:normal;font-variant:normal;font-weight:normal;font-stretch:normal;font-size:2.24127245px;line-height:1.25;font-family:OpenSymbol;-inkscape-font-specification:Sans;fill:#09628e;fill-opacity:1;stroke-width:0.06375361"
           id="tspan3467">open</tspan></text>
      <text
         transform="scale(0.99041198,1.0096808)"
         xml:space="preserve"
         style="font-style:normal;font-weight:normal;font-size:0.76504332px;line-height:0%;font-family:sans-serif;-inkscape-font-specification:Sans;letter-spacing:0px;word-spacing:0px;display:inline;fill:#09628e;fill-opacity:1;stroke:none;stroke-width:0.06375361"
         x="6.5554709"
         y="275.98697"
         id="text3473"
         inkscape:export-xdpi="48.18"
         inkscape:export-ydpi="48.18"
         inkscape:export-filename="/home/rafael/workspace/logo-osi/3/png/logo396x412.png"><tspan
           sodipodi:role="line"
           x="6.5554709"
           y="275.98697"
           style="font-style:normal;font-variant:normal;font-weight:normal;font-stretch:normal;font-size:2.24127245px;line-height:1.25;font-family:OpenSymbol;-inkscape-font-specification:Sans;fill:#09628e;fill-opacity:1;stroke-width:0.06375361"
           id="tspan3471">source</tspan></text>
      <text
         transform="scale(0.99041198,1.0096808)"
         xml:space="preserve"
         style="font-style:normal;font-weight:normal;font-size:0.76504332px;line-height:0%;font-family:sans-serif;-inkscape-font-specification:Sans;letter-spacing:0px;word-spacing:0px;display:inline;fill:#09628e;fill-opacity:1;stroke:none;stroke-width:0.06375361"
         x="2.1847355"
         y="278.22507"
         id="text3477"
         inkscape:export-xdpi="48.18"
         inkscape:export-ydpi="48.18"
         inkscape:export-filename="/home/rafael/workspace/logo-osi/3/png/logo396x412.png"><tspan
           sodipodi:role="line"
           x="2.1847355"
           y="278.22507"
           style="font-style:normal;font-variant:normal;font-weight:normal;font-stretch:normal;font-size:2.24127245px;line-height:1.25;font-family:OpenSymbol;-inkscape-font-specification:Sans;fill:#09628e;fill-opacity:1;stroke-width:0.06375361"
           id="tspan3475">initiative</tspan></text>
      <g
         inkscape:export-ydpi="48.18"
         inkscape:export-xdpi="48.18"
         inkscape:export-filename="/home/rafael/workspace/logo-osi/3/png/logo396x412.png"
         transform="matrix(0.06375361,0,0,0.06375361,24.076869,320.08335)"
         id="g3485"
         style="">
        <ellipse
           style="fill:none;stroke:#09628e;stroke-width:6.66513872;stroke-miterlimit:4;stroke-dasharray:none;stroke-opacity:1"
           id="ellipse3479"
           transform="matrix(0.33912491,0,0,0.33852655,-402.53969,-908.3754)"
           cx="645.71429"
           cy="646.64789"
           rx="23.571428"
           ry="23.571411" />
        <text
           xml:space="preserve"
           style="font-style:normal;font-variant:normal;font-weight:bold;font-stretch:normal;line-height:0%;font-family:OpenSymbol;-inkscape-font-specification:'OpenSymbol Bold';letter-spacing:0px;word-spacing:0px;fill:#09628e;fill-opacity:1;stroke:none"
           x="-188.29698"
           y="-685.33014"
           id="text3483"><tspan
             style="font-size:12.65519524px;line-height:1.25;fill:#09628e;fill-opacity:1"
             sodipodi:role="line"
             id="tspan3481"
             x="-188.29698"
             y="-685.33014">R</tspan></text>
      </g>
    </g>
    <g
       transform="matrix(0.30953139,0,0,0.30953139,14.741433,214.32149)"
       id="g3493"
       style="fill:#09628e;fill-opacity:1"
       inkscape:export-filename="/home/iko/Downloads/g3493.png"
       inkscape:export-xdpi="384"
       inkscape:export-ydpi="384">
      <path
         inkscape:connector-curvature="0"
         id="path3489"
         d="m -40.251477,249.78012 0.02192,-4.46616 0.330049,-0.027 c 0.385398,-0.0316 0.471141,0.0616 0.472988,0.51386 7.11e-4,0.17463 0.02162,0.3175 0.04645,0.3175 0.02484,0 0.178248,-0.13309 0.340915,-0.29576 0.488982,-0.48898 0.915515,-0.66107 1.742415,-0.70298 0.938387,-0.0476 1.436478,0.10902 2.022345,0.63576 0.787836,0.70834 1.149461,1.74191 1.074936,3.07231 -0.07038,1.25635 -0.485887,2.14867 -1.262506,2.71125 -1.040691,0.75387 -2.82563,0.62785 -3.565766,-0.25175 -0.119475,-0.14199 -0.257789,-0.25816 -0.307362,-0.25816 -0.06057,0 -0.09013,0.52763 -0.09013,1.60866 v 1.60867 h -0.424082 -0.424082 z m 3.941122,1.34126 c 0.862552,-0.44368 1.374433,-1.62318 1.256255,-2.89473 -0.169674,-1.82563 -1.300824,-2.7598 -2.811821,-2.32216 -0.9205,0.2666 -1.421932,1.01651 -1.529983,2.28813 -0.116354,1.36934 0.433594,2.56469 1.367676,2.97275 0.39439,0.17229 1.34471,0.14795 1.717873,-0.044 z m -9.168541,0.81 c -0.562584,-0.18599 -0.833326,-0.35967 -1.242441,-0.79705 -0.708737,-0.7577 -0.958442,-1.544 -0.893864,-2.81471 0.06622,-1.30308 0.529654,-2.22801 1.389862,-2.77394 0.532867,-0.33818 0.941614,-0.44234 1.738101,-0.44292 1.418111,-10e-4 2.39001,0.7197 2.863179,2.12322 0.155638,0.46165 0.178595,0.68965 0.152745,1.51698 -0.02754,0.88125 -0.05564,1.02711 -0.296142,1.5368 -0.532884,1.12935 -1.396417,1.69526 -2.653106,1.7387 -0.436766,0.0151 -0.852797,-0.0191 -1.058334,-0.0871 z m 1.905,-0.84768 c 0.462089,-0.23587 0.854354,-0.72928 1.101498,-1.38551 0.239885,-0.63695 0.2079,-1.87906 -0.06407,-2.48795 -0.492697,-1.10306 -1.514673,-1.62505 -2.574415,-1.31491 -0.623257,0.1824 -1.027096,0.54472 -1.359028,1.21933 -0.262523,0.53354 -0.278873,0.61955 -0.277046,1.45748 0.0021,0.96327 0.123876,1.37155 0.592232,1.9856 0.528463,0.69285 1.761573,0.94416 2.580826,0.52596 z m 12.319002,0.84759 c -1.156699,-0.3821 -1.799728,-1.23704 -2.008677,-2.67064 -0.246111,-1.68857 0.396765,-3.28118 1.563043,-3.87218 0.747032,-0.37855 1.978904,-0.39708 2.669582,-0.0402 0.411123,0.21246 0.969741,0.80047 1.202498,1.26578 0.365149,0.72997 0.545408,2.06488 0.291963,2.16213 -0.07366,0.0283 -1.197609,0.0514 -2.497667,0.0514 h -2.363742 l -4.24e-4,0.3175 c -10e-4,0.79556 0.620173,1.75084 1.309863,2.01423 0.266104,0.10163 0.547338,0.13348 0.968464,0.10968 0.785467,-0.0444 1.205693,-0.32478 1.600263,-1.06778 l 0.279841,-0.52696 h 0.386913 0.386913 l -0.05463,0.27314 c -0.151225,0.75612 -0.704552,1.48249 -1.381693,1.81378 -0.398829,0.19513 -0.610507,0.23901 -1.247105,0.25849 -0.471072,0.0144 -0.897338,-0.0197 -1.105408,-0.0884 z m 2.921,-4.10458 c 0,-0.37502 -0.234395,-0.96872 -0.518552,-1.31345 -0.732908,-0.88915 -2.085966,-0.92913 -2.883941,-0.0852 -0.285674,0.30211 -0.659587,1.09714 -0.66068,1.40475 l -8.27e-4,0.23283 h 2.032 2.032 z m 27.60338793,4.08252 c -1.26499133,-0.33993 -2.09114333,-1.32217 -2.31195743,-2.74875 -0.2445292,-1.57979 0.4757894,-3.09384 1.7765812,-3.73421 0.47871733,-0.23568 0.66970583,-0.27978 1.33797733,-0.30901 0.93864187,-0.0411 1.55542257,0.11184 2.08711137,0.51737 0.8049574,0.61396 1.2443529,1.50068 1.320006,2.66383 l 0.045431,0.6985 H 1.1914317 c -1.79119547,0 -2.3414579,0.0246 -2.368707,0.10583 -0.057746,0.17218 0.082658,0.66912 0.25382823,0.89838 0.2953301,0.39557 0.5875529,0.54939 1.11637,0.58764 0.59835458,0.0433 1.16716727,-0.18541 1.45035957,-0.58312 0.1703671,-0.23926 0.1973987,-0.24673 0.8922487,-0.24673 0.5357885,0 0.7280233,0.0299 0.7620043,0.11843 0.055527,0.1447 -0.2979666,0.86055 -0.605327,1.22583 -0.6634598,0.78847 -2.16880534,1.14296 -3.42271457,0.80601 z m 2.28394787,-4.27531 c 0,-0.51626 -0.4750367,-1.01962 -1.06706507,-1.13068 -0.7532574,-0.14131 -1.64226863,0.47301 -1.64226863,1.13485 0,0.1677 0.045504,0.17353 1.35466693,0.17353 1.31949377,0 1.35466677,-0.005 1.35466677,-0.1777 z m 19.7485592,4.28022 c -1.006269,-0.27097 -1.647383,-0.80013 -2.082751,-1.71904 -0.255461,-0.5392 -0.266734,-0.60814 -0.265115,-1.62148 0.0014,-0.90228 0.0302,-1.12951 0.195051,-1.54107 0.2705,-0.67532 0.834096,-1.27176 1.521496,-1.61017 0.546553,-0.26907 0.597363,-0.27776 1.624315,-0.27776 0.970982,0 1.100513,0.0189 1.54061,0.22525 0.672731,0.31537 1.204127,0.83562 1.530344,1.49826 0.269311,0.54705 0.275161,0.58327 0.275161,1.70371 0,1.07473 -0.0141,1.17347 -0.230461,1.61361 -0.32824,0.66773 -0.740237,1.11231 -1.308271,1.41174 -0.843865,0.44484 -1.88699,0.5629 -2.800379,0.31695 z m 1.615283,-1.424 c 0.630026,-0.26325 0.930003,-0.92174 0.919012,-2.01738 -0.01375,-1.37084 -0.698012,-2.12345 -1.784818,-1.9631 -0.489614,0.0722 -0.965717,0.49824 -1.145051,1.02456 -0.150765,0.44247 -0.175696,1.43497 -0.04763,1.89603 0.266978,0.96114 1.175386,1.42887 2.058482,1.05989 z m -9.494908,1.37967 c -0.501419,-0.0987 -0.902751,-0.36507 -1.064919,-0.70682 -0.113419,-0.23901 -0.136013,-0.63159 -0.136013,-2.36328 0,-2.38226 0.01152,-2.34275 -0.683382,-2.34275 h -0.417286 v -0.59267 -0.59267 l 0.402167,-0.001 c 0.627851,-0.002 0.650392,-0.0367 0.698501,-1.07486 l 0.04233,-0.91351 h 0.846667 0.846666 l 0.04233,0.9035 c 0.02328,0.49693 0.07399,0.93508 0.112683,0.97367 0.03869,0.0386 0.324444,0.0892 0.635001,0.11249 l 0.564649,0.0423 0.02576,0.49917 c 0.01417,0.27455 -0.0072,0.53217 -0.04757,0.5725 -0.04033,0.0403 -0.309118,0.0856 -0.597309,0.1006 -0.288189,0.015 -0.552533,0.0557 -0.587432,0.0905 -0.08209,0.0818 -0.135215,2.58703 -0.0666,3.14064 0.07632,0.61575 0.132713,0.67047 0.740864,0.71889 l 0.532284,0.0424 0.02474,0.65691 c 0.02409,0.63971 0.01896,0.6591 -0.196012,0.74083 -0.260485,0.099 -1.199924,0.0955 -1.718131,-0.007 z m -39.748508,-0.0466 c -0.03324,-0.0332 -0.06043,-1.52301 -0.06043,-3.31062 v -3.25019 l 0.402166,0.0258 0.402167,0.0258 0.02603,0.35983 c 0.01432,0.19791 0.05482,0.35983 0.08999,0.35983 0.03518,0 0.175861,-0.11912 0.312632,-0.2647 0.432327,-0.46021 0.991227,-0.66498 1.815007,-0.66498 1.194191,0 1.885965,0.44361 2.159597,1.38487 0.105061,0.3614 0.124871,0.89945 0.106561,2.89421 l -0.02249,2.45027 -0.357033,0.0259 c -0.31372,0.0228 -0.36241,0.002 -0.401363,-0.16933 -0.02438,-0.10738 -0.05422,-1.22394 -0.0663,-2.48124 -0.02046,-2.12919 -0.03409,-2.30923 -0.198669,-2.62466 -0.479801,-0.91961 -1.810712,-1.06316 -2.689023,-0.29004 -0.644988,0.56774 -0.681531,0.73241 -0.731343,3.2957 l -0.0436,2.24367 -0.341738,0.0251 c -0.187956,0.0138 -0.368931,-0.002 -0.402167,-0.0353 z m 6.772126,-10e-4 c -0.03257,-0.0326 -0.05922,-1.49932 -0.05922,-3.25946 0,-2.96545 0.01087,-3.20524 0.148166,-3.26838 0.08149,-0.0375 0.501036,-0.0552 0.932323,-0.0393 l 0.784154,0.0289 -0.02215,3.2748 -0.02216,3.2748 -0.850947,0.0239 c -0.468021,0.0132 -0.877596,-0.003 -0.910166,-0.0353 z m 3.028548,-0.0495 c -0.02303,-0.06 -0.03187,-1.53773 -0.01965,-3.28382 l 0.02222,-3.17469 h 0.846667 0.846667 l 0.02628,0.3175 c 0.01445,0.17462 0.04752,0.3175 0.07349,0.3175 0.02597,0 0.183655,-0.1198 0.350421,-0.26622 0.484274,-0.4252 0.948714,-0.58986 1.6638,-0.58986 0.345932,0 0.781184,0.0456 0.967226,0.10135 0.443881,0.13299 0.899745,0.51646 1.13341,0.95342 0.182857,0.34194 0.188043,0.42519 0.188043,3.01864 v 2.667 h -0.846667 -0.846667 l -0.0464,-2.20133 c -0.04939,-2.34306 -0.07525,-2.49072 -0.504152,-2.87887 -0.141767,-0.1283 -0.305899,-0.16913 -0.679793,-0.16913 -0.585551,0 -0.884201,0.17882 -1.14032,0.68279 -0.151896,0.29889 -0.173692,0.55118 -0.211666,2.44987 l -0.04233,2.11667 -0.869347,0.0241 c -0.649234,0.018 -0.879949,-0.003 -0.911218,-0.085 z m 8.9610625,-0.003 c -0.1344295,-0.2077 -2.2165854,-6.36266 -2.1751184,-6.42975 0.02325,-0.0376 0.457664,-0.0684 0.9653548,-0.0684 h 0.9230729 l 0.08767,0.3175 c 0.3260861,1.18094 1.1809469,3.7862 1.249902,3.80919 0.046063,0.0153 0.2002417,-0.3449 0.3426189,-0.80055 0.142378,-0.45566 0.4350132,-1.39044 0.650301,-2.0773 l 0.3914319,-1.24884 h 0.885969 c 0.709682,0 0.8859682,0.024 0.8859682,0.12046 0,0.12494 -2.065955,6.24833 -2.1587894,6.39854 -0.08023,0.12981 -1.9632746,0.11067 -2.0483807,-0.0208 z m 11.9710576,0.0522 c -0.032571,-0.0326 -0.05922,-1.52105 -0.05922,-3.30773 v -3.24852 l 0.8678335,0.0241 0.8678334,0.0241 0.026278,0.3175 c 0.014453,0.17462 0.054949,0.3175 0.089992,0.3175 0.035044,0 0.1705729,-0.11154 0.3011771,-0.24786 0.1306035,-0.13632 0.4308357,-0.33104 0.6671836,-0.43272 0.3654383,-0.1572 0.5444347,-0.17947 1.1965459,-0.14881 0.8807484,0.0414 1.3491262,0.23113 1.6797214,0.68044 0.427477,0.58098 0.44177,0.69263 0.44177,3.45095 v 2.58233 l -0.839671,0.0244 c -0.6147072,0.0179 -0.8582094,-0.005 -0.9088697,-0.0847 -0.038061,-0.06 -0.069785,-1.05327 -0.070498,-2.20729 -0.00138,-2.23177 -0.037065,-2.46958 -0.4220617,-2.81245 -0.2538179,-0.22605 -1.1242473,-0.23396 -1.455774,-0.0132 -0.4829438,0.32153 -0.5324899,0.57271 -0.5787941,2.93424 l -0.042333,2.159 -0.8509467,0.0239 c -0.4680213,0.0132 -0.8775963,-0.003 -0.9101668,-0.0353 z m 11.6645499,-0.0495 c -0.02303,-0.06 -0.03187,-1.53773 -0.01965,-3.28381 l 0.02222,-3.1747 0.762,-0.0498 c 0.4191,-0.0274 0.829127,-0.0163 0.91117,0.0247 0.139137,0.0694 0.147679,0.29198 0.127,3.30942 l -0.02217,3.23498 -0.869347,0.0241 c -0.649234,0.018 -0.879949,-0.003 -0.911218,-0.085 z m 10.687539,0.0496 c -0.03262,-0.0326 -0.05931,-1.5198 -0.05931,-3.30486 v -3.24556 h 0.835846 0.835845 l 0.05386,0.33684 0.05386,0.33683 0.430403,-0.32576 c 0.529989,-0.40114 0.954331,-0.53421 1.677556,-0.52608 1.062148,0.0119 1.635098,0.32096 2.009788,1.08402 l 0.241173,0.49115 v 2.58234 2.58233 h -0.889 -0.889 l -0.04233,-2.24367 c -0.03647,-1.93276 -0.06306,-2.28159 -0.191934,-2.5174 -0.208304,-0.38115 -0.586413,-0.55871 -1.087275,-0.51058 -0.535841,0.0515 -0.816484,0.24971 -1.026848,0.72527 -0.153845,0.34779 -0.179381,0.62816 -0.224913,2.46936 l -0.05136,2.07702 -0.808528,0.024 c -0.44469,0.0132 -0.835215,-0.003 -0.867833,-0.0353 z m -46.336278,-7.68026 c -0.02401,-0.0626 -0.03234,-0.39594 -0.01851,-0.74084 l 0.02514,-0.62707 h 0.889 0.889 l 0.02446,0.74083 0.02446,0.74083 h -0.894953 c -0.671105,0 -0.905873,-0.0284 -0.938607,-0.11375 z m 35.645814,0.003 c -0.02464,-0.0642 -0.03348,-0.39892 -0.01965,-0.74382 l 0.02514,-0.62707 h 0.889 0.889 v 0.71966 0.71967 l -0.869347,0.0241 c -0.677484,0.0188 -0.879234,-0.002 -0.914143,-0.0926 z"
         style="fill:#09628e;fill-opacity:1;stroke-width:0.08466668"
         sodipodi:nodetypes="ccccsccccccsscccccscscccccccccccccccccscsccccsccccscccccccccccccsccccccscscccscscccsscccscssscccsssccsccccccccccccssccccccccccccccscccccccccsccccscscscccccsscccccscccccccccsccccscsccscccccsccccccccsccccccssccccsccccsccccscccsccscccccscccscccccsccccccccccccccccsccscccccccccscccccccccccc" />
      <path
         inkscape:connector-curvature="0"
         id="path3491"
         d="m 38.041676,251.67731 c -0.278384,-0.29632 -0.236051,-0.73778 0.236008,-2.46126 0.72103,-2.63248 0.781796,-2.93523 0.634281,-3.16036 -0.154525,-0.23584 -0.368462,-0.24489 -0.782582,-0.0331 -0.765464,0.39146 -1.861109,1.67011 -2.471727,2.88457 -0.317611,0.63169 -0.932739,2.33541 -0.932739,2.58341 0,0.18741 -0.281773,0.29804 -0.759089,0.29804 -0.292574,0 -0.446262,-0.0383 -0.477213,-0.11898 -0.02511,-0.0654 0.299934,-1.29811 0.722323,-2.73928 0.422389,-1.44116 0.767979,-2.69741 0.767979,-2.79165 0,-0.22887 -0.195831,-0.37862 -0.575937,-0.44041 -0.359939,-0.0585 -0.379002,-0.193 -0.03829,-0.27016 0.718663,-0.16276 1.976884,-0.34842 2.026306,-0.29899 0.03163,0.0316 -0.08627,0.56708 -0.262004,1.18989 -0.393917,1.39604 -0.381429,1.60756 0.05945,1.00696 0.497012,-0.67706 1.609119,-1.67484 2.19066,-1.96544 0.378521,-0.18914 0.640345,-0.2606 0.954831,-0.2606 0.536276,0 0.784834,0.16263 0.859872,0.56261 0.06918,0.36878 -0.0095,0.74052 -0.651195,3.07748 -0.274828,1.00086 -0.499694,1.9044 -0.499694,2.00785 0,0.10345 0.0786,0.23016 0.174651,0.28157 0.151331,0.081 0.222528,0.0447 0.533247,-0.27219 0.197231,-0.20111 0.439936,-0.47996 0.539342,-0.61966 0.141851,-0.19936 0.203073,-0.23197 0.284591,-0.15158 0.122994,0.12128 -0.15113,0.57841 -0.711224,1.18605 -0.63655,0.69058 -1.43874,0.91304 -1.821849,0.50524 z m 4.514181,0.0432 c -1.666095,-0.78231 -1.473528,-3.49231 0.380611,-5.35635 0.864158,-0.86878 1.522129,-1.19646 2.506125,-1.24811 0.793547,-0.0417 1.128038,0.0515 1.392532,0.38773 0.365352,0.46446 0.114053,1.46098 -0.497309,1.97205 -0.491185,0.41061 -1.594511,0.90281 -2.468896,1.10139 -0.442386,0.10046 -0.861486,0.21058 -0.931336,0.2447 -0.17055,0.0833 -0.290531,0.73456 -0.220884,1.19898 0.11816,0.78798 0.597762,1.21002 1.366943,1.20289 0.510921,-0.005 1.019064,-0.21874 1.645666,-0.6931 0.254863,-0.19294 0.512038,-0.35079 0.5715,-0.35079 0.441145,0 -0.475599,0.87208 -1.39994,1.33173 -0.529243,0.26318 -0.719605,0.31222 -1.312333,0.33804 -0.547801,0.0239 -0.764506,-0.003 -1.032679,-0.12916 z m 1.06486,-3.45506 c 1.150589,-0.34137 1.925508,-0.97279 2.1526,-1.75396 0.149913,-0.51568 0.103862,-0.86503 -0.130572,-0.99049 -0.664871,-0.35583 -1.726488,0.48292 -2.410036,1.90409 -0.308941,0.6423 -0.371772,0.97681 -0.183492,0.97681 0.0614,0 0.318577,-0.0614 0.5715,-0.13645 z m 4.483685,3.4406 c -0.339344,-0.33935 -0.319606,-0.51385 0.364078,-3.21949 0.358894,-1.42028 0.651906,-2.62796 0.651152,-2.68374 -7.93e-4,-0.0622 -0.170838,-0.11131 -0.439224,-0.127 -0.575276,-0.0336 -0.607729,-0.1857 -0.07722,-0.36191 0.530217,-0.17611 1.144034,-0.62581 1.531062,-1.12169 0.162983,-0.20883 0.360307,-0.4615 0.438488,-0.5615 0.265872,-0.34005 0.332148,-0.0688 0.152376,0.62349 -0.265464,1.02235 -0.407476,0.93035 1.43614,0.93035 0.882018,0 1.621798,0.0293 1.643958,0.0652 0.0605,0.0979 0.21526,1.93902 0.27416,3.26207 0.0363,0.81483 0.0811,1.15856 0.14816,1.13621 0.0529,-0.0176 0.71231,-1.03865 1.46538,-2.26893 1.47881,-2.4159 1.65745,-2.61205 1.7523,-1.92391 0.0276,0.20041 0.15102,1.31687 0.27419,2.48104 0.12318,1.16417 0.2535,2.14875 0.28959,2.18796 0.12762,0.13861 1.62726,-1.74962 2.11229,-2.65964 0.32244,-0.60493 0.32307,-0.81969 0.004,-1.22165 -0.44459,-0.55945 -0.27024,-1.143 0.34152,-1.143 0.46453,0 0.63323,0.27161 0.62895,1.01262 -0.004,0.68348 -0.29156,1.29966 -1.15354,2.47133 -0.78543,1.06763 -2.53972,3.18575 -2.68858,3.2462 -0.066,0.0268 -0.15621,0.0125 -0.20047,-0.0317 -0.0587,-0.0587 -0.55331,-3.92734 -0.56684,-4.43358 -0.008,-0.28518 -0.41456,0.25314 -1.68138,2.2243 -0.80741,1.25631 -1.52106,2.2842 -1.58589,2.2842 -0.17184,0 -0.18478,-0.13142 -0.29073,-2.9527 -0.0531,-1.41444 -0.12953,-2.65837 -0.1698,-2.76429 -0.1461,-0.38426 -0.38796,-0.46368 -1.412105,-0.46368 -0.829048,0 -0.962345,0.0196 -1.033203,0.15202 -0.130709,0.24422 -1.194604,4.53595 -1.194604,4.81899 0,0.3041 0.179612,0.48268 0.411461,0.4091 0.09108,-0.0289 0.322284,-0.22256 0.513808,-0.43033 0.365339,-0.39635 0.514064,-0.46708 0.514064,-0.24449 0,0.20464 -0.908457,1.11053 -1.307288,1.30361 -0.457919,0.22167 -0.92693,0.22355 -1.145897,0.005 z m 14.39064,0.0929 c -1.24907,-0.40832 -1.82376,-1.5702 -1.48744,-3.00732 0.20287,-0.86692 0.59148,-1.52482 1.36062,-2.30348 0.9341,-0.94567 1.68749,-1.32163 2.75026,-1.37244 1.23098,-0.0589 1.96767,0.30412 2.40714,1.18602 0.40667,0.8161 0.23402,2.00097 -0.45901,3.15001 -0.44234,0.73341 -1.4553,1.6596 -2.23831,2.04659 -0.58402,0.28864 -0.73352,0.32599 -1.38779,0.34674 -0.4033,0.0128 -0.82875,-0.008 -0.94547,-0.0461 z m 1.78262,-0.47815 c 0.79842,-0.41288 1.6961,-1.86854 2.03499,-3.29989 0.39456,-1.66654 -0.0136,-2.58251 -1.15006,-2.58123 -1.12249,10e-4 -2.22168,1.29861 -2.75612,3.25296 -0.36366,1.32983 -0.19798,2.37511 0.42778,2.69896 0.35371,0.18305 1.01527,0.1506 1.44341,-0.0708 z m 12.99456,0.36194 c -0.13303,-0.11582 -0.47628,-0.76899 -0.87555,-1.66611 -0.3612,-0.81158 -0.69778,-1.48929 -0.74795,-1.50601 -0.0502,-0.0167 -0.27813,0.11734 -0.50657,0.29791 -0.41225,0.32587 -0.41778,0.33679 -0.74,1.46368 -0.41853,1.46369 -0.45244,1.51636 -0.97615,1.51636 -0.22896,0 -0.44706,-0.0469 -0.4924,-0.10583 -0.0553,-0.0719 0.25288,-1.30093 0.96059,-3.83117 1.39523,-4.98827 1.48717,-5.35673 1.38452,-5.54854 -0.0487,-0.091 -0.23444,-0.18642 -0.4433,-0.22772 -0.19773,-0.0391 -0.35949,-0.10608 -0.35949,-0.14884 0,-0.0428 0.3048,-0.12206 0.67733,-0.17621 0.37254,-0.0542 0.82974,-0.14158 1.016,-0.19427 0.47597,-0.13465 0.63543,-0.12168 0.63246,0.0514 -10e-4,0.0815 -0.41829,1.59596 -0.92641,3.3655 -0.50814,1.76953 -0.8951,3.24642 -0.85993,3.28197 0.0703,0.0711 2.11371,-1.45831 2.703689,-2.02361 0.42585,-0.40803 0.44019,-0.62371 0.0499,-0.75036 -0.563189,-0.18277 -0.27744,-0.25417 1.10945,-0.27722 1.15473,-0.0192 1.39717,-0.003 1.39717,0.0958 0,0.0714 -0.16068,0.15902 -0.40216,0.21919 -0.22119,0.0551 -0.53552,0.17723 -0.6985,0.27137 -0.57645,0.33299 -2.455339,1.79598 -2.455339,1.91185 0,0.12 0.815239,2.0771 1.120409,2.68968 0.20567,0.41288 0.47692,0.71967 0.63631,0.71967 0.0652,0 0.34523,-0.21624 0.62231,-0.48053 0.37296,-0.35574 0.5285,-0.45581 0.59896,-0.38535 0.12246,0.12247 -0.0656,0.4169 -0.62114,0.97243 -0.66466,0.66466 -1.36694,0.84564 -1.804219,0.46495 z m -8.98714,-0.0172 c -0.0259,-0.0676 0.24463,-1.18206 0.60128,-2.4765 0.76833,-2.78852 0.81504,-3.06405 0.56243,-3.31666 -0.10344,-0.10345 -0.28779,-0.17988 -0.43387,-0.17988 -0.16933,0 -0.254,-0.0423 -0.254,-0.127 0,-0.0699 0.0333,-0.127 0.0741,-0.127 0.0407,0 0.53952,-0.079 1.10843,-0.17568 0.5689,-0.0966 1.0571,-0.15295 1.08488,-0.12518 0.0514,0.0514 -0.10248,0.7307 -0.39894,1.76136 -0.0904,0.31433 -0.13053,0.5715 -0.0892,0.5715 0.0414,0 0.25159,-0.27266 0.46718,-0.60592 0.80055,-1.23752 1.37564,-1.76474 1.92497,-1.76474 0.2198,0 0.33546,0.0476 0.39761,0.16376 0.12733,0.23791 0.10738,0.73783 -0.0409,1.02455 -0.20633,0.399 -0.57667,0.42088 -1.07487,0.0635 -0.12219,-0.0876 -0.18708,-0.0643 -0.41106,0.14755 -0.71377,0.67527 -1.50639,2.17366 -2.08134,3.93463 -0.22046,0.67521 -0.44111,1.25566 -0.49034,1.28987 -0.16935,0.11768 -0.89601,0.073 -0.94635,-0.0582 z m 10.472529,-7.476 c -0.59858,-0.30522 -0.84319,-1.04295 -0.53981,-1.62802 0.62802,-1.21113 2.50545,-0.68458 2.36805,0.66416 -0.065,0.63856 -0.5936,1.11189 -1.2416,1.11189 -0.16298,0 -0.42697,-0.0666 -0.58664,-0.14803 z m 1.27394,-0.34974 c 0.27781,-0.27781 0.3287,-0.38394 0.3287,-0.68544 0,-0.84898 -0.82741,-1.37354 -1.52063,-0.96405 -0.91734,0.5419 -0.53051,1.9686 0.53576,1.97594 0.26903,0.002 0.38611,-0.0564 0.65617,-0.32645 z m -0.46964,-0.29092 c -0.29461,-0.38625 -0.47166,-0.40526 -0.47166,-0.0506 0,0.46339 -0.20934,0.23173 -0.23783,-0.26319 -0.0429,-0.74532 0.009,-0.84454 0.44507,-0.84454 0.54696,0 0.84843,0.39848 0.51243,0.67734 -0.14988,0.12438 -0.16526,0.3512 -0.0328,0.48366 0.0518,0.0518 0.0781,0.14254 0.0584,0.20164 -0.0214,0.0643 -0.13122,-0.0176 -0.27357,-0.20426 z m 0.0787,-0.77738 c 0,-0.1317 -0.0565,-0.16933 -0.254,-0.16933 -0.20121,0 -0.25979,0.0408 -0.28182,0.19636 -0.0249,0.17586 0.002,0.19354 0.254,0.16933 0.21636,-0.0207 0.28182,-0.0663 0.28182,-0.19636 z"
         style="display:inline;fill:#09628e;fill-opacity:1;stroke-width:0.08466668"
         sodipodi:nodetypes="cccccssccsccccccsccsccccccccccccccccsscccccccscccccccccscccccccccsccccccsccscsccscccccccccccccsccccscscccsccscsccccccccsccscsccccccccssscccscscccccccccccsccsccccscscscccssccs" />
    </g>
    <g
       id="g3549"
       style="fill:#09628e;fill-opacity:1"
       inkscape:export-filename="/home/iko/Downloads/g3549.png"
       inkscape:export-xdpi="384"
       inkscape:export-ydpi="384">
      <path
         inkscape:connector-curvature="0"
         id="path3495"
         style="display:inline;fill:#09628e;fill-opacity:1;fill-rule:nonzero;stroke:none;stroke-width:0.35277778"
         d="m 24.94525,265.8844 c -0.85111,-0.41789 -1.87465,-0.63441 -3.0713,-0.63441 -1.15359,0 -2.19212,0.21652 -3.11489,0.64888 -0.92277,0.4613 -1.62953,1.08194 -2.11976,1.87483 -0.50506,0.79305 -0.7643,1.71651 -0.7643,2.76796 0,1.3565 0.50505,2.59691 1.52859,3.69348 0.28818,0.31695 0.72106,0.60427 1.29794,0.89297 0,0 0.35984,-0.50436 0.35984,-0.50436 -0.2446,-0.15916 -0.43184,-0.2887 -0.5333,-0.40376 -0.89383,-0.83648 -1.32602,-2.06258 -1.32602,-3.67833 0,-1.67208 0.51901,-2.94108 1.55701,-3.82061 0.822,-0.70694 1.81712,-1.05248 3.01377,-1.05248 0.88005,0 1.67225,0.17243 2.39366,0.51917 0.70796,0.36002 1.24023,0.8649 1.60059,1.51378 0.46147,0.80718 0.67937,1.71635 0.67937,2.71077 0,1.05265 -0.2179,1.96147 -0.63597,2.72628 -0.41857,0.76447 -0.98081,1.32602 -1.6731,1.68603 -0.61978,0.30351 -1.29743,0.5774 -2.00419,0.79409 0,0 -0.27406,0.072 -0.27406,0.072 0,0 -0.3023,0.14366 -0.3023,0.14366 -0.33177,0.17363 -0.54829,0.41892 -0.69212,0.70727 -0.13023,0.28767 -0.14435,0.54812 -0.0145,0.80823 0.12953,0.26044 0.35984,0.43166 0.69212,0.48885 0.36035,0.0727 0.70624,0.0152 1.06711,-0.14331 0.36002,-0.17364 0.63424,-0.41824 0.79306,-0.7221 0.17261,-0.31625 0.18725,-0.60427 0.0574,-0.86471 -0.0286,-0.11542 -0.11559,-0.20085 -0.23065,-0.28801 0.66335,-0.23048 1.22507,-0.43271 1.65812,-0.6339 0.89383,-0.43305 1.58802,-1.06729 2.09204,-1.86139 0.51969,-0.83526 0.76429,-1.77405 0.76429,-2.81188 0,-1.03767 -0.23082,-1.9613 -0.73536,-2.76848 -0.50419,-0.83647 -1.19786,-1.44177 -2.06309,-1.86053 z" />
      <path
         inkscape:connector-curvature="0"
         id="path3497"
         style="display:inline;fill:#09628e;fill-opacity:1;fill-rule:nonzero;stroke:none;stroke-width:0.35277778"
         d="m 23.44508,268.79792 c 0.10181,0.24478 0.15882,0.37414 0.20292,0.41772 0.10094,0.1006 0.1726,0.15882 0.2446,0.18759 0.0724,0.058 0.15865,0.0725 0.26097,0.0725 0.15778,0 0.30075,-0.0579 0.43132,-0.1738 0.11524,-0.11524 0.17415,-0.28835 0.17415,-0.50402 0,-0.40411 -0.26062,-0.80822 -0.80891,-1.19734 -0.53278,-0.40394 -1.21112,-0.60513 -2.01831,-0.60513 -0.70676,0 -1.3267,0.1583 -1.87464,0.46112 -0.54829,0.28836 -0.98099,0.70625 -1.28347,1.25436 -0.31747,0.53313 -0.46182,1.15359 -0.46182,1.84589 0,1.02336 0.31764,1.86121 0.99494,2.55367 0.66336,0.69161 1.4714,1.02302 2.43741,1.02302 1.22525,0 2.29392,-0.59152 3.17241,-1.75975 0,0 -0.44751,-0.36053 -0.44751,-0.36053 -0.43098,0.44752 -0.73501,0.73639 -0.894,0.85163 -0.27406,0.18603 -0.53313,0.31643 -0.79272,0.40359 -0.27441,0.10128 -0.54795,0.12954 -0.8363,0.12954 -0.59169,0 -1.11001,-0.2167 -1.5434,-0.6923 -0.49007,-0.54828 -0.75,-1.29776 -0.75,-2.22105 0,-0.59187 0.10146,-1.11018 0.31747,-1.54271 0.20188,-0.43323 0.46198,-0.76482 0.80804,-0.98048 0.34555,-0.21652 0.70642,-0.33159 1.10967,-0.33159 0.27423,0 0.50505,0.0426 0.72157,0.15848 0.2167,0.12953 0.40325,0.27354 0.54794,0.44682 0.0581,0.10077 0.15814,0.28888 0.28767,0.56276 z" />
      <path
         inkscape:connector-curvature="0"
         id="path3499"
         style="display:inline;fill:#09628e;fill-opacity:1;fill-rule:nonzero;stroke:none;stroke-width:0.35277778"
         d="m 21.7153,278.63315 c -0.36087,0.1726 -0.63459,0.4172 -0.79289,0.71968 -0.17346,0.31867 -0.20205,0.59291 -0.0722,0.86679 0.12953,0.25804 0.35984,0.4327 0.72071,0.50367 0.33176,0.0593 0.67765,0.0141 1.05282,-0.14263 0.36036,-0.1726 0.61994,-0.41857 0.79358,-0.72071 0.17243,-0.31936 0.18655,-0.60702 0.0715,-0.86679 -0.12954,-0.27285 -0.36036,-0.43166 -0.69213,-0.51986 -0.36052,-0.0579 -0.72088,0 -1.08141,0.15985 z" />
      <g
         aria-label="Question"
         style="font-style:normal;font-weight:normal;font-size:6.38844204px;line-height:1.25;font-family:sans-serif;letter-spacing:0px;word-spacing:0px;fill:#09628e;fill-opacity:1;stroke:none;stroke-width:0.15971106"
         id="g3517">
        <path
           inkscape:connector-curvature="0"
           d="m 31.930304,269.95711 v 0.53653 q -0.19652,0.0749 -0.414874,0.0749 -0.870301,0 -0.87654,-0.91085 -0.711213,0 -1.122968,-0.53029 -0.411755,-0.53029 -0.411755,-1.67197 0,-1.08554 0.393039,-1.6439 0.393039,-0.56149 1.141684,-0.56149 0.745527,0 1.135446,0.56149 0.38992,0.55836 0.38992,1.6439 0,1.71252 -0.97324,2.09932 0,0.23396 0.07798,0.34625 0.0811,0.1123 0.34001,0.1123 0.152849,0 0.321294,-0.0562 z m -0.511575,-2.50172 q 0,-0.54901 -0.08734,-0.92333 -0.08734,-0.37433 -0.258906,-0.53965 -0.168445,-0.16533 -0.439829,-0.16533 -0.433591,0 -0.611394,0.42735 -0.174684,0.42736 -0.174684,1.20096 0,0.7736 0.174684,1.20095 0.177803,0.42735 0.611394,0.42735 0.439829,0 0.611394,-0.43047 0.174683,-0.43359 0.174683,-1.19783 z"
           style="font-style:normal;font-variant:normal;font-weight:normal;font-stretch:normal;font-family:'Franklin Gothic Medium Cond';-inkscape-font-specification:'Franklin Gothic Medium Cond';stroke-width:0.15971106;fill:#09628e;fill-opacity:1"
           id="path3501" />
        <path
           inkscape:connector-curvature="0"
           d="m 32.794366,266.43536 h 0.651945 v 2.00262 q 0,0.418 0.06863,0.56149 0.06863,0.14037 0.302578,0.14037 0.2901,0 0.405516,-0.25267 0.115416,-0.25267 0.115416,-0.93581 v -1.516 h 0.648826 v 3.15055 H 34.39148 v -0.47415 q -0.252668,0.55213 -0.801674,0.55213 -0.280742,0 -0.461665,-0.11853 -0.177803,-0.11854 -0.255787,-0.3369 -0.07798,-0.21835 -0.07798,-0.758 z"
           style="font-style:normal;font-variant:normal;font-weight:normal;font-stretch:normal;font-family:'Franklin Gothic Medium Cond';-inkscape-font-specification:'Franklin Gothic Medium Cond';stroke-width:0.15971106;fill:#09628e;fill-opacity:1"
           id="path3503" />
        <path
           inkscape:connector-curvature="0"
           d="m 38.050481,268.10733 h -1.781152 q 0,0.63947 0.171565,0.85471 0.174683,0.21211 0.436709,0.21211 0.43671,0 0.552127,-0.58956 l 0.592677,0.078 q -0.233951,1.00131 -1.166639,1.00131 -0.570842,0 -0.910852,-0.40863 -0.34001,-0.40864 -0.34001,-1.19784 0,-0.81103 0.343129,-1.25398 0.343129,-0.44295 0.917091,-0.44295 0.402397,0 0.6769,0.22148 0.274504,0.22147 0.386801,0.58332 0.112296,0.35872 0.121654,0.94204 z m -0.664422,-0.43983 q 0,-0.83287 -0.542768,-0.83287 -0.508456,0 -0.558365,0.83287 z"
           style="font-style:normal;font-variant:normal;font-weight:normal;font-stretch:normal;font-family:'Franklin Gothic Medium Cond';-inkscape-font-specification:'Franklin Gothic Medium Cond';stroke-width:0.15971106;fill:#09628e;fill-opacity:1"
           id="path3505" />
        <path
           inkscape:connector-curvature="0"
           d="m 40.489819,267.17153 -0.508456,0.13725 q -0.140371,-0.47415 -0.53341,-0.47415 -0.180922,0 -0.293219,0.1123 -0.109177,0.1123 -0.109177,0.27762 0,0.18717 0.112296,0.27451 0.112297,0.0873 0.514694,0.21835 0.495978,0.16533 0.714333,0.37433 0.218355,0.20587 0.218355,0.57708 0,0.41799 -0.311936,0.70809 -0.311936,0.28698 -0.842226,0.28698 -1.001314,0 -1.135446,-0.91709 l 0.552126,-0.10294 q 0.106058,0.54277 0.602036,0.54277 0.252668,0 0.374323,-0.12477 0.124774,-0.12478 0.124774,-0.29634 0,-0.11854 -0.08422,-0.23396 -0.08422,-0.11853 -0.471022,-0.24331 -0.371204,-0.11853 -0.561485,-0.22147 -0.187161,-0.10294 -0.308816,-0.29634 -0.121655,-0.19652 -0.121655,-0.44295 0,-0.40239 0.29322,-0.68314 0.293219,-0.28386 0.758003,-0.28386 0.789198,0 1.016911,0.81104 z"
           style="font-style:normal;font-variant:normal;font-weight:normal;font-stretch:normal;font-family:'Franklin Gothic Medium Cond';-inkscape-font-specification:'Franklin Gothic Medium Cond';stroke-width:0.15971106;fill:#09628e;fill-opacity:1"
           id="path3507" />
        <path
           inkscape:connector-curvature="0"
           d="m 41.285255,265.61497 0.586439,-0.0562 v 0.87654 h 0.602035 v 0.52405 h -0.602035 v 1.39123 q 0,0.36809 0.01872,0.48974 0.01872,0.11854 0.112297,0.19652 0.09358,0.0749 0.311935,0.0749 0.115416,0 0.262026,-0.0218 v 0.51781 q -0.262026,0.0562 -0.486619,0.0562 -0.364965,0 -0.558365,-0.14037 -0.1934,-0.14349 -0.246429,-0.3868 -0.05303,-0.24331 -0.05303,-0.74241 v -1.4349 H 40.82359 v -0.52405 h 0.427352 z"
           style="font-style:normal;font-variant:normal;font-weight:normal;font-stretch:normal;font-family:'Franklin Gothic Medium Cond';-inkscape-font-specification:'Franklin Gothic Medium Cond';stroke-width:0.15971106;fill:#09628e;fill-opacity:1"
           id="path3509" />
        <path
           inkscape:connector-curvature="0"
           d="m 43.58734,266.01112 h -0.68002 v -0.68937 h 0.68002 z m -0.664423,0.42424 h 0.648826 v 3.15055 h -0.648826 z"
           style="font-style:normal;font-variant:normal;font-weight:normal;font-stretch:normal;font-family:'Franklin Gothic Medium Cond';-inkscape-font-specification:'Franklin Gothic Medium Cond';stroke-width:0.15971106;fill:#09628e;fill-opacity:1"
           id="path3511" />
        <path
           inkscape:connector-curvature="0"
           d="m 46.669264,267.97944 q 0,1.68445 -1.247743,1.68445 -0.573961,0 -0.904613,-0.40552 -0.327533,-0.40863 -0.327533,-1.24774 0,-1.65014 1.247743,-1.65014 0.567723,0 0.898375,0.4024 0.333771,0.4024 0.333771,1.21655 z m -0.689378,0.0312 q 0,-0.66442 -0.149729,-0.91085 -0.14661,-0.24955 -0.399278,-0.24955 -0.549007,0 -0.549007,1.1604 0,0.59268 0.127894,0.87654 0.127894,0.28386 0.421113,0.28386 0.2901,0 0.417994,-0.28698 0.131013,-0.2901 0.131013,-0.87342 z"
           style="font-style:normal;font-variant:normal;font-weight:normal;font-stretch:normal;font-family:'Franklin Gothic Medium Cond';-inkscape-font-specification:'Franklin Gothic Medium Cond';stroke-width:0.15971106;fill:#09628e;fill-opacity:1"
           id="path3513" />
        <path
           inkscape:connector-curvature="0"
           d="m 47.290015,266.43536 h 0.602036 v 0.48662 q 0.218355,-0.56149 0.779839,-0.56149 0.318174,0 0.511574,0.15285 0.19652,0.15285 0.246429,0.36808 0.05303,0.21212 0.05303,0.67379 v 2.0307 h -0.648826 v -1.99639 q 0,-0.41176 -0.07174,-0.55837 -0.07174,-0.14973 -0.305697,-0.14973 -0.24331,0 -0.380561,0.19029 -0.134133,0.18716 -0.134133,0.74864 v 1.76556 h -0.651945 z"
           style="font-style:normal;font-variant:normal;font-weight:normal;font-stretch:normal;font-family:'Franklin Gothic Medium Cond';-inkscape-font-specification:'Franklin Gothic Medium Cond';stroke-width:0.15971106;fill:#09628e;fill-opacity:1"
           id="path3515" />
      </g>
      <g
         aria-label="Copyright"
         style="font-style:normal;font-weight:normal;font-size:6.38844204px;line-height:1.25;font-family:sans-serif;letter-spacing:0px;word-spacing:0px;display:inline;fill:#09628e;fill-opacity:1;stroke:none;stroke-width:0.15971106"
         id="g3537">
        <path
           inkscape:connector-curvature="0"
           d="m 31.387536,273.70274 0.648826,0.0905 q -0.199639,1.41931 -1.394352,1.41931 -0.77672,0 -1.157282,-0.5958 -0.380561,-0.5958 -0.380561,-1.59399 0,-1.07618 0.402397,-1.65014 0.402397,-0.57396 1.160401,-0.57396 1.172878,0 1.375636,1.45362 l -0.655065,0.0967 q -0.106058,-0.967 -0.717452,-0.967 -0.817271,0 -0.817271,1.68133 0,1.56592 0.817271,1.56592 0.327532,0 0.48662,-0.23708 0.162206,-0.24019 0.230832,-0.68937 z"
           style="font-style:normal;font-variant:normal;font-weight:normal;font-stretch:normal;font-family:'Franklin Gothic Medium Cond';-inkscape-font-specification:'Franklin Gothic Medium Cond';stroke-width:0.15971106;fill:#09628e;fill-opacity:1"
           id="path3519" />
        <path
           inkscape:connector-curvature="0"
           d="m 34.915528,273.52805 q 0,1.68446 -1.247742,1.68446 -0.573962,0 -0.904614,-0.40552 -0.327532,-0.40864 -0.327532,-1.24774 0,-1.65014 1.247742,-1.65014 0.567723,0 0.898375,0.40239 0.333771,0.4024 0.333771,1.21655 z m -0.689378,0.0312 q 0,-0.66443 -0.149729,-0.91086 -0.146609,-0.24954 -0.399277,-0.24954 -0.549007,0 -0.549007,1.1604 0,0.59267 0.127894,0.87654 0.127893,0.28386 0.421113,0.28386 0.2901,0 0.417993,-0.28698 0.131013,-0.2901 0.131013,-0.87342 z"
           style="font-style:normal;font-variant:normal;font-weight:normal;font-stretch:normal;font-family:'Franklin Gothic Medium Cond';-inkscape-font-specification:'Franklin Gothic Medium Cond';stroke-width:0.15971106;fill:#09628e;fill-opacity:1"
           id="path3521" />
        <path
           inkscape:connector-curvature="0"
           d="m 35.533161,271.98397 h 0.598916 v 0.51781 q 0.246429,-0.57084 0.779839,-0.57084 0.477262,0 0.770481,0.418 0.29322,0.41487 0.29322,1.18535 0,0.68938 -0.268265,1.17288 -0.265145,0.4835 -0.826629,0.4835 -0.449188,0 -0.701855,-0.38368 v 1.39435 h -0.645707 z m 0.645707,1.83418 q 0,0.30258 0.04367,0.47415 0.04679,0.16844 0.187161,0.2901 0.140371,0.11853 0.318174,0.11853 0.555246,0 0.555246,-1.16664 0,-1.12921 -0.542768,-1.12921 -0.240191,0 -0.402397,0.23084 -0.159087,0.23083 -0.159087,0.65818 z"
           style="font-style:normal;font-variant:normal;font-weight:normal;font-stretch:normal;font-family:'Franklin Gothic Medium Cond';-inkscape-font-specification:'Franklin Gothic Medium Cond';stroke-width:0.15971106;fill:#09628e;fill-opacity:1"
           id="path3523" />
        <path
           inkscape:connector-curvature="0"
           d="m 38.162778,271.98397 h 0.651946 l 0.549006,2.16483 0.564604,-2.16483 h 0.586439 l -1.023149,3.35019 q -0.112297,0.36497 -0.205878,0.53965 -0.09358,0.17468 -0.265145,0.28074 -0.171565,0.10918 -0.442949,0.10918 -0.162206,0 -0.333771,-0.0437 v -0.51782 q 0.124775,0.0218 0.227713,0.0218 0.252668,0 0.358726,-0.12477 0.106058,-0.12166 0.227713,-0.57085 z"
           style="font-style:normal;font-variant:normal;font-weight:normal;font-stretch:normal;font-family:'Franklin Gothic Medium Cond';-inkscape-font-specification:'Franklin Gothic Medium Cond';stroke-width:0.15971106;fill:#09628e;fill-opacity:1"
           id="path3525" />
        <path
           inkscape:connector-curvature="0"
           d="m 40.839186,271.98397 h 0.573962 v 0.70498 q 0.262026,-0.77049 0.786078,-0.77049 0.04991,0 0.118535,0.009 v 0.6769 q -0.0811,-0.009 -0.131013,-0.009 -0.695616,0 -0.695616,0.9358 v 1.60335 h -0.651946 z"
           style="font-style:normal;font-variant:normal;font-weight:normal;font-stretch:normal;font-family:'Franklin Gothic Medium Cond';-inkscape-font-specification:'Franklin Gothic Medium Cond';stroke-width:0.15971106;fill:#09628e;fill-opacity:1"
           id="path3527" />
        <path
           inkscape:connector-curvature="0"
           d="m 43.250449,271.55974 h -0.68002 v -0.68938 h 0.68002 z m -0.664423,0.42423 h 0.648826 v 3.15055 h -0.648826 z"
           style="font-style:normal;font-variant:normal;font-weight:normal;font-stretch:normal;font-family:'Franklin Gothic Medium Cond';-inkscape-font-specification:'Franklin Gothic Medium Cond';stroke-width:0.15971106;fill:#09628e;fill-opacity:1"
           id="path3529" />
        <path
           inkscape:connector-curvature="0"
           d="m 46.457147,271.48176 v 0.47726 q -0.09046,-0.0187 -0.149729,-0.0187 -0.286981,0 -0.34001,0.34625 0.237071,0.29946 0.237071,0.6769 0,0.42735 -0.296339,0.72057 -0.296339,0.29322 -0.798555,0.29322 -0.190281,0 -0.399278,-0.0562 -0.237071,0.0905 -0.237071,0.27451 0,0.15908 0.124774,0.20587 0.127894,0.0468 0.670662,0.0749 0.467903,0.0249 0.704975,0.0873 0.237071,0.0624 0.377442,0.25579 0.14349,0.19028 0.14349,0.50221 0,0.48038 -0.371203,0.72681 -0.371204,0.24955 -1.057462,0.24955 -0.661304,0 -0.967001,-0.21835 -0.302577,-0.21524 -0.302577,-0.57397 0,-0.45542 0.458545,-0.60827 -0.343129,-0.19028 -0.343129,-0.51469 0,-0.41176 0.464784,-0.63323 -0.405516,-0.26827 -0.405516,-0.80792 0,-0.46166 0.308816,-0.74552 0.308816,-0.28698 0.795436,-0.28698 0.318174,0 0.595797,0.13725 0.04991,-0.32753 0.187161,-0.45231 0.140371,-0.12789 0.405517,-0.12789 0.07798,0 0.1934,0.0156 z m -0.92333,1.47233 q 0,-0.61763 -0.427352,-0.61763 -0.464784,0 -0.464784,0.62387 0,0.60516 0.449188,0.60516 0.442948,0 0.442948,-0.6114 z m -0.876539,2.04942 q -0.271384,0.13413 -0.271384,0.4024 0,0.22459 0.174684,0.33065 0.174684,0.10606 0.5802,0.10606 0.748646,0 0.748646,-0.4336 0,-0.21211 -0.14349,-0.2901 -0.140372,-0.0811 -0.558365,-0.0936 -0.352488,-0.0125 -0.530291,-0.0218 z"
           style="font-style:normal;font-variant:normal;font-weight:normal;font-stretch:normal;font-family:'Franklin Gothic Medium Cond';-inkscape-font-specification:'Franklin Gothic Medium Cond';stroke-width:0.15971106;fill:#09628e;fill-opacity:1"
           id="path3531" />
        <path
           inkscape:connector-curvature="0"
           d="m 46.837709,270.8766 h 0.651946 v 1.52537 q 0.221474,-0.49286 0.751764,-0.49286 0.271385,0 0.455427,0.12477 0.187161,0.12478 0.258906,0.33377 0.07487,0.20588 0.07487,0.78296 v 1.98391 h -0.648826 v -1.98391 q 0,-0.49286 -0.112297,-0.60515 -0.112297,-0.11542 -0.277623,-0.11542 -0.502216,0 -0.502216,0.90149 v 1.80299 h -0.651946 z"
           style="font-style:normal;font-variant:normal;font-weight:normal;font-stretch:normal;font-family:'Franklin Gothic Medium Cond';-inkscape-font-specification:'Franklin Gothic Medium Cond';stroke-width:0.15971106;fill:#09628e;fill-opacity:1"
           id="path3533" />
        <path
           inkscape:connector-curvature="0"
           d="m 49.900916,271.16358 0.586439,-0.0562 v 0.87654 h 0.602036 v 0.52405 h -0.602036 v 1.39124 q 0,0.36808 0.01872,0.48974 0.01872,0.11853 0.112297,0.19651 0.09358,0.0749 0.311936,0.0749 0.115416,0 0.262026,-0.0218 v 0.51782 q -0.262026,0.0562 -0.48662,0.0562 -0.364964,0 -0.558365,-0.14038 -0.1934,-0.14349 -0.246429,-0.3868 -0.05303,-0.24331 -0.05303,-0.7424 v -1.43491 h -0.408635 v -0.52405 h 0.427351 z"
           style="font-style:normal;font-variant:normal;font-weight:normal;font-stretch:normal;font-family:'Franklin Gothic Medium Cond';-inkscape-font-specification:'Franklin Gothic Medium Cond';stroke-width:0.15971106;fill:#09628e;fill-opacity:1"
           id="path3535" />
      </g>
      <g
         aria-label=".org"
         style="font-style:normal;font-weight:normal;font-size:6.38844204px;line-height:1.25;font-family:sans-serif;letter-spacing:0px;word-spacing:0px;display:inline;fill:#09628e;fill-opacity:1;stroke:none;stroke-width:0.15971106"
         id="g3547">
        <path
           inkscape:connector-curvature="0"
           d="m 29.104167,279.15669 h 0.711213 v 0.8048 h -0.711213 z"
           style="font-style:normal;font-variant:normal;font-weight:normal;font-stretch:normal;font-family:'Franklin Gothic Medium Cond';-inkscape-font-specification:'Franklin Gothic Medium Cond';stroke-width:0.15971106;fill:#09628e;fill-opacity:1"
           id="path3539" />
        <path
           inkscape:connector-curvature="0"
           d="m 32.928498,278.35502 q 0,1.68445 -1.247743,1.68445 -0.573961,0 -0.904613,-0.40552 -0.327533,-0.40863 -0.327533,-1.24774 0,-1.65014 1.247743,-1.65014 0.567723,0 0.898375,0.4024 0.333771,0.4024 0.333771,1.21655 z m -0.689378,0.0312 q 0,-0.66442 -0.149729,-0.91085 -0.14661,-0.24955 -0.399278,-0.24955 -0.549006,0 -0.549006,1.1604 0,0.59268 0.127893,0.87654 0.127894,0.28386 0.421113,0.28386 0.2901,0 0.417994,-0.28698 0.131013,-0.2901 0.131013,-0.87342 z"
           style="font-style:normal;font-variant:normal;font-weight:normal;font-stretch:normal;font-family:'Franklin Gothic Medium Cond';-inkscape-font-specification:'Franklin Gothic Medium Cond';stroke-width:0.15971106;fill:#09628e;fill-opacity:1"
           id="path3541" />
        <path
           inkscape:connector-curvature="0"
           d="m 33.54925,276.81094 h 0.573961 v 0.70497 q 0.262026,-0.77048 0.786078,-0.77048 0.04991,0 0.118536,0.009 v 0.6769 q -0.0811,-0.009 -0.131013,-0.009 -0.695617,0 -0.695617,0.93581 v 1.60335 H 33.54925 Z"
           style="font-style:normal;font-variant:normal;font-weight:normal;font-stretch:normal;font-family:'Franklin Gothic Medium Cond';-inkscape-font-specification:'Franklin Gothic Medium Cond';stroke-width:0.15971106;fill:#09628e;fill-opacity:1"
           id="path3543" />
        <path
           inkscape:connector-curvature="0"
           d="m 37.838365,276.30872 v 0.47726 q -0.09046,-0.0187 -0.149729,-0.0187 -0.286981,0 -0.34001,0.34624 0.237071,0.29946 0.237071,0.6769 0,0.42736 -0.296339,0.72058 -0.296339,0.29322 -0.798555,0.29322 -0.190281,0 -0.399278,-0.0562 -0.237071,0.0905 -0.237071,0.2745 0,0.15909 0.124774,0.20588 0.127894,0.0468 0.670662,0.0749 0.467903,0.025 0.704974,0.0873 0.237072,0.0624 0.377443,0.25579 0.14349,0.19028 0.14349,0.50222 0,0.48038 -0.371203,0.72681 -0.371204,0.24955 -1.057462,0.24955 -0.661304,0 -0.967001,-0.21836 -0.302577,-0.21523 -0.302577,-0.57396 0,-0.45543 0.458545,-0.60827 -0.343129,-0.19029 -0.343129,-0.5147 0,-0.41175 0.464784,-0.63323 -0.405516,-0.26826 -0.405516,-0.80791 0,-0.46167 0.308816,-0.74553 0.308816,-0.28698 0.795436,-0.28698 0.318174,0 0.595797,0.13725 0.04991,-0.32753 0.187161,-0.4523 0.140371,-0.1279 0.405517,-0.1279 0.07798,0 0.1934,0.0156 z m -0.92333,1.47234 q 0,-0.61764 -0.427352,-0.61764 -0.464784,0 -0.464784,0.62388 0,0.60515 0.449188,0.60515 0.442948,0 0.442948,-0.61139 z m -0.876539,2.04941 q -0.271384,0.13414 -0.271384,0.4024 0,0.22459 0.174684,0.33065 0.174684,0.10606 0.5802,0.10606 0.748646,0 0.748646,-0.43359 0,-0.21212 -0.143491,-0.2901 -0.140371,-0.0811 -0.558364,-0.0936 -0.352488,-0.0125 -0.530291,-0.0218 z"
           style="font-style:normal;font-variant:normal;font-weight:normal;font-stretch:normal;font-family:'Franklin Gothic Medium Cond';-inkscape-font-specification:'Franklin Gothic Medium Cond';stroke-width:0.15971106;fill:#09628e;fill-opacity:1"
           id="path3545" />
      </g>
    </g>
  </g>
</svg>
